//Maya ASCII 2013 scene
//Name: Turret10_MachineGunTower05.ma
//Last modified: Thu, Jun 12, 2014 07:30:36 PM
//Codeset: UTF-8
file -rdi 1 -rpr "Turret10" -rfn "Turret10RN" "/Users/jmiller/Art/everlife//Assets/Art/Defense/Turret_10/MacineGunTower_1-5.ma";
file -r -rpr "Turret10" -dr 1 -rfn "Turret10RN" "/Users/jmiller/Art/everlife//Assets/Art/Defense/Turret_10/MacineGunTower_1-5.ma";
requires maya "2013";
requires "Mayatomr" "2013.0 - 3.10.1.9 ";
requires "stereoCamera" "10.0";
currentUnit -l centimeter -a degree -t ntsc;
fileInfo "application" "maya";
fileInfo "product" "Maya 2013";
fileInfo "version" "2013 x64";
fileInfo "cutIdentifier" "201207040330-835994";
fileInfo "osv" "Mac OS X 10.9.3";
createNode transform -s -n "persp";
	setAttr ".v" no;
	setAttr ".t" -type "double3" 4.8614896705414949 77.976964820770831 -5.7155962839652013 ;
	setAttr ".r" -type "double3" -81.938352729587734 126.99999999998866 0 ;
createNode camera -s -n "perspShape" -p "persp";
	setAttr -k off ".v" no;
	setAttr ".fl" 34.999999999999986;
	setAttr ".coi" 74.788034446833535;
	setAttr ".imn" -type "string" "persp";
	setAttr ".den" -type "string" "persp_depth";
	setAttr ".man" -type "string" "persp_mask";
	setAttr ".hc" -type "string" "viewSet -p %camera";
createNode transform -s -n "top";
	setAttr ".v" no;
	setAttr ".t" -type "double3" 0 100.1 0 ;
	setAttr ".r" -type "double3" -89.999999999999986 0 0 ;
createNode camera -s -n "topShape" -p "top";
	setAttr -k off ".v" no;
	setAttr ".rnd" no;
	setAttr ".coi" 100.1;
	setAttr ".ow" 30;
	setAttr ".imn" -type "string" "top";
	setAttr ".den" -type "string" "top_depth";
	setAttr ".man" -type "string" "top_mask";
	setAttr ".hc" -type "string" "viewSet -t %camera";
	setAttr ".o" yes;
createNode transform -s -n "front";
	setAttr ".v" no;
	setAttr ".t" -type "double3" 0 0 100.1 ;
createNode camera -s -n "frontShape" -p "front";
	setAttr -k off ".v" no;
	setAttr ".rnd" no;
	setAttr ".coi" 100.1;
	setAttr ".ow" 30;
	setAttr ".imn" -type "string" "front";
	setAttr ".den" -type "string" "front_depth";
	setAttr ".man" -type "string" "front_mask";
	setAttr ".hc" -type "string" "viewSet -f %camera";
	setAttr ".o" yes;
createNode transform -s -n "side";
	setAttr ".v" no;
	setAttr ".t" -type "double3" 100.1 0 0 ;
	setAttr ".r" -type "double3" 0 89.999999999999986 0 ;
createNode camera -s -n "sideShape" -p "side";
	setAttr -k off ".v" no;
	setAttr ".rnd" no;
	setAttr ".coi" 100.1;
	setAttr ".ow" 30;
	setAttr ".imn" -type "string" "side";
	setAttr ".den" -type "string" "side_depth";
	setAttr ".man" -type "string" "side_mask";
	setAttr ".hc" -type "string" "viewSet -s %camera";
	setAttr ".o" yes;
createNode transform -n "Turret10RNfosterParent1";
createNode mesh -n "Turret10_polySurfaceShape78Deformed" -p "Turret10RNfosterParent1";
	setAttr -k off ".v";
	setAttr -s 6 ".iog[0].og";
	setAttr ".vir" yes;
	setAttr ".vif" yes;
	setAttr ".uvst[0].uvsn" -type "string" "map1";
	setAttr ".cuvs" -type "string" "map1";
	setAttr ".dcc" -type "string" "Ambient+Diffuse";
	setAttr ".covm[0]"  0 1 1;
	setAttr ".cdvm[0]"  0 1 1;
createNode lightLinker -s -n "lightLinker1";
	setAttr -s 9 ".lnk";
	setAttr -s 9 ".slnk";
createNode displayLayerManager -n "layerManager";
createNode displayLayer -n "defaultLayer";
createNode renderLayerManager -n "renderLayerManager";
createNode renderLayer -n "defaultRenderLayer";
	setAttr ".g" yes;
createNode reference -n "Turret10RN";
	setAttr -s 57 ".phl";
	setAttr ".phl[1]" 0;
	setAttr ".phl[2]" 0;
	setAttr ".phl[3]" 0;
	setAttr ".phl[4]" 0;
	setAttr ".phl[5]" 0;
	setAttr ".phl[6]" 0;
	setAttr ".phl[7]" 0;
	setAttr ".phl[8]" 0;
	setAttr ".phl[9]" 0;
	setAttr ".phl[10]" 0;
	setAttr ".phl[11]" 0;
	setAttr ".phl[12]" 0;
	setAttr ".phl[13]" 0;
	setAttr ".phl[14]" 0;
	setAttr ".phl[15]" 0;
	setAttr ".phl[16]" 0;
	setAttr ".phl[17]" 0;
	setAttr ".phl[18]" 0;
	setAttr ".phl[19]" 0;
	setAttr ".phl[20]" 0;
	setAttr ".phl[21]" 0;
	setAttr ".phl[22]" 0;
	setAttr ".phl[23]" 0;
	setAttr ".phl[24]" 0;
	setAttr ".phl[25]" 0;
	setAttr ".phl[26]" 0;
	setAttr ".phl[27]" 0;
	setAttr ".phl[28]" 0;
	setAttr ".phl[29]" 0;
	setAttr ".phl[30]" 0;
	setAttr ".phl[31]" 0;
	setAttr ".phl[32]" 0;
	setAttr ".phl[33]" 0;
	setAttr ".phl[34]" 0;
	setAttr ".phl[35]" 0;
	setAttr ".phl[36]" 0;
	setAttr ".phl[37]" 0;
	setAttr ".phl[38]" 0;
	setAttr ".phl[39]" 0;
	setAttr ".phl[40]" 0;
	setAttr ".phl[41]" 0;
	setAttr ".phl[42]" 0;
	setAttr ".phl[43]" 0;
	setAttr ".phl[44]" 0;
	setAttr ".phl[45]" 0;
	setAttr ".phl[46]" 0;
	setAttr ".phl[47]" 0;
	setAttr ".phl[48]" 0;
	setAttr ".phl[49]" 0;
	setAttr ".phl[50]" 0;
	setAttr ".phl[51]" 0;
	setAttr ".phl[52]" 0;
	setAttr ".phl[53]" 0;
	setAttr ".phl[54]" 0;
	setAttr ".phl[55]" 0;
	setAttr ".phl[56]" 0;
	setAttr ".phl[57]" 0;
	setAttr ".ed" -type "dataReferenceEdits" 
		"Turret10RN"
		"Turret10RN" 0
		"Turret10RN" 81
		0 "|Turret10RNfosterParent1|Turret10_polySurfaceShape78Deformed" "|Turret10_Level05|Turret10_MachineGunTower05|Turret10_polySurface77|Turret10_polySurface78" 
		"-s -r "
		2 "|Turret10_Level01" "visibility" " 0"
		2 "|Turret10_Level01|Turret10_MachineGunTower01" "rotate" " -type \"double3\" 0 0 0"
		
		2 "|Turret10_Level01|Turret10_MachineGunTower01|Turret10_srhgdrggrrg|Turret10_polySurface3" 
		"rotate" " -type \"double3\" 0 0 0"
		2 "|Turret10_Level01|Turret10_MachineGunTower01|Turret10_srhgdrggrrg|Turret10_polySurface3" 
		"rotateZ" " -av"
		2 "|Turret10_Level02" "visibility" " 0"
		2 "|Turret10_Level02|Turret10_MachineGunTower02|Turret10_polySurface7|Turret10_polySurface6" 
		"rotate" " -type \"double3\" 0 0 0"
		2 "|Turret10_Level02|Turret10_MachineGunTower02|Turret10_polySurface7|Turret10_polySurface6" 
		"rotateZ" " -av"
		2 "|Turret10_Level03" "visibility" " 0"
		2 "|Turret10_Level03|Turret10_MachineGunTower03|Turret10_polySurface35|Turret10_polySurface34" 
		"rotate" " -type \"double3\" 0 0 0"
		2 "|Turret10_Level03|Turret10_MachineGunTower03|Turret10_polySurface35|Turret10_polySurface34" 
		"rotateZ" " -av"
		2 "|Turret10_Level04" "visibility" " 0"
		2 "|Turret10_Level04|Turret10_MachineGunTower04|Turret10_polySurface56|Turret10_polySurface55" 
		"rotate" " -type \"double3\" 0 0 0"
		2 "|Turret10_Level04|Turret10_MachineGunTower04|Turret10_polySurface56|Turret10_polySurface55" 
		"rotateZ" " -av"
		2 "|Turret10_Level05" "visibility" " 1"
		2 "|Turret10_Level05|Turret10_MachineGunTower05" "rotate" " -type \"double3\" 0 0 0"
		
		2 "|Turret10_Level05|Turret10_MachineGunTower05|Turret10_polySurface77|Turret10_polySurface76" 
		"rotate" " -type \"double3\" 0 0 0"
		2 "|Turret10_Level05|Turret10_MachineGunTower05|Turret10_polySurface77|Turret10_polySurface76" 
		"rotateZ" " -av"
		2 "|Turret10_Level05|Turret10_MachineGunTower05|Turret10_polySurface77|Turret10_polySurface78|Turret10_polySurfaceShape78" 
		"intermediateObject" " 1"
		2 "Turret10_Level_01" "visibility" " 0"
		2 "Turret10_Level_02" "visibility" " 0"
		2 "Turret10_Level_03" "visibility" " 0"
		2 "Turret10_Level_04" "visibility" " 0"
		2 "Turret10_Level_05" "visibility" " 1"
		5 4 "Turret10RN" "|Turret10_Level01|Turret10_MachineGunTower01|Turret10_srhgdrggrrg|Turret10_polySurface3.visibility" 
		"Turret10RN.placeHolderList[1]" ""
		5 4 "Turret10RN" "|Turret10_Level01|Turret10_MachineGunTower01|Turret10_srhgdrggrrg|Turret10_polySurface3.translateX" 
		"Turret10RN.placeHolderList[2]" ""
		5 4 "Turret10RN" "|Turret10_Level01|Turret10_MachineGunTower01|Turret10_srhgdrggrrg|Turret10_polySurface3.translateY" 
		"Turret10RN.placeHolderList[3]" ""
		5 4 "Turret10RN" "|Turret10_Level01|Turret10_MachineGunTower01|Turret10_srhgdrggrrg|Turret10_polySurface3.translateZ" 
		"Turret10RN.placeHolderList[4]" ""
		5 4 "Turret10RN" "|Turret10_Level01|Turret10_MachineGunTower01|Turret10_srhgdrggrrg|Turret10_polySurface3.rotateX" 
		"Turret10RN.placeHolderList[5]" ""
		5 4 "Turret10RN" "|Turret10_Level01|Turret10_MachineGunTower01|Turret10_srhgdrggrrg|Turret10_polySurface3.rotateY" 
		"Turret10RN.placeHolderList[6]" ""
		5 4 "Turret10RN" "|Turret10_Level01|Turret10_MachineGunTower01|Turret10_srhgdrggrrg|Turret10_polySurface3.rotateZ" 
		"Turret10RN.placeHolderList[7]" ""
		5 4 "Turret10RN" "|Turret10_Level01|Turret10_MachineGunTower01|Turret10_srhgdrggrrg|Turret10_polySurface3.scaleX" 
		"Turret10RN.placeHolderList[8]" ""
		5 4 "Turret10RN" "|Turret10_Level01|Turret10_MachineGunTower01|Turret10_srhgdrggrrg|Turret10_polySurface3.scaleY" 
		"Turret10RN.placeHolderList[9]" ""
		5 4 "Turret10RN" "|Turret10_Level01|Turret10_MachineGunTower01|Turret10_srhgdrggrrg|Turret10_polySurface3.scaleZ" 
		"Turret10RN.placeHolderList[10]" ""
		5 4 "Turret10RN" "|Turret10_Level02|Turret10_MachineGunTower02|Turret10_polySurface7|Turret10_polySurface6.rotateX" 
		"Turret10RN.placeHolderList[11]" ""
		5 4 "Turret10RN" "|Turret10_Level02|Turret10_MachineGunTower02|Turret10_polySurface7|Turret10_polySurface6.rotateY" 
		"Turret10RN.placeHolderList[12]" ""
		5 4 "Turret10RN" "|Turret10_Level02|Turret10_MachineGunTower02|Turret10_polySurface7|Turret10_polySurface6.rotateZ" 
		"Turret10RN.placeHolderList[13]" ""
		5 4 "Turret10RN" "|Turret10_Level02|Turret10_MachineGunTower02|Turret10_polySurface7|Turret10_polySurface6.visibility" 
		"Turret10RN.placeHolderList[14]" ""
		5 4 "Turret10RN" "|Turret10_Level02|Turret10_MachineGunTower02|Turret10_polySurface7|Turret10_polySurface6.translateX" 
		"Turret10RN.placeHolderList[15]" ""
		5 4 "Turret10RN" "|Turret10_Level02|Turret10_MachineGunTower02|Turret10_polySurface7|Turret10_polySurface6.translateY" 
		"Turret10RN.placeHolderList[16]" ""
		5 4 "Turret10RN" "|Turret10_Level02|Turret10_MachineGunTower02|Turret10_polySurface7|Turret10_polySurface6.translateZ" 
		"Turret10RN.placeHolderList[17]" ""
		5 4 "Turret10RN" "|Turret10_Level02|Turret10_MachineGunTower02|Turret10_polySurface7|Turret10_polySurface6.scaleX" 
		"Turret10RN.placeHolderList[18]" ""
		5 4 "Turret10RN" "|Turret10_Level02|Turret10_MachineGunTower02|Turret10_polySurface7|Turret10_polySurface6.scaleY" 
		"Turret10RN.placeHolderList[19]" ""
		5 4 "Turret10RN" "|Turret10_Level02|Turret10_MachineGunTower02|Turret10_polySurface7|Turret10_polySurface6.scaleZ" 
		"Turret10RN.placeHolderList[20]" ""
		5 4 "Turret10RN" "|Turret10_Level03|Turret10_MachineGunTower03|Turret10_polySurface35|Turret10_polySurface34.rotateX" 
		"Turret10RN.placeHolderList[21]" ""
		5 4 "Turret10RN" "|Turret10_Level03|Turret10_MachineGunTower03|Turret10_polySurface35|Turret10_polySurface34.rotateY" 
		"Turret10RN.placeHolderList[22]" ""
		5 4 "Turret10RN" "|Turret10_Level03|Turret10_MachineGunTower03|Turret10_polySurface35|Turret10_polySurface34.rotateZ" 
		"Turret10RN.placeHolderList[23]" ""
		5 4 "Turret10RN" "|Turret10_Level03|Turret10_MachineGunTower03|Turret10_polySurface35|Turret10_polySurface34.visibility" 
		"Turret10RN.placeHolderList[24]" ""
		5 4 "Turret10RN" "|Turret10_Level03|Turret10_MachineGunTower03|Turret10_polySurface35|Turret10_polySurface34.translateX" 
		"Turret10RN.placeHolderList[25]" ""
		5 4 "Turret10RN" "|Turret10_Level03|Turret10_MachineGunTower03|Turret10_polySurface35|Turret10_polySurface34.translateY" 
		"Turret10RN.placeHolderList[26]" ""
		5 4 "Turret10RN" "|Turret10_Level03|Turret10_MachineGunTower03|Turret10_polySurface35|Turret10_polySurface34.translateZ" 
		"Turret10RN.placeHolderList[27]" ""
		5 4 "Turret10RN" "|Turret10_Level03|Turret10_MachineGunTower03|Turret10_polySurface35|Turret10_polySurface34.scaleX" 
		"Turret10RN.placeHolderList[28]" ""
		5 4 "Turret10RN" "|Turret10_Level03|Turret10_MachineGunTower03|Turret10_polySurface35|Turret10_polySurface34.scaleY" 
		"Turret10RN.placeHolderList[29]" ""
		5 4 "Turret10RN" "|Turret10_Level03|Turret10_MachineGunTower03|Turret10_polySurface35|Turret10_polySurface34.scaleZ" 
		"Turret10RN.placeHolderList[30]" ""
		5 4 "Turret10RN" "|Turret10_Level04|Turret10_MachineGunTower04|Turret10_polySurface56|Turret10_polySurface55.rotateZ" 
		"Turret10RN.placeHolderList[31]" ""
		5 4 "Turret10RN" "|Turret10_Level04|Turret10_MachineGunTower04|Turret10_polySurface56|Turret10_polySurface55.rotateX" 
		"Turret10RN.placeHolderList[32]" ""
		5 4 "Turret10RN" "|Turret10_Level04|Turret10_MachineGunTower04|Turret10_polySurface56|Turret10_polySurface55.rotateY" 
		"Turret10RN.placeHolderList[33]" ""
		5 4 "Turret10RN" "|Turret10_Level04|Turret10_MachineGunTower04|Turret10_polySurface56|Turret10_polySurface55.visibility" 
		"Turret10RN.placeHolderList[34]" ""
		5 4 "Turret10RN" "|Turret10_Level04|Turret10_MachineGunTower04|Turret10_polySurface56|Turret10_polySurface55.translateX" 
		"Turret10RN.placeHolderList[35]" ""
		5 4 "Turret10RN" "|Turret10_Level04|Turret10_MachineGunTower04|Turret10_polySurface56|Turret10_polySurface55.translateY" 
		"Turret10RN.placeHolderList[36]" ""
		5 4 "Turret10RN" "|Turret10_Level04|Turret10_MachineGunTower04|Turret10_polySurface56|Turret10_polySurface55.translateZ" 
		"Turret10RN.placeHolderList[37]" ""
		5 4 "Turret10RN" "|Turret10_Level04|Turret10_MachineGunTower04|Turret10_polySurface56|Turret10_polySurface55.scaleX" 
		"Turret10RN.placeHolderList[38]" ""
		5 4 "Turret10RN" "|Turret10_Level04|Turret10_MachineGunTower04|Turret10_polySurface56|Turret10_polySurface55.scaleY" 
		"Turret10RN.placeHolderList[39]" ""
		5 4 "Turret10RN" "|Turret10_Level04|Turret10_MachineGunTower04|Turret10_polySurface56|Turret10_polySurface55.scaleZ" 
		"Turret10RN.placeHolderList[40]" ""
		5 4 "Turret10RN" "|Turret10_Level05|Turret10_MachineGunTower05|Turret10_polySurface77|Turret10_polySurface76.rotateX" 
		"Turret10RN.placeHolderList[41]" ""
		5 4 "Turret10RN" "|Turret10_Level05|Turret10_MachineGunTower05|Turret10_polySurface77|Turret10_polySurface76.rotateY" 
		"Turret10RN.placeHolderList[42]" ""
		5 4 "Turret10RN" "|Turret10_Level05|Turret10_MachineGunTower05|Turret10_polySurface77|Turret10_polySurface76.rotateZ" 
		"Turret10RN.placeHolderList[43]" ""
		5 4 "Turret10RN" "|Turret10_Level05|Turret10_MachineGunTower05|Turret10_polySurface77|Turret10_polySurface76.visibility" 
		"Turret10RN.placeHolderList[44]" ""
		5 4 "Turret10RN" "|Turret10_Level05|Turret10_MachineGunTower05|Turret10_polySurface77|Turret10_polySurface76.translateX" 
		"Turret10RN.placeHolderList[45]" ""
		5 4 "Turret10RN" "|Turret10_Level05|Turret10_MachineGunTower05|Turret10_polySurface77|Turret10_polySurface76.translateY" 
		"Turret10RN.placeHolderList[46]" ""
		5 4 "Turret10RN" "|Turret10_Level05|Turret10_MachineGunTower05|Turret10_polySurface77|Turret10_polySurface76.translateZ" 
		"Turret10RN.placeHolderList[47]" ""
		5 4 "Turret10RN" "|Turret10_Level05|Turret10_MachineGunTower05|Turret10_polySurface77|Turret10_polySurface76.scaleX" 
		"Turret10RN.placeHolderList[48]" ""
		5 4 "Turret10RN" "|Turret10_Level05|Turret10_MachineGunTower05|Turret10_polySurface77|Turret10_polySurface76.scaleY" 
		"Turret10RN.placeHolderList[49]" ""
		5 4 "Turret10RN" "|Turret10_Level05|Turret10_MachineGunTower05|Turret10_polySurface77|Turret10_polySurface76.scaleZ" 
		"Turret10RN.placeHolderList[50]" ""
		5 3 "Turret10RN" "|Turret10_Level05|Turret10_MachineGunTower05|Turret10_polySurface77|Turret10_polySurface78|Turret10_polySurfaceShape78.worldMesh" 
		"Turret10RN.placeHolderList[51]" ""
		5 3 "Turret10RN" "Turret10_pasted__pasted__pasted__rail_gun_blueSG.memberWireframeColor" 
		"Turret10RN.placeHolderList[52]" ""
		5 4 "Turret10RN" "Turret10_pasted__pasted__pasted__rail_gun_blueSG.dagSetMembers" 
		"Turret10RN.placeHolderList[53]" ""
		5 4 "Turret10RN" "Turret10_pasted__pasted__pasted__rail_gun_blueSG.groupNodes" 
		"Turret10RN.placeHolderList[54]" ""
		5 3 "Turret10RN" "Turret10_purpleSG.memberWireframeColor" "Turret10RN.placeHolderList[55]" 
		""
		5 4 "Turret10RN" "Turret10_purpleSG.dagSetMembers" "Turret10RN.placeHolderList[56]" 
		""
		5 4 "Turret10RN" "Turret10_purpleSG.groupNodes" "Turret10RN.placeHolderList[57]" 
		"";
	setAttr ".ptag" -type "string" "";
lockNode -l 1 ;
createNode mentalrayItemsList -s -n "mentalrayItemsList";
	setAttr -s 19 ".opt";
createNode mentalrayGlobals -s -n "mentalrayGlobals";
	addAttr -ci true -h true -sn "sunAndSkyShader" -ln "sunAndSkyShader" -at "message";
	setAttr ".rvb" 3;
	setAttr ".ivb" no;
createNode mentalrayOptions -s -n "miDefaultOptions";
	addAttr -ci true -m -sn "stringOptions" -ln "stringOptions" -at "compound" -nc 
		3;
	addAttr -ci true -sn "name" -ln "name" -dt "string" -p "stringOptions";
	addAttr -ci true -sn "value" -ln "value" -dt "string" -p "stringOptions";
	addAttr -ci true -sn "type" -ln "type" -dt "string" -p "stringOptions";
	setAttr ".minsp" 0;
	setAttr ".maxsp" 2;
	setAttr ".fil" 2;
	setAttr ".filw" 0.83333331346511841;
	setAttr ".filh" 0.83333331346511841;
	setAttr ".rflr" 10;
	setAttr ".rfrr" 10;
	setAttr ".maxr" 20;
	setAttr ".gi" yes;
	setAttr ".gia" 32;
	setAttr ".fg" yes;
	setAttr ".fgr" 16;
	setAttr -s 28 ".stringOptions";
	setAttr ".stringOptions[0].name" -type "string" "rast motion factor";
	setAttr ".stringOptions[0].value" -type "string" "1.0";
	setAttr ".stringOptions[0].type" -type "string" "scalar";
	setAttr ".stringOptions[1].name" -type "string" "rast transparency depth";
	setAttr ".stringOptions[1].value" -type "string" "40";
	setAttr ".stringOptions[1].type" -type "string" "integer";
	setAttr ".stringOptions[2].name" -type "string" "rast useopacity";
	setAttr ".stringOptions[2].value" -type "string" "true";
	setAttr ".stringOptions[2].type" -type "string" "boolean";
	setAttr ".stringOptions[3].name" -type "string" "importon";
	setAttr ".stringOptions[3].value" -type "string" "false";
	setAttr ".stringOptions[3].type" -type "string" "boolean";
	setAttr ".stringOptions[4].name" -type "string" "importon density";
	setAttr ".stringOptions[4].value" -type "string" "1.0";
	setAttr ".stringOptions[4].type" -type "string" "scalar";
	setAttr ".stringOptions[5].name" -type "string" "importon merge";
	setAttr ".stringOptions[5].value" -type "string" "0.0";
	setAttr ".stringOptions[5].type" -type "string" "scalar";
	setAttr ".stringOptions[6].name" -type "string" "importon trace depth";
	setAttr ".stringOptions[6].value" -type "string" "0";
	setAttr ".stringOptions[6].type" -type "string" "integer";
	setAttr ".stringOptions[7].name" -type "string" "importon traverse";
	setAttr ".stringOptions[7].value" -type "string" "true";
	setAttr ".stringOptions[7].type" -type "string" "boolean";
	setAttr ".stringOptions[8].name" -type "string" "shadowmap pixel samples";
	setAttr ".stringOptions[8].value" -type "string" "3";
	setAttr ".stringOptions[8].type" -type "string" "integer";
	setAttr ".stringOptions[9].name" -type "string" "ambient occlusion";
	setAttr ".stringOptions[9].value" -type "string" "true";
	setAttr ".stringOptions[9].type" -type "string" "boolean";
	setAttr ".stringOptions[10].name" -type "string" "ambient occlusion rays";
	setAttr ".stringOptions[10].value" -type "string" "512";
	setAttr ".stringOptions[10].type" -type "string" "integer";
	setAttr ".stringOptions[11].name" -type "string" "ambient occlusion cache";
	setAttr ".stringOptions[11].value" -type "string" "false";
	setAttr ".stringOptions[11].type" -type "string" "boolean";
	setAttr ".stringOptions[12].name" -type "string" "ambient occlusion cache density";
	setAttr ".stringOptions[12].value" -type "string" "1.0";
	setAttr ".stringOptions[12].type" -type "string" "scalar";
	setAttr ".stringOptions[13].name" -type "string" "ambient occlusion cache points";
	setAttr ".stringOptions[13].value" -type "string" "64";
	setAttr ".stringOptions[13].type" -type "string" "integer";
	setAttr ".stringOptions[14].name" -type "string" "irradiance particles";
	setAttr ".stringOptions[14].value" -type "string" "false";
	setAttr ".stringOptions[14].type" -type "string" "boolean";
	setAttr ".stringOptions[15].name" -type "string" "irradiance particles rays";
	setAttr ".stringOptions[15].value" -type "string" "256";
	setAttr ".stringOptions[15].type" -type "string" "integer";
	setAttr ".stringOptions[16].name" -type "string" "irradiance particles interpolate";
	setAttr ".stringOptions[16].value" -type "string" "1";
	setAttr ".stringOptions[16].type" -type "string" "integer";
	setAttr ".stringOptions[17].name" -type "string" "irradiance particles interppoints";
	setAttr ".stringOptions[17].value" -type "string" "64";
	setAttr ".stringOptions[17].type" -type "string" "integer";
	setAttr ".stringOptions[18].name" -type "string" "irradiance particles indirect passes";
	setAttr ".stringOptions[18].value" -type "string" "0";
	setAttr ".stringOptions[18].type" -type "string" "integer";
	setAttr ".stringOptions[19].name" -type "string" "irradiance particles scale";
	setAttr ".stringOptions[19].value" -type "string" "1.0";
	setAttr ".stringOptions[19].type" -type "string" "scalar";
	setAttr ".stringOptions[20].name" -type "string" "irradiance particles env";
	setAttr ".stringOptions[20].value" -type "string" "true";
	setAttr ".stringOptions[20].type" -type "string" "boolean";
	setAttr ".stringOptions[21].name" -type "string" "irradiance particles env rays";
	setAttr ".stringOptions[21].value" -type "string" "256";
	setAttr ".stringOptions[21].type" -type "string" "integer";
	setAttr ".stringOptions[22].name" -type "string" "irradiance particles env scale";
	setAttr ".stringOptions[22].value" -type "string" "1";
	setAttr ".stringOptions[22].type" -type "string" "integer";
	setAttr ".stringOptions[23].name" -type "string" "irradiance particles rebuild";
	setAttr ".stringOptions[23].value" -type "string" "true";
	setAttr ".stringOptions[23].type" -type "string" "boolean";
	setAttr ".stringOptions[24].name" -type "string" "irradiance particles file";
	setAttr ".stringOptions[24].value" -type "string" "";
	setAttr ".stringOptions[24].type" -type "string" "string";
	setAttr ".stringOptions[25].name" -type "string" "geom displace motion factor";
	setAttr ".stringOptions[25].value" -type "string" "1.0";
	setAttr ".stringOptions[25].type" -type "string" "scalar";
	setAttr ".stringOptions[26].name" -type "string" "contrast all buffers";
	setAttr ".stringOptions[26].value" -type "string" "true";
	setAttr ".stringOptions[26].type" -type "string" "boolean";
	setAttr ".stringOptions[27].name" -type "string" "finalgather normal tolerance";
	setAttr ".stringOptions[27].value" -type "string" "25.842";
	setAttr ".stringOptions[27].type" -type "string" "scalar";
createNode mentalrayFramebuffer -s -n "miDefaultFramebuffer";
createNode mentalrayOptions -s -n "PreviewImrRayTracyOff";
	setAttr ".splck" no;
	setAttr ".minsp" 0;
	setAttr ".fil" 1;
	setAttr ".scan" 1;
	setAttr ".ray" no;
createNode mentalrayOptions -s -n "PreviewImrRayTracyOn";
	setAttr ".splck" no;
	setAttr ".minsp" 0;
	setAttr ".fil" 1;
	setAttr ".scan" 1;
	setAttr ".rfrr" 2;
	setAttr ".maxr" 3;
	setAttr ".shrd" 1;
createNode mentalrayOptions -s -n "miContourPreset";
createNode mentalrayOptions -s -n "Draft";
	setAttr ".maxr" 2;
createNode mentalrayOptions -s -n "DraftMotionBlur";
	setAttr ".maxr" 2;
	setAttr ".mb" 1;
	setAttr ".tconr" 1;
	setAttr ".tcong" 1;
	setAttr ".tconb" 1;
	setAttr ".tcona" 1;
createNode mentalrayOptions -s -n "DraftRapidMotion";
	setAttr ".scan" 3;
	setAttr ".rapc" 1;
	setAttr ".raps" 0.25;
	setAttr ".maxr" 2;
	setAttr ".mb" 1;
	setAttr ".tconr" 1;
	setAttr ".tcong" 1;
	setAttr ".tconb" 1;
	setAttr ".tcona" 1;
createNode mentalrayOptions -s -n "Preview";
	setAttr ".minsp" -1;
	setAttr ".maxsp" 1;
	setAttr ".fil" 1;
	setAttr ".rflr" 2;
	setAttr ".rfrr" 2;
	setAttr ".maxr" 4;
createNode mentalrayOptions -s -n "PreviewMotionblur";
	setAttr ".minsp" -1;
	setAttr ".maxsp" 1;
	setAttr ".fil" 1;
	setAttr ".rflr" 2;
	setAttr ".rfrr" 2;
	setAttr ".maxr" 4;
	setAttr ".mb" 1;
	setAttr ".tconr" 0.5;
	setAttr ".tcong" 0.5;
	setAttr ".tconb" 0.5;
	setAttr ".tcona" 0.5;
createNode mentalrayOptions -s -n "PreviewRapidMotion";
	setAttr ".minsp" -1;
	setAttr ".maxsp" 1;
	setAttr ".fil" 1;
	setAttr ".scan" 3;
	setAttr ".rapc" 3;
	setAttr ".rflr" 2;
	setAttr ".rfrr" 2;
	setAttr ".maxr" 4;
	setAttr ".mb" 1;
	setAttr ".tconr" 0.5;
	setAttr ".tcong" 0.5;
	setAttr ".tconb" 0.5;
	setAttr ".tcona" 0.5;
createNode mentalrayOptions -s -n "PreviewCaustics";
	setAttr ".minsp" -1;
	setAttr ".maxsp" 1;
	setAttr ".fil" 1;
	setAttr ".rflr" 2;
	setAttr ".rfrr" 2;
	setAttr ".maxr" 4;
	setAttr ".ca" yes;
	setAttr ".cc" 1;
	setAttr ".cr" 1;
createNode mentalrayOptions -s -n "PreviewGlobalIllum";
	setAttr ".minsp" -1;
	setAttr ".maxsp" 1;
	setAttr ".fil" 1;
	setAttr ".rflr" 2;
	setAttr ".rfrr" 2;
	setAttr ".maxr" 4;
	setAttr ".gi" yes;
	setAttr ".gc" 1;
	setAttr ".gr" 1;
createNode mentalrayOptions -s -n "PreviewFinalGather";
	setAttr ".minsp" -1;
	setAttr ".maxsp" 1;
	setAttr ".fil" 1;
	setAttr ".rflr" 2;
	setAttr ".rfrr" 2;
	setAttr ".maxr" 4;
	setAttr ".fg" yes;
createNode mentalrayOptions -s -n "Production";
	setAttr ".minsp" 0;
	setAttr ".maxsp" 2;
	setAttr ".fil" 2;
	setAttr ".rflr" 10;
	setAttr ".rfrr" 10;
	setAttr ".maxr" 20;
createNode mentalrayOptions -s -n "ProductionMotionblur";
	setAttr ".minsp" 0;
	setAttr ".maxsp" 2;
	setAttr ".fil" 2;
	setAttr ".rflr" 10;
	setAttr ".rfrr" 10;
	setAttr ".maxr" 20;
	setAttr ".mb" 2;
createNode mentalrayOptions -s -n "ProductionRapidMotion";
	setAttr ".minsp" 0;
	setAttr ".maxsp" 2;
	setAttr ".fil" 2;
	setAttr ".scan" 3;
	setAttr ".rapc" 8;
	setAttr ".raps" 2;
	setAttr ".rflr" 10;
	setAttr ".rfrr" 10;
	setAttr ".maxr" 20;
	setAttr ".mb" 2;
createNode mentalrayOptions -s -n "ProductionFineTrace";
	setAttr ".conr" 0.019999999552965164;
	setAttr ".cong" 0.019999999552965164;
	setAttr ".conb" 0.019999999552965164;
	setAttr ".minsp" 1;
	setAttr ".maxsp" 2;
	setAttr ".fil" 1;
	setAttr ".filw" 0.75;
	setAttr ".filh" 0.75;
	setAttr ".jit" yes;
createNode mentalrayOptions -s -n "ProductionRapidFur";
	setAttr ".conr" 0.039999999105930328;
	setAttr ".cong" 0.029999999329447746;
	setAttr ".conb" 0.070000000298023224;
	setAttr ".minsp" 0;
	setAttr ".maxsp" 2;
	setAttr ".fil" 1;
	setAttr ".filw" 1.1449999809265137;
	setAttr ".filh" 1.1449999809265137;
	setAttr ".jit" yes;
	setAttr ".scan" 3;
	setAttr ".rapc" 3;
	setAttr ".raps" 0.25;
	setAttr ".ray" no;
	setAttr ".shmth" 3;
	setAttr ".shmap" 3;
	setAttr ".mbsm" no;
	setAttr ".bism" 0.019999999552965164;
createNode mentalrayOptions -s -n "ProductionRapidHair";
	setAttr ".conr" 0.039999999105930328;
	setAttr ".cong" 0.029999999329447746;
	setAttr ".conb" 0.070000000298023224;
	setAttr ".minsp" 0;
	setAttr ".maxsp" 2;
	setAttr ".fil" 1;
	setAttr ".filw" 1.1449999809265137;
	setAttr ".filh" 1.1449999809265137;
	setAttr ".jit" yes;
	setAttr ".scan" 3;
	setAttr ".rapc" 6;
	setAttr ".ray" no;
	setAttr ".shmth" 3;
	setAttr ".shmap" 3;
	setAttr ".mbsm" no;
	setAttr ".bism" 0.019999999552965164;
createNode animCurveTU -n "Turret10_polySurface3_visibility";
	setAttr ".tan" 9;
	setAttr ".wgt" no;
	setAttr ".ktv[0]"  1 1;
	setAttr ".kot[0]"  5;
createNode animCurveTL -n "Turret10_polySurface3_translateX";
	setAttr ".tan" 2;
	setAttr ".wgt" no;
	setAttr ".ktv[0]"  1 0;
createNode animCurveTL -n "Turret10_polySurface3_translateY";
	setAttr ".tan" 2;
	setAttr ".wgt" no;
	setAttr ".ktv[0]"  1 0;
createNode animCurveTL -n "Turret10_polySurface3_translateZ";
	setAttr ".tan" 2;
	setAttr ".wgt" no;
	setAttr ".ktv[0]"  1 0;
createNode animCurveTA -n "Turret10_polySurface3_rotateX";
	setAttr ".tan" 2;
	setAttr ".wgt" no;
	setAttr ".ktv[0]"  1 0;
createNode animCurveTA -n "Turret10_polySurface3_rotateY";
	setAttr ".tan" 2;
	setAttr ".wgt" no;
	setAttr ".ktv[0]"  1 0;
createNode animCurveTA -n "Turret10_polySurface3_rotateZ";
	setAttr ".tan" 2;
	setAttr ".wgt" no;
	setAttr -s 2 ".ktv[0:1]"  1 0 2 -59.999999999999993;
createNode animCurveTU -n "Turret10_polySurface3_scaleX";
	setAttr ".tan" 2;
	setAttr ".wgt" no;
	setAttr ".ktv[0]"  1 1;
createNode animCurveTU -n "Turret10_polySurface3_scaleY";
	setAttr ".tan" 2;
	setAttr ".wgt" no;
	setAttr ".ktv[0]"  1 1;
createNode animCurveTU -n "Turret10_polySurface3_scaleZ";
	setAttr ".tan" 2;
	setAttr ".wgt" no;
	setAttr ".ktv[0]"  1 1;
createNode script -n "sceneConfigurationScriptNode";
	setAttr ".b" -type "string" "playbackOptions -min 1 -max 2 -ast 1 -aet 2 ";
	setAttr ".st" 6;
createNode animCurveTA -n "Turret10_polySurface6_rotateX";
	setAttr ".tan" 2;
	setAttr ".wgt" no;
	setAttr ".ktv[0]"  1 0;
createNode animCurveTA -n "Turret10_polySurface6_rotateY";
	setAttr ".tan" 2;
	setAttr ".wgt" no;
	setAttr ".ktv[0]"  1 0;
createNode animCurveTA -n "Turret10_polySurface6_rotateZ";
	setAttr ".tan" 2;
	setAttr ".wgt" no;
	setAttr -s 2 ".ktv[0:1]"  1 0 2 -45;
createNode animCurveTU -n "Turret10_polySurface6_visibility";
	setAttr ".tan" 9;
	setAttr ".wgt" no;
	setAttr ".ktv[0]"  1 1;
	setAttr ".kot[0]"  5;
createNode animCurveTL -n "Turret10_polySurface6_translateX";
	setAttr ".tan" 2;
	setAttr ".wgt" no;
	setAttr ".ktv[0]"  1 0;
createNode animCurveTL -n "Turret10_polySurface6_translateY";
	setAttr ".tan" 2;
	setAttr ".wgt" no;
	setAttr ".ktv[0]"  1 0;
createNode animCurveTL -n "Turret10_polySurface6_translateZ";
	setAttr ".tan" 2;
	setAttr ".wgt" no;
	setAttr ".ktv[0]"  1 0;
createNode animCurveTU -n "Turret10_polySurface6_scaleX";
	setAttr ".tan" 2;
	setAttr ".wgt" no;
	setAttr ".ktv[0]"  1 1;
createNode animCurveTU -n "Turret10_polySurface6_scaleY";
	setAttr ".tan" 2;
	setAttr ".wgt" no;
	setAttr ".ktv[0]"  1 1;
createNode animCurveTU -n "Turret10_polySurface6_scaleZ";
	setAttr ".tan" 2;
	setAttr ".wgt" no;
	setAttr ".ktv[0]"  1 1;
createNode animCurveTA -n "Turret10_polySurface34_rotateX";
	setAttr ".tan" 2;
	setAttr ".wgt" no;
	setAttr ".ktv[0]"  1 0;
createNode animCurveTA -n "Turret10_polySurface34_rotateY";
	setAttr ".tan" 2;
	setAttr ".wgt" no;
	setAttr ".ktv[0]"  1 0;
createNode animCurveTA -n "Turret10_polySurface34_rotateZ";
	setAttr ".tan" 2;
	setAttr ".wgt" no;
	setAttr -s 2 ".ktv[0:1]"  1 0 2 -45;
createNode animCurveTU -n "Turret10_polySurface34_visibility";
	setAttr ".tan" 9;
	setAttr ".wgt" no;
	setAttr ".ktv[0]"  1 1;
	setAttr ".kot[0]"  5;
createNode animCurveTL -n "Turret10_polySurface34_translateX";
	setAttr ".tan" 2;
	setAttr ".wgt" no;
	setAttr ".ktv[0]"  1 0;
createNode animCurveTL -n "Turret10_polySurface34_translateY";
	setAttr ".tan" 2;
	setAttr ".wgt" no;
	setAttr ".ktv[0]"  1 0;
createNode animCurveTL -n "Turret10_polySurface34_translateZ";
	setAttr ".tan" 2;
	setAttr ".wgt" no;
	setAttr ".ktv[0]"  1 0;
createNode animCurveTU -n "Turret10_polySurface34_scaleX";
	setAttr ".tan" 2;
	setAttr ".wgt" no;
	setAttr ".ktv[0]"  1 1;
createNode animCurveTU -n "Turret10_polySurface34_scaleY";
	setAttr ".tan" 2;
	setAttr ".wgt" no;
	setAttr ".ktv[0]"  1 1;
createNode animCurveTU -n "Turret10_polySurface34_scaleZ";
	setAttr ".tan" 2;
	setAttr ".wgt" no;
	setAttr ".ktv[0]"  1 1;
createNode animCurveTA -n "Turret10_polySurface55_rotateX";
	setAttr ".tan" 2;
	setAttr ".wgt" no;
	setAttr ".ktv[0]"  1 0;
createNode animCurveTA -n "Turret10_polySurface55_rotateY";
	setAttr ".tan" 2;
	setAttr ".wgt" no;
	setAttr ".ktv[0]"  1 0;
createNode animCurveTA -n "Turret10_polySurface55_rotateZ";
	setAttr ".tan" 2;
	setAttr ".wgt" no;
	setAttr -s 2 ".ktv[0:1]"  1 0 2 -35;
createNode animCurveTU -n "Turret10_polySurface55_visibility";
	setAttr ".tan" 9;
	setAttr ".wgt" no;
	setAttr ".ktv[0]"  1 1;
	setAttr ".kot[0]"  5;
createNode animCurveTL -n "Turret10_polySurface55_translateX";
	setAttr ".tan" 2;
	setAttr ".wgt" no;
	setAttr ".ktv[0]"  1 0;
createNode animCurveTL -n "Turret10_polySurface55_translateY";
	setAttr ".tan" 2;
	setAttr ".wgt" no;
	setAttr ".ktv[0]"  1 0;
createNode animCurveTL -n "Turret10_polySurface55_translateZ";
	setAttr ".tan" 2;
	setAttr ".wgt" no;
	setAttr ".ktv[0]"  1 0;
createNode animCurveTU -n "Turret10_polySurface55_scaleX";
	setAttr ".tan" 2;
	setAttr ".wgt" no;
	setAttr ".ktv[0]"  1 1;
createNode animCurveTU -n "Turret10_polySurface55_scaleY";
	setAttr ".tan" 2;
	setAttr ".wgt" no;
	setAttr ".ktv[0]"  1 1;
createNode animCurveTU -n "Turret10_polySurface55_scaleZ";
	setAttr ".tan" 2;
	setAttr ".wgt" no;
	setAttr ".ktv[0]"  1 1;
createNode animCurveTA -n "Turret10_polySurface76_rotateX";
	setAttr ".tan" 2;
	setAttr ".wgt" no;
	setAttr ".ktv[0]"  1 0;
createNode animCurveTA -n "Turret10_polySurface76_rotateY";
	setAttr ".tan" 2;
	setAttr ".wgt" no;
	setAttr ".ktv[0]"  1 0;
createNode animCurveTA -n "Turret10_polySurface76_rotateZ";
	setAttr ".tan" 2;
	setAttr ".wgt" no;
	setAttr -s 2 ".ktv[0:1]"  1 0 2 -35;
createNode animCurveTU -n "Turret10_polySurface76_visibility";
	setAttr ".tan" 9;
	setAttr ".wgt" no;
	setAttr ".ktv[0]"  1 1;
	setAttr ".kot[0]"  5;
createNode animCurveTL -n "Turret10_polySurface76_translateX";
	setAttr ".tan" 2;
	setAttr ".wgt" no;
	setAttr ".ktv[0]"  1 0;
createNode animCurveTL -n "Turret10_polySurface76_translateY";
	setAttr ".tan" 2;
	setAttr ".wgt" no;
	setAttr ".ktv[0]"  1 0;
createNode animCurveTL -n "Turret10_polySurface76_translateZ";
	setAttr ".tan" 2;
	setAttr ".wgt" no;
	setAttr ".ktv[0]"  1 0;
createNode animCurveTU -n "Turret10_polySurface76_scaleX";
	setAttr ".tan" 2;
	setAttr ".wgt" no;
	setAttr ".ktv[0]"  1 1;
createNode animCurveTU -n "Turret10_polySurface76_scaleY";
	setAttr ".tan" 2;
	setAttr ".wgt" no;
	setAttr ".ktv[0]"  1 1;
createNode animCurveTU -n "Turret10_polySurface76_scaleZ";
	setAttr ".tan" 2;
	setAttr ".wgt" no;
	setAttr ".ktv[0]"  1 1;
createNode tweak -n "tweak1";
createNode objectSet -n "tweakSet1";
	setAttr ".ihi" 0;
	setAttr ".vo" yes;
createNode groupId -n "groupId2";
	setAttr ".ihi" 0;
createNode groupParts -n "groupParts2";
	setAttr ".ihi" 0;
	setAttr ".ic" -type "componentList" 1 "vtx[*]";
createNode groupId -n "groupId3";
	setAttr ".ihi" 0;
createNode groupParts -n "groupParts3";
	setAttr ".ihi" 0;
	setAttr ".ic" -type "componentList" 1 "f[0:1033]";
createNode groupId -n "groupId4";
	setAttr ".ihi" 0;
createNode groupParts -n "groupParts4";
	setAttr ".ihi" 0;
	setAttr ".ic" -type "componentList" 1 "f[1034:3583]";
select -ne :time1;
	setAttr ".o" 1;
	setAttr ".unw" 1;
select -ne :renderPartition;
	setAttr -s 9 ".st";
select -ne :initialShadingGroup;
	setAttr ".ro" yes;
	setAttr -s 9 ".gn";
select -ne :initialParticleSE;
	setAttr ".ro" yes;
select -ne :defaultShaderList1;
	setAttr -s 16 ".s";
select -ne :defaultTextureList1;
	setAttr -s 21 ".tx";
select -ne :lightList1;
select -ne :postProcessList1;
	setAttr -s 2 ".p";
select -ne :defaultRenderUtilityList1;
	setAttr -s 37 ".u";
select -ne :defaultRenderingList1;
	setAttr -s 2 ".r";
select -ne :renderGlobalsList1;
select -ne :defaultRenderGlobals;
	setAttr ".fs" 1;
	setAttr ".ef" 10;
select -ne :defaultLightSet;
select -ne :hardwareRenderGlobals;
	setAttr ".ctrs" 256;
	setAttr ".btrs" 512;
select -ne :defaultHardwareRenderGlobals;
	setAttr ".fn" -type "string" "im";
	setAttr ".res" -type "string" "ntsc_4d 646 485 1.333";
select -ne :ikSystem;
	setAttr -s 4 ".sol";
connectAttr "Turret10_polySurface3_visibility.o" "Turret10RN.phl[1]";
connectAttr "Turret10_polySurface3_translateX.o" "Turret10RN.phl[2]";
connectAttr "Turret10_polySurface3_translateY.o" "Turret10RN.phl[3]";
connectAttr "Turret10_polySurface3_translateZ.o" "Turret10RN.phl[4]";
connectAttr "Turret10_polySurface3_rotateX.o" "Turret10RN.phl[5]";
connectAttr "Turret10_polySurface3_rotateY.o" "Turret10RN.phl[6]";
connectAttr "Turret10_polySurface3_rotateZ.o" "Turret10RN.phl[7]";
connectAttr "Turret10_polySurface3_scaleX.o" "Turret10RN.phl[8]";
connectAttr "Turret10_polySurface3_scaleY.o" "Turret10RN.phl[9]";
connectAttr "Turret10_polySurface3_scaleZ.o" "Turret10RN.phl[10]";
connectAttr "Turret10_polySurface6_rotateX.o" "Turret10RN.phl[11]";
connectAttr "Turret10_polySurface6_rotateY.o" "Turret10RN.phl[12]";
connectAttr "Turret10_polySurface6_rotateZ.o" "Turret10RN.phl[13]";
connectAttr "Turret10_polySurface6_visibility.o" "Turret10RN.phl[14]";
connectAttr "Turret10_polySurface6_translateX.o" "Turret10RN.phl[15]";
connectAttr "Turret10_polySurface6_translateY.o" "Turret10RN.phl[16]";
connectAttr "Turret10_polySurface6_translateZ.o" "Turret10RN.phl[17]";
connectAttr "Turret10_polySurface6_scaleX.o" "Turret10RN.phl[18]";
connectAttr "Turret10_polySurface6_scaleY.o" "Turret10RN.phl[19]";
connectAttr "Turret10_polySurface6_scaleZ.o" "Turret10RN.phl[20]";
connectAttr "Turret10_polySurface34_rotateX.o" "Turret10RN.phl[21]";
connectAttr "Turret10_polySurface34_rotateY.o" "Turret10RN.phl[22]";
connectAttr "Turret10_polySurface34_rotateZ.o" "Turret10RN.phl[23]";
connectAttr "Turret10_polySurface34_visibility.o" "Turret10RN.phl[24]";
connectAttr "Turret10_polySurface34_translateX.o" "Turret10RN.phl[25]";
connectAttr "Turret10_polySurface34_translateY.o" "Turret10RN.phl[26]";
connectAttr "Turret10_polySurface34_translateZ.o" "Turret10RN.phl[27]";
connectAttr "Turret10_polySurface34_scaleX.o" "Turret10RN.phl[28]";
connectAttr "Turret10_polySurface34_scaleY.o" "Turret10RN.phl[29]";
connectAttr "Turret10_polySurface34_scaleZ.o" "Turret10RN.phl[30]";
connectAttr "Turret10_polySurface55_rotateZ.o" "Turret10RN.phl[31]";
connectAttr "Turret10_polySurface55_rotateX.o" "Turret10RN.phl[32]";
connectAttr "Turret10_polySurface55_rotateY.o" "Turret10RN.phl[33]";
connectAttr "Turret10_polySurface55_visibility.o" "Turret10RN.phl[34]";
connectAttr "Turret10_polySurface55_translateX.o" "Turret10RN.phl[35]";
connectAttr "Turret10_polySurface55_translateY.o" "Turret10RN.phl[36]";
connectAttr "Turret10_polySurface55_translateZ.o" "Turret10RN.phl[37]";
connectAttr "Turret10_polySurface55_scaleX.o" "Turret10RN.phl[38]";
connectAttr "Turret10_polySurface55_scaleY.o" "Turret10RN.phl[39]";
connectAttr "Turret10_polySurface55_scaleZ.o" "Turret10RN.phl[40]";
connectAttr "Turret10_polySurface76_rotateX.o" "Turret10RN.phl[41]";
connectAttr "Turret10_polySurface76_rotateY.o" "Turret10RN.phl[42]";
connectAttr "Turret10_polySurface76_rotateZ.o" "Turret10RN.phl[43]";
connectAttr "Turret10_polySurface76_visibility.o" "Turret10RN.phl[44]";
connectAttr "Turret10_polySurface76_translateX.o" "Turret10RN.phl[45]";
connectAttr "Turret10_polySurface76_translateY.o" "Turret10RN.phl[46]";
connectAttr "Turret10_polySurface76_translateZ.o" "Turret10RN.phl[47]";
connectAttr "Turret10_polySurface76_scaleX.o" "Turret10RN.phl[48]";
connectAttr "Turret10_polySurface76_scaleY.o" "Turret10RN.phl[49]";
connectAttr "Turret10_polySurface76_scaleZ.o" "Turret10RN.phl[50]";
connectAttr "Turret10RN.phl[51]" "groupParts2.ig";
connectAttr "Turret10RN.phl[52]" "Turret10_polySurfaceShape78Deformed.iog.og[3].gco"
		;
connectAttr "Turret10_polySurfaceShape78Deformed.iog.og[3]" "Turret10RN.phl[53]"
		;
connectAttr "groupId4.msg" "Turret10RN.phl[54]";
connectAttr "Turret10RN.phl[55]" "Turret10_polySurfaceShape78Deformed.iog.og[2].gco"
		;
connectAttr "Turret10_polySurfaceShape78Deformed.iog.og[2]" "Turret10RN.phl[56]"
		;
connectAttr "groupId3.msg" "Turret10RN.phl[57]";
connectAttr "groupId2.id" "Turret10_polySurfaceShape78Deformed.iog.og[1].gid";
connectAttr "tweakSet1.mwc" "Turret10_polySurfaceShape78Deformed.iog.og[1].gco";
connectAttr "groupId3.id" "Turret10_polySurfaceShape78Deformed.iog.og[2].gid";
connectAttr "groupId4.id" "Turret10_polySurfaceShape78Deformed.iog.og[3].gid";
connectAttr "groupParts4.og" "Turret10_polySurfaceShape78Deformed.i";
connectAttr "tweak1.vl[0].vt[0]" "Turret10_polySurfaceShape78Deformed.twl";
relationship "link" ":lightLinker1" ":initialShadingGroup.message" ":defaultLightSet.message";
relationship "link" ":lightLinker1" ":initialParticleSE.message" ":defaultLightSet.message";
relationship "shadowLink" ":lightLinker1" ":initialShadingGroup.message" ":defaultLightSet.message";
relationship "shadowLink" ":lightLinker1" ":initialParticleSE.message" ":defaultLightSet.message";
connectAttr "layerManager.dli[0]" "defaultLayer.id";
connectAttr "renderLayerManager.rlmi[0]" "defaultRenderLayer.rlid";
connectAttr "Turret10RNfosterParent1.msg" "Turret10RN.fp";
connectAttr "groupParts2.og" "tweak1.ip[0].ig";
connectAttr "groupId2.id" "tweak1.ip[0].gi";
connectAttr "groupId2.msg" "tweakSet1.gn" -na;
connectAttr "Turret10_polySurfaceShape78Deformed.iog.og[1]" "tweakSet1.dsm" -na;
connectAttr "tweak1.msg" "tweakSet1.ub[0]";
connectAttr "groupId2.id" "groupParts2.gi";
connectAttr "tweak1.og[0]" "groupParts3.ig";
connectAttr "groupId3.id" "groupParts3.gi";
connectAttr "groupParts3.og" "groupParts4.ig";
connectAttr "groupId4.id" "groupParts4.gi";
connectAttr "defaultRenderLayer.msg" ":defaultRenderingList1.r" -na;
// End of Turret10_MachineGunTower05.ma
