//Maya ASCII 2013 scene
//Name: Everlife_LightRig_SunSky.ma
//Last modified: Mon, Oct 20, 2014 09:23:01 PM
//Codeset: UTF-8
requires maya "2013";
requires "Mayatomr" "2013.0 - 3.10.1.9 ";
requires "stereoCamera" "10.0";
currentUnit -l centimeter -a degree -t ntsc;
fileInfo "exportedFrom" "/Users/tlangehaug/Dropbox (PlayMesh)/Everlife_Art/3d_art/defense/new_materials.ma";
fileInfo "application" "maya";
fileInfo "product" "Maya 2013";
fileInfo "version" "2013 x64";
fileInfo "cutIdentifier" "201207040330-835994";
fileInfo "osv" "Mac OS X 10.9.5";
createNode transform -s -n "persp";
	setAttr ".t" -type "double3" 67.800970996846615 74.254628734116721 91.806705459308446 ;
	setAttr ".r" -type "double3" -26.399999999999629 34.399999999998947 3.8546874922057537e-15 ;
	setAttr ".rp" -type "double3" 8.4703294725430034e-22 0 0 ;
	setAttr ".rpt" -type "double3" -4.2376963181233828e-15 -2.992366376699193e-15 1.5586626421228539e-14 ;
createNode camera -s -n "perspShape" -p "persp";
	setAttr -k off ".v";
	setAttr ".rnd" no;
	setAttr ".fl" 34.999999999999979;
	setAttr ".coi" 104.92804907178557;
	setAttr ".imn" -type "string" "persp";
	setAttr ".den" -type "string" "persp_depth";
	setAttr ".man" -type "string" "persp_mask";
	setAttr ".tp" -type "double3" 26.292567718860852 30.300588358057979 4.4571006648953659 ;
	setAttr ".hc" -type "string" "viewSet -p %camera";
createNode transform -s -n "top";
	setAttr ".t" -type "double3" 1.4852373641213426 100.1 -0.6210947049170592 ;
	setAttr ".r" -type "double3" -89.999999999999986 0 0 ;
	setAttr ".s" -type "double3" 0.016664497490780923 0.016664497490780923 0.016664497490780923 ;
createNode camera -s -n "topShape" -p "top";
	setAttr -k off ".v";
	setAttr ".rnd" no;
	setAttr ".coi" 100.1;
	setAttr ".ow" 189.73456884996881;
	setAttr ".imn" -type "string" "top";
	setAttr ".den" -type "string" "top_depth";
	setAttr ".man" -type "string" "top_mask";
	setAttr ".hc" -type "string" "viewSet -t %camera";
	setAttr ".o" yes;
createNode transform -s -n "front";
	setAttr ".t" -type "double3" 0 0 100.1 ;
	setAttr ".s" -type "double3" 0.27911905396902115 0.27911905396902115 0.27911905396902115 ;
createNode camera -s -n "frontShape" -p "front";
	setAttr -k off ".v";
	setAttr ".rnd" no;
	setAttr ".coi" 100.1;
	setAttr ".ow" 30;
	setAttr ".imn" -type "string" "front";
	setAttr ".den" -type "string" "front_depth";
	setAttr ".man" -type "string" "front_mask";
	setAttr ".hc" -type "string" "viewSet -f %camera";
	setAttr ".o" yes;
createNode transform -s -n "side";
	setAttr ".t" -type "double3" 100.1 0 0 ;
	setAttr ".r" -type "double3" 0 89.999999999999986 0 ;
	setAttr ".s" -type "double3" 0.016664497490780923 0.016664497490780923 0.016664497490780923 ;
createNode camera -s -n "sideShape" -p "side";
	setAttr -k off ".v";
	setAttr ".rnd" no;
	setAttr ".coi" 100.1;
	setAttr ".ow" 453.93580553200042;
	setAttr ".imn" -type "string" "side";
	setAttr ".den" -type "string" "side_depth";
	setAttr ".man" -type "string" "side_mask";
	setAttr ".hc" -type "string" "viewSet -s %camera";
	setAttr ".o" yes;
createNode transform -n "Lighting";
createNode transform -n "SunSky" -p "Lighting";
createNode transform -n "sunDirection" -p "SunSky";
	setAttr ".t" -type "double3" 30.570783776701891 27.230250856005 0.13975357070021843 ;
	setAttr ".r" -type "double3" -94.881959503006001 13.826095628126849 -33.990541804277036 ;
	setAttr ".s" -type "double3" 8.3341399610638494 8.3341399610638494 8.3341399610638494 ;
createNode directionalLight -n "sunShape" -p "sunDirection";
	setAttr -k off ".v";
	setAttr ".urs" yes;
	setAttr ".fs" 3;
	setAttr ".dr" 2048;
	setAttr ".milt" yes;
createNode transform -n "ambientLight1" -p "SunSky";
	setAttr ".t" -type "double3" 25.092778943010252 0 0 ;
createNode ambientLight -n "ambientLightShape1" -p "ambientLight1";
	setAttr -k off ".v";
	setAttr ".in" 0.20000000298023224;
	setAttr ".as" 0.20000000298023224;
createNode displayLayerManager -n "layerManager";
	setAttr ".cdl" 1;
	setAttr -s 6 ".dli[1:5]"  5 1 2 3 4;
createNode displayLayer -n "defaultLayer";
createNode renderLayerManager -n "renderLayerManager";
createNode renderLayer -n "defaultRenderLayer";
	setAttr ".g" yes;
createNode script -n "colossus_mc_sceneConfigurationScriptNode";
	setAttr ".b" -type "string" "playbackOptions -min 1 -max 24 -ast 1 -aet 48 ";
	setAttr ".st" 6;
createNode groupId -n "artillery_mc_groupId168";
	setAttr ".ihi" 0;
createNode groupId -n "artillery_mc_groupId169";
	setAttr ".ihi" 0;
createNode groupId -n "artillery_mc_groupId180";
	setAttr ".ihi" 0;
createNode groupId -n "artillery_mc_groupId181";
	setAttr ".ihi" 0;
createNode groupId -n "artillery_mc_groupId182";
	setAttr ".ihi" 0;
createNode groupId -n "artillery_mc_groupId183";
	setAttr ".ihi" 0;
createNode groupId -n "artillery_mc_groupId184";
	setAttr ".ihi" 0;
createNode groupId -n "artillery_mc_groupId185";
	setAttr ".ihi" 0;
createNode groupId -n "artillery_mc_groupId186";
	setAttr ".ihi" 0;
createNode groupId -n "artillery_mc_groupId187";
	setAttr ".ihi" 0;
createNode groupId -n "artillery_mc_groupId188";
	setAttr ".ihi" 0;
createNode groupId -n "artillery_mc_groupId189";
	setAttr ".ihi" 0;
createNode groupId -n "artillery_mc_groupId190";
	setAttr ".ihi" 0;
createNode groupId -n "artillery_mc_groupId191";
	setAttr ".ihi" 0;
createNode groupId -n "artillery_mc_groupId192";
	setAttr ".ihi" 0;
createNode groupId -n "artillery_mc_groupId193";
	setAttr ".ihi" 0;
createNode groupId -n "artillery_mc_groupId194";
	setAttr ".ihi" 0;
createNode groupId -n "artillery_mc_groupId195";
	setAttr ".ihi" 0;
createNode groupId -n "artillery_mc_groupId196";
	setAttr ".ihi" 0;
createNode groupId -n "artillery_mc_groupId197";
	setAttr ".ihi" 0;
createNode groupId -n "artillery_mc_groupId198";
	setAttr ".ihi" 0;
createNode groupId -n "artillery_mc_groupId199";
	setAttr ".ihi" 0;
createNode groupId -n "artillery_mc_groupId200";
	setAttr ".ihi" 0;
createNode groupId -n "artillery_mc_groupId201";
	setAttr ".ihi" 0;
createNode groupId -n "artillery_mc_groupId202";
	setAttr ".ihi" 0;
createNode groupId -n "artillery_mc_groupId203";
	setAttr ".ihi" 0;
createNode groupId -n "artillery_mc_groupId204";
	setAttr ".ihi" 0;
createNode groupId -n "artillery_mc_groupId205";
	setAttr ".ihi" 0;
createNode groupId -n "artillery_mc_groupId206";
	setAttr ".ihi" 0;
createNode groupId -n "artillery_mc_groupId207";
	setAttr ".ihi" 0;
createNode polyBridgeEdge -n "ibl_scene_polyBridgeEdge1";
	setAttr ".c[0]"  0 1 1;
	setAttr ".dv" 0;
createNode polyBridgeEdge -n "ibl_scene_polyBridgeEdge2";
	setAttr ".c[0]"  0 1 1;
	setAttr ".dv" 0;
createNode polyBridgeEdge -n "ibl_scene_polyBridgeEdge3";
	setAttr ".c[0]"  0 1 1;
	setAttr ".dv" 0;
createNode polyBridgeEdge -n "ibl_scene_polyBridgeEdge5";
	setAttr ".c[0]"  0 1 1;
	setAttr ".dv" 0;
createNode groupId -n "ibl_scene_groupId163";
	setAttr ".ihi" 0;
createNode groupId -n "ibl_scene_groupId164";
	setAttr ".ihi" 0;
createNode groupId -n "ibl_scene_groupId221";
	setAttr ".ihi" 0;
createNode groupId -n "ibl_scene_groupId224";
	setAttr ".ihi" 0;
createNode hyperGraphInfo -n "ibl_scene_nodeEditorPanel1Info";
createNode hyperView -n "ibl_scene_hyperView1";
	setAttr ".dag" no;
createNode hyperLayout -n "ibl_scene_hyperLayout1";
	setAttr ".ihi" 0;
	setAttr ".hyp[0].nvs" 1648;
	setAttr ".anf" yes;
createNode hyperGraphInfo -n "ibl_scene_nodeEditorPanel2Info";
createNode hyperView -n "ibl_scene_hyperView2";
	setAttr ".dag" no;
createNode hyperLayout -n "ibl_scene_hyperLayout2";
	setAttr ".ihi" 0;
	setAttr ".hyp[0].nvs" 1648;
	setAttr ".anf" yes;
createNode hyperGraphInfo -n "ibl_scene_nodeEditorPanel3Info";
createNode hyperView -n "ibl_scene_hyperView3";
	setAttr ".dag" no;
createNode hyperLayout -n "ibl_scene_hyperLayout3";
	setAttr ".ihi" 0;
	setAttr ".hyp[0].nvs" 1648;
	setAttr ".anf" yes;
createNode lightLinker -s -n "lightLinker1";
	setAttr -s 2 ".lnk";
	setAttr -s 2 ".slnk";
createNode mentalrayItemsList -s -n "mentalrayItemsList";
createNode mentalrayGlobals -s -n "mentalrayGlobals";
	addAttr -ci true -h true -sn "sunAndSkyShader" -ln "sunAndSkyShader" -at "message";
	addAttr -ci true -sn "imrVerbosity" -ln "imrVerbosity" -dv 3 -at "short";
	addAttr -ci true -sn "imrThreads" -ln "imrThreads" -dv 1 -at "short";
	addAttr -ci true -sn "imrThreadsAdjust" -ln "imrThreadsAdjust" -dv 1 -min 0 -max 
		1 -at "bool";
	addAttr -ci true -sn "imrTaskOrder" -ln "imrTaskOrder" -dv 1 -at "short";
	addAttr -ci true -sn "imrTaskSize" -ln "imrTaskSize" -at "short";
	addAttr -ci true -sn "imrTaskAdjust" -ln "imrTaskAdjust" -dv 1 -at "short";
	setAttr ".rvb" 3;
	setAttr ".ivb" no;
createNode mentalrayOptions -s -n "miDefaultOptions";
	addAttr -ci true -m -sn "stringOptions" -ln "stringOptions" -at "compound" -nc 
		3;
	addAttr -ci true -sn "name" -ln "name" -dt "string" -p "stringOptions";
	addAttr -ci true -sn "value" -ln "value" -dt "string" -p "stringOptions";
	addAttr -ci true -sn "type" -ln "type" -dt "string" -p "stringOptions";
	addAttr -ci true -sn "miSamplesQualityR" -ln "miSamplesQualityR" -dv 0.25 -min 0.01 
		-max 9999999.9000000004 -smn 0.1 -smx 2 -at "double";
	addAttr -ci true -sn "miSamplesQualityG" -ln "miSamplesQualityG" -dv 0.25 -min 0.01 
		-max 9999999.9000000004 -smn 0.1 -smx 2 -at "double";
	addAttr -ci true -sn "miSamplesQualityB" -ln "miSamplesQualityB" -dv 0.25 -min 0.01 
		-max 9999999.9000000004 -smn 0.1 -smx 2 -at "double";
	addAttr -ci true -sn "miSamplesQualityA" -ln "miSamplesQualityA" -dv 0.25 -min 0.01 
		-max 9999999.9000000004 -smn 0.1 -smx 2 -at "double";
	addAttr -ci true -sn "miSamplesMin" -ln "miSamplesMin" -dv 1 -min 0.1 -at "double";
	addAttr -ci true -sn "miSamplesMax" -ln "miSamplesMax" -dv 100 -min 0.1 -at "double";
	addAttr -ci true -sn "miSamplesErrorCutoffR" -ln "miSamplesErrorCutoffR" -min 0 
		-max 1 -at "double";
	addAttr -ci true -sn "miSamplesErrorCutoffG" -ln "miSamplesErrorCutoffG" -min 0 
		-max 1 -at "double";
	addAttr -ci true -sn "miSamplesErrorCutoffB" -ln "miSamplesErrorCutoffB" -min 0 
		-max 1 -at "double";
	addAttr -ci true -sn "miSamplesErrorCutoffA" -ln "miSamplesErrorCutoffA" -min 0 
		-max 1 -at "double";
	addAttr -ci true -sn "miSamplesPerObject" -ln "miSamplesPerObject" -min 0 -max 1 
		-at "bool";
	addAttr -ci true -sn "miRastShadingSamples" -ln "miRastShadingSamples" -dv 1 -min 
		0.25 -at "double";
	addAttr -ci true -sn "miRastSamples" -ln "miRastSamples" -dv 3 -min 1 -at "long";
	addAttr -ci true -sn "miContrastAsColor" -ln "miContrastAsColor" -min 0 -max 1 -at "bool";
	addAttr -ci true -sn "miProgMaxTime" -ln "miProgMaxTime" -min 0 -at "long";
	addAttr -ci true -sn "miProgSubsampleSize" -ln "miProgSubsampleSize" -dv 4 -min 
		1 -at "long";
	addAttr -ci true -sn "miTraceCameraMotionVectors" -ln "miTraceCameraMotionVectors" 
		-min 0 -max 1 -at "bool";
	addAttr -ci true -sn "miTraceCameraClip" -ln "miTraceCameraClip" -min 0 -max 1 -at "bool";
	setAttr ".minsp" -1;
	setAttr ".maxsp" 1;
	setAttr ".fil" 2;
	setAttr ".filw" 0.83333331346511841;
	setAttr ".filh" 0.83333331346511841;
	setAttr ".rflr" 2;
	setAttr ".rfrr" 2;
	setAttr ".maxr" 4;
	setAttr ".gi" yes;
	setAttr ".fg" yes;
	setAttr -s 45 ".stringOptions";
	setAttr ".stringOptions[0].name" -type "string" "rast motion factor";
	setAttr ".stringOptions[0].value" -type "string" "1.0";
	setAttr ".stringOptions[0].type" -type "string" "scalar";
	setAttr ".stringOptions[1].name" -type "string" "rast transparency depth";
	setAttr ".stringOptions[1].value" -type "string" "8";
	setAttr ".stringOptions[1].type" -type "string" "integer";
	setAttr ".stringOptions[2].name" -type "string" "rast useopacity";
	setAttr ".stringOptions[2].value" -type "string" "true";
	setAttr ".stringOptions[2].type" -type "string" "boolean";
	setAttr ".stringOptions[3].name" -type "string" "importon";
	setAttr ".stringOptions[3].value" -type "string" "false";
	setAttr ".stringOptions[3].type" -type "string" "boolean";
	setAttr ".stringOptions[4].name" -type "string" "importon density";
	setAttr ".stringOptions[4].value" -type "string" "1.0";
	setAttr ".stringOptions[4].type" -type "string" "scalar";
	setAttr ".stringOptions[5].name" -type "string" "importon merge";
	setAttr ".stringOptions[5].value" -type "string" "0.0";
	setAttr ".stringOptions[5].type" -type "string" "scalar";
	setAttr ".stringOptions[6].name" -type "string" "importon trace depth";
	setAttr ".stringOptions[6].value" -type "string" "0";
	setAttr ".stringOptions[6].type" -type "string" "integer";
	setAttr ".stringOptions[7].name" -type "string" "importon traverse";
	setAttr ".stringOptions[7].value" -type "string" "true";
	setAttr ".stringOptions[7].type" -type "string" "boolean";
	setAttr ".stringOptions[8].name" -type "string" "shadowmap pixel samples";
	setAttr ".stringOptions[8].value" -type "string" "3";
	setAttr ".stringOptions[8].type" -type "string" "integer";
	setAttr ".stringOptions[9].name" -type "string" "ambient occlusion";
	setAttr ".stringOptions[9].value" -type "string" "true";
	setAttr ".stringOptions[9].type" -type "string" "boolean";
	setAttr ".stringOptions[10].name" -type "string" "ambient occlusion rays";
	setAttr ".stringOptions[10].value" -type "string" "512";
	setAttr ".stringOptions[10].type" -type "string" "integer";
	setAttr ".stringOptions[11].name" -type "string" "ambient occlusion cache";
	setAttr ".stringOptions[11].value" -type "string" "false";
	setAttr ".stringOptions[11].type" -type "string" "boolean";
	setAttr ".stringOptions[12].name" -type "string" "ambient occlusion cache density";
	setAttr ".stringOptions[12].value" -type "string" "1.0";
	setAttr ".stringOptions[12].type" -type "string" "scalar";
	setAttr ".stringOptions[13].name" -type "string" "ambient occlusion cache points";
	setAttr ".stringOptions[13].value" -type "string" "64";
	setAttr ".stringOptions[13].type" -type "string" "integer";
	setAttr ".stringOptions[14].name" -type "string" "irradiance particles";
	setAttr ".stringOptions[14].value" -type "string" "false";
	setAttr ".stringOptions[14].type" -type "string" "boolean";
	setAttr ".stringOptions[15].name" -type "string" "irradiance particles rays";
	setAttr ".stringOptions[15].value" -type "string" "256";
	setAttr ".stringOptions[15].type" -type "string" "integer";
	setAttr ".stringOptions[16].name" -type "string" "irradiance particles interpolate";
	setAttr ".stringOptions[16].value" -type "string" "1";
	setAttr ".stringOptions[16].type" -type "string" "integer";
	setAttr ".stringOptions[17].name" -type "string" "irradiance particles interppoints";
	setAttr ".stringOptions[17].value" -type "string" "64";
	setAttr ".stringOptions[17].type" -type "string" "integer";
	setAttr ".stringOptions[18].name" -type "string" "irradiance particles indirect passes";
	setAttr ".stringOptions[18].value" -type "string" "0";
	setAttr ".stringOptions[18].type" -type "string" "integer";
	setAttr ".stringOptions[19].name" -type "string" "irradiance particles scale";
	setAttr ".stringOptions[19].value" -type "string" "1.0";
	setAttr ".stringOptions[19].type" -type "string" "scalar";
	setAttr ".stringOptions[20].name" -type "string" "irradiance particles env";
	setAttr ".stringOptions[20].value" -type "string" "true";
	setAttr ".stringOptions[20].type" -type "string" "boolean";
	setAttr ".stringOptions[21].name" -type "string" "irradiance particles env rays";
	setAttr ".stringOptions[21].value" -type "string" "256";
	setAttr ".stringOptions[21].type" -type "string" "integer";
	setAttr ".stringOptions[22].name" -type "string" "irradiance particles env scale";
	setAttr ".stringOptions[22].value" -type "string" "1";
	setAttr ".stringOptions[22].type" -type "string" "integer";
	setAttr ".stringOptions[23].name" -type "string" "irradiance particles rebuild";
	setAttr ".stringOptions[23].value" -type "string" "true";
	setAttr ".stringOptions[23].type" -type "string" "boolean";
	setAttr ".stringOptions[24].name" -type "string" "irradiance particles file";
	setAttr ".stringOptions[24].value" -type "string" "";
	setAttr ".stringOptions[24].type" -type "string" "string";
	setAttr ".stringOptions[25].name" -type "string" "geom displace motion factor";
	setAttr ".stringOptions[25].value" -type "string" "1.0";
	setAttr ".stringOptions[25].type" -type "string" "scalar";
	setAttr ".stringOptions[26].name" -type "string" "contrast all buffers";
	setAttr ".stringOptions[26].value" -type "string" "true";
	setAttr ".stringOptions[26].type" -type "string" "boolean";
	setAttr ".stringOptions[27].name" -type "string" "finalgather normal tolerance";
	setAttr ".stringOptions[27].value" -type "string" "25.842";
	setAttr ".stringOptions[27].type" -type "string" "scalar";
	setAttr ".stringOptions[28].name" -type "string" "trace camera clip";
	setAttr ".stringOptions[28].value" -type "string" "false";
	setAttr ".stringOptions[28].type" -type "string" "boolean";
	setAttr ".stringOptions[29].name" -type "string" "unified sampling";
	setAttr ".stringOptions[29].value" -type "string" "true";
	setAttr ".stringOptions[29].type" -type "string" "boolean";
	setAttr ".stringOptions[30].name" -type "string" "samples quality";
	setAttr ".stringOptions[30].value" -type "string" "0.5 0.5 0.5 0.5";
	setAttr ".stringOptions[30].type" -type "string" "color";
	setAttr ".stringOptions[31].name" -type "string" "samples min";
	setAttr ".stringOptions[31].value" -type "string" "1.0";
	setAttr ".stringOptions[31].type" -type "string" "scalar";
	setAttr ".stringOptions[32].name" -type "string" "samples max";
	setAttr ".stringOptions[32].value" -type "string" "100.0";
	setAttr ".stringOptions[32].type" -type "string" "scalar";
	setAttr ".stringOptions[33].name" -type "string" "samples error cutoff";
	setAttr ".stringOptions[33].value" -type "string" "0.0 0.0 0.0 0.0";
	setAttr ".stringOptions[33].type" -type "string" "color";
	setAttr ".stringOptions[34].name" -type "string" "samples per object";
	setAttr ".stringOptions[34].value" -type "string" "false";
	setAttr ".stringOptions[34].type" -type "string" "boolean";
	setAttr ".stringOptions[35].name" -type "string" "progressive";
	setAttr ".stringOptions[35].value" -type "string" "false";
	setAttr ".stringOptions[35].type" -type "string" "boolean";
	setAttr ".stringOptions[36].name" -type "string" "progressive max time";
	setAttr ".stringOptions[36].value" -type "string" "0";
	setAttr ".stringOptions[36].type" -type "string" "integer";
	setAttr ".stringOptions[37].name" -type "string" "progressive subsampling size";
	setAttr ".stringOptions[37].value" -type "string" "1";
	setAttr ".stringOptions[37].type" -type "string" "integer";
	setAttr ".stringOptions[38].name" -type "string" "iray";
	setAttr ".stringOptions[38].value" -type "string" "false";
	setAttr ".stringOptions[38].type" -type "string" "boolean";
	setAttr ".stringOptions[39].name" -type "string" "light relative scale";
	setAttr ".stringOptions[39].value" -type "string" "0.31831";
	setAttr ".stringOptions[39].type" -type "string" "scalar";
	setAttr ".stringOptions[40].name" -type "string" "trace camera motion vectors";
	setAttr ".stringOptions[40].value" -type "string" "false";
	setAttr ".stringOptions[40].type" -type "string" "boolean";
	setAttr ".stringOptions[41].name" -type "string" "ray differentials";
	setAttr ".stringOptions[41].value" -type "string" "true";
	setAttr ".stringOptions[41].type" -type "string" "boolean";
	setAttr ".stringOptions[42].name" -type "string" "environment lighting mode";
	setAttr ".stringOptions[42].value" -type "string" "off";
	setAttr ".stringOptions[42].type" -type "string" "string";
	setAttr ".stringOptions[43].name" -type "string" "environment lighting quality";
	setAttr ".stringOptions[43].value" -type "string" "0.167";
	setAttr ".stringOptions[43].type" -type "string" "scalar";
	setAttr ".stringOptions[44].name" -type "string" "environment lighting shadow";
	setAttr ".stringOptions[44].value" -type "string" "transparent";
	setAttr ".stringOptions[44].type" -type "string" "string";
createNode mentalrayFramebuffer -s -n "miDefaultFramebuffer";
createNode mentalrayOptions -s -n "PreviewImrRayTracyOff";
	setAttr ".splck" no;
	setAttr ".minsp" 0;
	setAttr ".fil" 1;
	setAttr ".scan" 1;
	setAttr ".ray" no;
createNode mentalrayOptions -s -n "PreviewImrRayTracyOn";
	setAttr ".splck" no;
	setAttr ".minsp" 0;
	setAttr ".fil" 1;
	setAttr ".scan" 1;
	setAttr ".rfrr" 2;
	setAttr ".maxr" 3;
	setAttr ".shrd" 1;
createNode mentalrayOptions -s -n "miContourPreset";
createNode mentalrayOptions -s -n "Draft";
	setAttr ".maxr" 2;
createNode mentalrayOptions -s -n "DraftMotionBlur";
	setAttr ".maxr" 2;
	setAttr ".mb" 1;
	setAttr ".tconr" 1;
	setAttr ".tcong" 1;
	setAttr ".tconb" 1;
	setAttr ".tcona" 1;
createNode mentalrayOptions -s -n "DraftRapidMotion";
	setAttr ".scan" 3;
	setAttr ".rapc" 1;
	setAttr ".raps" 0.25;
	setAttr ".maxr" 2;
	setAttr ".mb" 1;
	setAttr ".tconr" 1;
	setAttr ".tcong" 1;
	setAttr ".tconb" 1;
	setAttr ".tcona" 1;
createNode mentalrayOptions -s -n "Preview";
	setAttr ".minsp" -1;
	setAttr ".maxsp" 1;
	setAttr ".fil" 1;
	setAttr ".rflr" 2;
	setAttr ".rfrr" 2;
	setAttr ".maxr" 4;
createNode mentalrayOptions -s -n "PreviewMotionblur";
	setAttr ".minsp" -1;
	setAttr ".maxsp" 1;
	setAttr ".fil" 1;
	setAttr ".rflr" 2;
	setAttr ".rfrr" 2;
	setAttr ".maxr" 4;
	setAttr ".mb" 1;
	setAttr ".tconr" 0.5;
	setAttr ".tcong" 0.5;
	setAttr ".tconb" 0.5;
	setAttr ".tcona" 0.5;
createNode mentalrayOptions -s -n "PreviewRapidMotion";
	setAttr ".minsp" -1;
	setAttr ".maxsp" 1;
	setAttr ".fil" 1;
	setAttr ".scan" 3;
	setAttr ".rapc" 3;
	setAttr ".rflr" 2;
	setAttr ".rfrr" 2;
	setAttr ".maxr" 4;
	setAttr ".mb" 1;
	setAttr ".tconr" 0.5;
	setAttr ".tcong" 0.5;
	setAttr ".tconb" 0.5;
	setAttr ".tcona" 0.5;
createNode mentalrayOptions -s -n "PreviewCaustics";
	setAttr ".minsp" -1;
	setAttr ".maxsp" 1;
	setAttr ".fil" 1;
	setAttr ".rflr" 2;
	setAttr ".rfrr" 2;
	setAttr ".maxr" 4;
	setAttr ".ca" yes;
	setAttr ".cc" 1;
	setAttr ".cr" 1;
createNode mentalrayOptions -s -n "PreviewGlobalIllum";
	setAttr ".minsp" -1;
	setAttr ".maxsp" 1;
	setAttr ".fil" 1;
	setAttr ".rflr" 2;
	setAttr ".rfrr" 2;
	setAttr ".maxr" 4;
	setAttr ".gi" yes;
	setAttr ".gc" 1;
	setAttr ".gr" 1;
createNode mentalrayOptions -s -n "PreviewFinalGather";
	setAttr ".minsp" -1;
	setAttr ".maxsp" 1;
	setAttr ".fil" 1;
	setAttr ".rflr" 2;
	setAttr ".rfrr" 2;
	setAttr ".maxr" 4;
	setAttr ".fg" yes;
createNode mentalrayOptions -s -n "Production";
	setAttr ".minsp" 0;
	setAttr ".maxsp" 2;
	setAttr ".fil" 2;
	setAttr ".rflr" 10;
	setAttr ".rfrr" 10;
	setAttr ".maxr" 20;
createNode mentalrayOptions -s -n "ProductionMotionblur";
	setAttr ".minsp" 0;
	setAttr ".maxsp" 2;
	setAttr ".fil" 2;
	setAttr ".rflr" 10;
	setAttr ".rfrr" 10;
	setAttr ".maxr" 20;
	setAttr ".mb" 2;
createNode mentalrayOptions -s -n "ProductionRapidMotion";
	setAttr ".minsp" 0;
	setAttr ".maxsp" 2;
	setAttr ".fil" 2;
	setAttr ".scan" 3;
	setAttr ".rapc" 8;
	setAttr ".raps" 2;
	setAttr ".rflr" 10;
	setAttr ".rfrr" 10;
	setAttr ".maxr" 20;
	setAttr ".mb" 2;
createNode mentalrayOptions -s -n "ProductionFineTrace";
	setAttr ".conr" 0.019999999552965164;
	setAttr ".cong" 0.019999999552965164;
	setAttr ".conb" 0.019999999552965164;
	setAttr ".minsp" 1;
	setAttr ".maxsp" 2;
	setAttr ".fil" 1;
	setAttr ".filw" 0.75;
	setAttr ".filh" 0.75;
	setAttr ".jit" yes;
createNode mentalrayOptions -s -n "ProductionRapidFur";
	setAttr ".conr" 0.039999999105930328;
	setAttr ".cong" 0.029999999329447746;
	setAttr ".conb" 0.070000000298023224;
	setAttr ".minsp" 0;
	setAttr ".maxsp" 2;
	setAttr ".fil" 1;
	setAttr ".filw" 1.1449999809265137;
	setAttr ".filh" 1.1449999809265137;
	setAttr ".jit" yes;
	setAttr ".scan" 3;
	setAttr ".rapc" 3;
	setAttr ".raps" 0.25;
	setAttr ".ray" no;
	setAttr ".shmth" 3;
	setAttr ".shmap" 3;
	setAttr ".mbsm" no;
	setAttr ".bism" 0.019999999552965164;
createNode mentalrayOptions -s -n "ProductionRapidHair";
	setAttr ".conr" 0.039999999105930328;
	setAttr ".cong" 0.029999999329447746;
	setAttr ".conb" 0.070000000298023224;
	setAttr ".minsp" 0;
	setAttr ".maxsp" 2;
	setAttr ".fil" 1;
	setAttr ".filw" 1.1449999809265137;
	setAttr ".filh" 1.1449999809265137;
	setAttr ".jit" yes;
	setAttr ".scan" 3;
	setAttr ".rapc" 6;
	setAttr ".ray" no;
	setAttr ".shmth" 3;
	setAttr ".shmap" 3;
	setAttr ".mbsm" no;
	setAttr ".bism" 0.019999999552965164;
createNode mia_physicalsun -n "mia_physicalsun1";
	setAttr ".S07" 3;
	setAttr ".S08" 32;
createNode mia_physicalsky -n "mia_physicalsky1";
	addAttr -ci true -h true -sn "miSkyExposure" -ln "miSkyExposure" -at "message";
	setAttr ".S01" 0.11999999731779099;
	setAttr ".S03" 1;
	setAttr ".S05" 0;
	setAttr ".S08" -type "float3" 0.30000001 0.30000001 0.30000001 ;
	setAttr ".S09" -type "float3" 0.389 0.389 0.389 ;
	setAttr ".S18" yes;
select -ne :time1;
	setAttr -av -cb on ".cch";
	setAttr -cb on ".ihi";
	setAttr -av -cb on ".nds";
	setAttr -cb on ".bnm";
	setAttr -k on ".o" 1;
	setAttr -av ".unw" 1;
select -ne :renderPartition;
	setAttr -cb on ".cch";
	setAttr -cb on ".ihi";
	setAttr -cb on ".nds";
	setAttr -cb on ".bnm";
	setAttr -s 2 ".st";
	setAttr -cb on ".an";
	setAttr -cb on ".pt";
select -ne :initialShadingGroup;
	setAttr -k on ".cch";
	setAttr -cb on ".ihi";
	setAttr -av -k on ".nds";
	setAttr -cb on ".bnm";
	setAttr -cb on ".mwc";
	setAttr -cb on ".an";
	setAttr -cb on ".il";
	setAttr -cb on ".vo";
	setAttr -cb on ".eo";
	setAttr -cb on ".fo";
	setAttr -cb on ".epo";
	setAttr -k on ".ro" yes;
	setAttr -s 34 ".gn";
	setAttr -cb on ".mimt";
	setAttr -cb on ".miop";
	setAttr -k on ".mico";
	setAttr -cb on ".mise";
	setAttr -cb on ".mism";
	setAttr -cb on ".mice";
	setAttr -av -cb on ".micc";
	setAttr -k on ".micr";
	setAttr -k on ".micg";
	setAttr -k on ".micb";
	setAttr -cb on ".mica";
	setAttr -av -cb on ".micw";
	setAttr -cb on ".mirw";
select -ne :initialParticleSE;
	setAttr -av -k on ".cch";
	setAttr -cb on ".ihi";
	setAttr -av -k on ".nds";
	setAttr -cb on ".bnm";
	setAttr -cb on ".mwc";
	setAttr -cb on ".an";
	setAttr -cb on ".il";
	setAttr -cb on ".vo";
	setAttr -cb on ".eo";
	setAttr -cb on ".fo";
	setAttr -cb on ".epo";
	setAttr -k on ".ro" yes;
	setAttr -cb on ".mimt";
	setAttr -cb on ".miop";
	setAttr -k on ".mico";
	setAttr -cb on ".mise";
	setAttr -cb on ".mism";
	setAttr -cb on ".mice";
	setAttr -av -cb on ".micc";
	setAttr -k on ".micr";
	setAttr -k on ".micg";
	setAttr -k on ".micb";
	setAttr -cb on ".mica";
	setAttr -av -cb on ".micw";
	setAttr -cb on ".mirw";
select -ne :defaultShaderList1;
	setAttr -cb on ".cch";
	setAttr -cb on ".ihi";
	setAttr -cb on ".nds";
	setAttr -cb on ".bnm";
	setAttr -s 2 ".s";
select -ne :lightList1;
	setAttr -k on ".cch";
	setAttr -cb on ".ihi";
	setAttr -k on ".nds";
	setAttr -cb on ".bnm";
	setAttr -s 2 ".l";
select -ne :postProcessList1;
	setAttr -cb on ".cch";
	setAttr -cb on ".ihi";
	setAttr -cb on ".nds";
	setAttr -cb on ".bnm";
	setAttr -s 2 ".p";
select -ne :defaultRenderUtilityList1;
	setAttr -k on ".cch";
	setAttr -cb on ".ihi";
	setAttr -k on ".nds";
	setAttr -cb on ".bnm";
	setAttr -s 2 ".u";
select -ne :defaultRenderingList1;
select -ne :renderGlobalsList1;
	setAttr -cb on ".cch";
	setAttr -cb on ".ihi";
	setAttr -cb on ".nds";
	setAttr -cb on ".bnm";
select -ne :defaultRenderGlobals;
	setAttr -k on ".cch";
	setAttr -cb on ".ihi";
	setAttr -k on ".nds";
	setAttr -cb on ".bnm";
	setAttr -k on ".macc";
	setAttr -k on ".macd";
	setAttr -k on ".macq";
	setAttr -k on ".mcfr";
	setAttr -cb on ".ifg";
	setAttr -k on ".clip";
	setAttr -k on ".edm";
	setAttr -k on ".edl";
	setAttr -cb on ".ren" -type "string" "mentalRay";
	setAttr -av -k on ".esr";
	setAttr -k on ".ors";
	setAttr -cb on ".sdf";
	setAttr -av -k on ".outf" 32;
	setAttr -cb on ".imfkey";
	setAttr -k on ".gama";
	setAttr -cb on ".an";
	setAttr -cb on ".ar" 0;
	setAttr -k on ".fs" 1;
	setAttr -k on ".ef" 10;
	setAttr -av -k on ".bfs";
	setAttr -cb on ".me";
	setAttr -cb on ".se";
	setAttr -k on ".be";
	setAttr -cb on ".ep";
	setAttr -k on ".fec";
	setAttr -av -k on ".ofc";
	setAttr -cb on ".ofe";
	setAttr -cb on ".efe";
	setAttr -cb on ".oft" -type "string" "";
	setAttr -cb on ".umfn" no;
	setAttr -cb on ".ufe";
	setAttr -cb on ".pff" yes;
	setAttr -cb on ".peie";
	setAttr -cb on ".ifp" -type "string" "Buildings05_CommandCenter05_idle_a225";
	setAttr ".rv" -type "string" "";
	setAttr -k on ".comp";
	setAttr -k on ".cth";
	setAttr -k on ".soll";
	setAttr -cb on ".sosl";
	setAttr -k on ".rd";
	setAttr -k on ".lp";
	setAttr -av -k on ".sp";
	setAttr -k on ".shs";
	setAttr -av -k on ".lpr";
	setAttr -cb on ".gv";
	setAttr -cb on ".sv";
	setAttr -k on ".mm";
	setAttr -k on ".npu";
	setAttr -k on ".itf";
	setAttr -k on ".shp";
	setAttr -cb on ".isp";
	setAttr -k on ".uf";
	setAttr -k on ".oi";
	setAttr -k on ".rut";
	setAttr -cb on ".mb";
	setAttr -av -k on ".mbf";
	setAttr -k on ".afp";
	setAttr -k on ".pfb";
	setAttr -k on ".pram" -type "string" "";
	setAttr -k on ".poam" -type "string" "";
	setAttr -k on ".prlm" -type "string" "";
	setAttr -k on ".polm" -type "string" "";
	setAttr -cb on ".prm" -type "string" "";
	setAttr -cb on ".pom" -type "string" "";
	setAttr -cb on ".pfrm";
	setAttr -cb on ".pfom";
	setAttr -av -k on ".bll";
	setAttr -av -k on ".bls";
	setAttr -av -k on ".smv";
	setAttr -k on ".ubc";
	setAttr -k on ".mbc";
	setAttr -cb on ".mbt";
	setAttr -k on ".udbx";
	setAttr -k on ".smc";
	setAttr -k on ".kmv";
	setAttr -cb on ".isl";
	setAttr -cb on ".ism";
	setAttr -cb on ".imb";
	setAttr -k on ".rlen";
	setAttr -av -k on ".frts";
	setAttr -k on ".tlwd";
	setAttr -k on ".tlht";
	setAttr -k on ".jfc";
	setAttr -cb on ".rsb";
	setAttr -k on ".ope";
	setAttr -k on ".oppf";
	setAttr -cb on ".hbl";
select -ne :defaultRenderQuality;
	setAttr ".ert" yes;
select -ne :defaultResolution;
	setAttr -av -k on ".cch";
	setAttr -k on ".ihi";
	setAttr -av -k on ".nds";
	setAttr -k on ".bnm";
	setAttr -av ".w" 1024;
	setAttr -av ".h" 1024;
	setAttr -av ".pa" 1;
	setAttr -av -k on ".al" yes;
	setAttr -av ".dar" 1;
	setAttr -av -k on ".ldar";
	setAttr -k on ".dpi";
	setAttr -av -k on ".off";
	setAttr -av -k on ".fld";
	setAttr -av -k on ".zsl";
	setAttr -k on ".isu";
	setAttr -k on ".pdu";
select -ne :defaultLightSet;
	setAttr -k on ".cch";
	setAttr -k on ".ihi";
	setAttr -av -k on ".nds";
	setAttr -k on ".bnm";
	setAttr -s 2 ".dsm";
	setAttr -k on ".mwc";
	setAttr -k on ".an";
	setAttr -k on ".il";
	setAttr -k on ".vo";
	setAttr -k on ".eo";
	setAttr -k on ".fo";
	setAttr -k on ".epo";
	setAttr -k on ".ro" yes;
select -ne :defaultObjectSet;
	setAttr -k on ".cch";
	setAttr -k on ".ihi";
	setAttr -k on ".nds";
	setAttr -k on ".bnm";
	setAttr -k on ".mwc";
	setAttr -k on ".an";
	setAttr -k on ".il";
	setAttr -k on ".vo";
	setAttr -k on ".eo";
	setAttr -k on ".fo";
	setAttr -k on ".epo";
	setAttr ".ro" yes;
select -ne :hardwareRenderGlobals;
	setAttr -cb on ".cch";
	setAttr -cb on ".ihi";
	setAttr -cb on ".nds";
	setAttr -cb on ".bnm";
	setAttr ".ctrs" 256;
	setAttr -av ".btrs" 512;
	setAttr -k off ".fbfm";
	setAttr -k off -cb on ".ehql";
	setAttr -k off -cb on ".eams";
	setAttr -k off -cb on ".eeaa";
	setAttr -k off -cb on ".engm";
	setAttr -k off -cb on ".mes";
	setAttr -k off -cb on ".emb";
	setAttr -av -k off -cb on ".mbbf";
	setAttr -k off -cb on ".mbs";
	setAttr -k off -cb on ".trm";
	setAttr -k off -cb on ".tshc";
	setAttr -k off ".enpt";
	setAttr -k off -cb on ".clmt";
	setAttr -k off -cb on ".tcov";
	setAttr -k off -cb on ".lith";
	setAttr -k off -cb on ".sobc";
	setAttr -k off -cb on ".cuth";
	setAttr -k off -cb on ".hgcd";
	setAttr -k off -cb on ".hgci";
	setAttr -k off -cb on ".mgcs";
	setAttr -k off -cb on ".twa";
	setAttr -k off -cb on ".twz";
	setAttr -cb on ".hwcc";
	setAttr -cb on ".hwdp";
	setAttr -cb on ".hwql";
	setAttr -k on ".hwfr";
	setAttr -k on ".soll";
	setAttr -k on ".sosl";
	setAttr -k on ".bswa";
	setAttr -k on ".shml";
	setAttr -k on ".hwel";
select -ne :defaultHardwareRenderGlobals;
	setAttr -cb on ".cch";
	setAttr -cb on ".ihi";
	setAttr -cb on ".nds";
	setAttr -cb on ".bnm";
	setAttr -av -cb on ".rp";
	setAttr -cb on ".cai";
	setAttr -cb on ".coi";
	setAttr -cb on ".bc";
	setAttr -av -k on ".bcb";
	setAttr -av -k on ".bcg";
	setAttr -av -k on ".bcr";
	setAttr -cb on ".ei";
	setAttr -av -cb on ".ex";
	setAttr -av -cb on ".es";
	setAttr -av -cb on ".ef";
	setAttr -av -cb on ".bf";
	setAttr -cb on ".fii";
	setAttr -av -cb on ".sf";
	setAttr -cb on ".gr";
	setAttr -cb on ".li";
	setAttr -cb on ".ls";
	setAttr -av -cb on ".mb";
	setAttr -cb on ".ti";
	setAttr -cb on ".txt";
	setAttr -cb on ".mpr";
	setAttr -cb on ".wzd";
	setAttr -k on ".fn" -type "string" "im";
	setAttr -cb on ".if";
	setAttr -k on ".res" -type "string" "ntsc_4d 646 485 1.333";
	setAttr -cb on ".as";
	setAttr -cb on ".ds";
	setAttr -cb on ".lm";
	setAttr -av -cb on ".fir";
	setAttr -cb on ".aap";
	setAttr -av -cb on ".gh";
	setAttr -cb on ".sd";
connectAttr "mia_physicalsky1.msg" ":perspShape.mies";
connectAttr "mia_physicalsun1.msg" "sunShape.mils";
connectAttr "mia_physicalsun1.msg" "sunShape.mipe";
connectAttr "layerManager.dli[0]" "defaultLayer.id";
connectAttr "renderLayerManager.rlmi[0]" "defaultRenderLayer.rlid";
connectAttr "ibl_scene_hyperView1.msg" "ibl_scene_nodeEditorPanel1Info.b[0]";
connectAttr "ibl_scene_hyperLayout1.msg" "ibl_scene_hyperView1.hl";
connectAttr "ibl_scene_hyperView2.msg" "ibl_scene_nodeEditorPanel2Info.b[0]";
connectAttr "ibl_scene_hyperLayout2.msg" "ibl_scene_hyperView2.hl";
connectAttr "ibl_scene_hyperView3.msg" "ibl_scene_nodeEditorPanel3Info.b[0]";
connectAttr "ibl_scene_hyperLayout3.msg" "ibl_scene_hyperView3.hl";
relationship "link" ":lightLinker1" ":initialShadingGroup.message" ":defaultLightSet.message";
relationship "link" ":lightLinker1" ":initialParticleSE.message" ":defaultLightSet.message";
relationship "shadowLink" ":lightLinker1" ":initialShadingGroup.message" ":defaultLightSet.message";
relationship "shadowLink" ":lightLinker1" ":initialParticleSE.message" ":defaultLightSet.message";
connectAttr ":mentalrayGlobals.msg" ":mentalrayItemsList.glb";
connectAttr ":miDefaultOptions.msg" ":mentalrayItemsList.opt" -na;
connectAttr ":miDefaultFramebuffer.msg" ":mentalrayItemsList.fb" -na;
connectAttr ":miDefaultOptions.msg" ":mentalrayGlobals.opt";
connectAttr ":miDefaultFramebuffer.msg" ":mentalrayGlobals.fb";
connectAttr "mia_physicalsky1.msg" ":mentalrayGlobals.sunAndSkyShader";
connectAttr "mia_physicalsky1.S00" "mia_physicalsun1.S00";
connectAttr "mia_physicalsky1.S01" "mia_physicalsun1.S01";
connectAttr "mia_physicalsky1.S02" "mia_physicalsun1.S02";
connectAttr "mia_physicalsky1.S03" "mia_physicalsun1.S03";
connectAttr "mia_physicalsky1.S04" "mia_physicalsun1.S04";
connectAttr "mia_physicalsky1.S05" "mia_physicalsun1.S05";
connectAttr "mia_physicalsky1.S06" "mia_physicalsun1.S06";
connectAttr "mia_physicalsky1.S18" "mia_physicalsun1.S12";
connectAttr "sunDirection.msg" "mia_physicalsky1.S11";
connectAttr "artillery_mc_groupId168.msg" ":initialShadingGroup.gn" -na;
connectAttr "artillery_mc_groupId169.msg" ":initialShadingGroup.gn" -na;
connectAttr "artillery_mc_groupId180.msg" ":initialShadingGroup.gn" -na;
connectAttr "artillery_mc_groupId181.msg" ":initialShadingGroup.gn" -na;
connectAttr "artillery_mc_groupId182.msg" ":initialShadingGroup.gn" -na;
connectAttr "artillery_mc_groupId183.msg" ":initialShadingGroup.gn" -na;
connectAttr "artillery_mc_groupId184.msg" ":initialShadingGroup.gn" -na;
connectAttr "artillery_mc_groupId185.msg" ":initialShadingGroup.gn" -na;
connectAttr "artillery_mc_groupId186.msg" ":initialShadingGroup.gn" -na;
connectAttr "artillery_mc_groupId187.msg" ":initialShadingGroup.gn" -na;
connectAttr "artillery_mc_groupId188.msg" ":initialShadingGroup.gn" -na;
connectAttr "artillery_mc_groupId189.msg" ":initialShadingGroup.gn" -na;
connectAttr "artillery_mc_groupId190.msg" ":initialShadingGroup.gn" -na;
connectAttr "artillery_mc_groupId191.msg" ":initialShadingGroup.gn" -na;
connectAttr "artillery_mc_groupId192.msg" ":initialShadingGroup.gn" -na;
connectAttr "artillery_mc_groupId193.msg" ":initialShadingGroup.gn" -na;
connectAttr "artillery_mc_groupId194.msg" ":initialShadingGroup.gn" -na;
connectAttr "artillery_mc_groupId195.msg" ":initialShadingGroup.gn" -na;
connectAttr "artillery_mc_groupId196.msg" ":initialShadingGroup.gn" -na;
connectAttr "artillery_mc_groupId197.msg" ":initialShadingGroup.gn" -na;
connectAttr "artillery_mc_groupId198.msg" ":initialShadingGroup.gn" -na;
connectAttr "artillery_mc_groupId199.msg" ":initialShadingGroup.gn" -na;
connectAttr "artillery_mc_groupId200.msg" ":initialShadingGroup.gn" -na;
connectAttr "artillery_mc_groupId201.msg" ":initialShadingGroup.gn" -na;
connectAttr "artillery_mc_groupId202.msg" ":initialShadingGroup.gn" -na;
connectAttr "artillery_mc_groupId203.msg" ":initialShadingGroup.gn" -na;
connectAttr "artillery_mc_groupId204.msg" ":initialShadingGroup.gn" -na;
connectAttr "artillery_mc_groupId205.msg" ":initialShadingGroup.gn" -na;
connectAttr "artillery_mc_groupId206.msg" ":initialShadingGroup.gn" -na;
connectAttr "artillery_mc_groupId207.msg" ":initialShadingGroup.gn" -na;
connectAttr "ibl_scene_groupId163.msg" ":initialShadingGroup.gn" -na;
connectAttr "ibl_scene_groupId164.msg" ":initialShadingGroup.gn" -na;
connectAttr "ibl_scene_groupId221.msg" ":initialShadingGroup.gn" -na;
connectAttr "ibl_scene_groupId224.msg" ":initialShadingGroup.gn" -na;
connectAttr "ambientLightShape1.ltd" ":lightList1.l" -na;
connectAttr "sunShape.ltd" ":lightList1.l" -na;
connectAttr "mia_physicalsun1.msg" ":defaultRenderUtilityList1.u" -na;
connectAttr "mia_physicalsky1.msg" ":defaultRenderUtilityList1.u" -na;
connectAttr "defaultRenderLayer.msg" ":defaultRenderingList1.r" -na;
connectAttr ":perspShape.msg" ":defaultRenderGlobals.sc";
connectAttr "ambientLight1.iog" ":defaultLightSet.dsm" -na;
connectAttr "sunDirection.iog" ":defaultLightSet.dsm" -na;
// End of Everlife_LightRig_SunSky.ma
