//Maya ASCII 2013 scene
//Name: Everlife_LightRig.ma
//Last modified: Thu, May 22, 2014 04:38:05 PM
//Codeset: UTF-8
requires maya "2013";
requires "Mayatomr" "2013.0 - 3.10.1.9 ";
requires "stereoCamera" "10.0";
currentUnit -l centimeter -a degree -t ntsc;
fileInfo "exportedFrom" "/Users/tlangehaug/Dropbox/Nimbus_Art/3d_art/Characters/Archer/archer_02.ma";
fileInfo "application" "maya";
fileInfo "product" "Maya 2013";
fileInfo "version" "2013 x64";
fileInfo "cutIdentifier" "201207040330-835994";
fileInfo "osv" "Mac OS X 10.7.5";
createNode transform -s -n "persp";
	setAttr ".t" -type "double3" -30.822638545535845 88.880991348232598 79.465506245170957 ;
	setAttr ".r" -type "double3" -46.199999999999982 -21.200000000000003 -3.4114271000234959e-15 ;
	setAttr ".rpt" -type "double3" 1.6532464016777624e-14 8.3710978888140623e-15 -1.0306160447739434e-13 ;
createNode camera -s -n "perspShape" -p "persp";
	setAttr -k off ".v";
	setAttr ".fl" 34.999999999999979;
	setAttr ".coi" 123.14476177554069;
	setAttr ".imn" -type "string" "persp";
	setAttr ".den" -type "string" "persp_depth";
	setAttr ".man" -type "string" "persp_mask";
	setAttr ".tp" -type "double3" -1.4229923879238362e-14 0 0 ;
	setAttr ".hc" -type "string" "viewSet -p %camera";
createNode transform -s -n "top";
	setAttr ".t" -type "double3" 0 100.1 0 ;
	setAttr ".r" -type "double3" -89.999999999999986 0 0 ;
createNode camera -s -n "topShape" -p "top";
	setAttr -k off ".v";
	setAttr ".rnd" no;
	setAttr ".coi" 100.1;
	setAttr ".ow" 30;
	setAttr ".imn" -type "string" "top";
	setAttr ".den" -type "string" "top_depth";
	setAttr ".man" -type "string" "top_mask";
	setAttr ".hc" -type "string" "viewSet -t %camera";
	setAttr ".o" yes;
createNode transform -s -n "front";
	setAttr ".t" -type "double3" 0 0 100.1 ;
createNode camera -s -n "frontShape" -p "front";
	setAttr -k off ".v";
	setAttr ".rnd" no;
	setAttr ".coi" 100.1;
	setAttr ".ow" 30;
	setAttr ".imn" -type "string" "front";
	setAttr ".den" -type "string" "front_depth";
	setAttr ".man" -type "string" "front_mask";
	setAttr ".hc" -type "string" "viewSet -f %camera";
	setAttr ".o" yes;
createNode transform -s -n "side";
	setAttr ".t" -type "double3" 100.1 0 0 ;
	setAttr ".r" -type "double3" 0 89.999999999999986 0 ;
createNode camera -s -n "sideShape" -p "side";
	setAttr -k off ".v";
	setAttr ".rnd" no;
	setAttr ".coi" 100.1;
	setAttr ".ow" 30;
	setAttr ".imn" -type "string" "side";
	setAttr ".den" -type "string" "side_depth";
	setAttr ".man" -type "string" "side_mask";
	setAttr ".hc" -type "string" "viewSet -s %camera";
	setAttr ".o" yes;
createNode transform -n "Lighting";
createNode transform -n "lights_area" -p "Lighting";
createNode transform -n "lightingstuff_pointLight4" -p "lights_area";
	setAttr ".t" -type "double3" 37.533679091736438 33.59198420780843 9.1021230652357552 ;
createNode pointLight -n "lightingstuff_pointLightShape4" -p "lightingstuff_pointLight4";
	setAttr -k off ".v";
	setAttr ".in" 0.029999999329447746;
	setAttr ".us" no;
createNode transform -n "lightingstuff_pointLight3" -p "lights_area";
	setAttr ".t" -type "double3" 23.712206764048386 42.627952020515288 -50.826737355304815 ;
createNode pointLight -n "lightingstuff_pointLightShape3" -p "lightingstuff_pointLight3";
	setAttr -k off ".v";
	setAttr ".in" 0.029999999329447746;
	setAttr ".us" no;
createNode transform -n "lightingstuff_pointLight2" -p "lights_area";
	setAttr ".t" -type "double3" -38.300262881429667 32.554077196579996 -40.498235977754497 ;
createNode pointLight -n "lightingstuff_pointLightShape2" -p "lightingstuff_pointLight2";
	setAttr -k off ".v";
	setAttr ".in" 0.029999999329447746;
	setAttr ".us" no;
createNode transform -n "lightingstuff_pointLight1" -p "lights_area";
	setAttr ".t" -type "double3" -33.622006847522307 7.8314789406393572 32.632021563490831 ;
createNode pointLight -n "lightingstuff_pointLightShape1" -p "lightingstuff_pointLight1";
	setAttr -k off ".v";
	setAttr ".us" no;
createNode transform -n "lightingstuff_ambientLight1" -p "lights_area";
	setAttr ".t" -type "double3" -24.445144803755397 4.2471710115289909 3.3730267670778744 ;
createNode ambientLight -n "lightingstuff_ambientLightShape1" -p "lightingstuff_ambientLight1";
	setAttr -k off ".v";
	setAttr ".in" 0.20000000298023224;
createNode transform -n "directionalLight2" -p "lights_area";
	setAttr ".t" -type "double3" -26.74657276661976 7.7539291810066189 -12.342810162237663 ;
	setAttr ".r" -type "double3" -118.80254432125226 24.495560754749164 24.934313417495975 ;
	setAttr ".s" -type "double3" 4.2939555814435337 4.2939555814435337 4.2939555814435337 ;
createNode directionalLight -n "lightingstuff_directionalLightShape1" -p "|Lighting|lights_area|directionalLight2";
	setAttr -k off ".v";
	setAttr ".cl" -type "float3" 0.76047677 0.85298556 0.90196079 ;
	setAttr ".in" 0.25;
	setAttr ".sc" -type "float3" 0.11023118 0.11572442 0.16534676 ;
	setAttr ".shr" 24;
	setAttr ".lang" 12;
createNode transform -n "directionalLight1" -p "lights_area";
	setAttr ".t" -type "double3" 33.098187422893986 8.0753644170138479 9.6327939993432441 ;
	setAttr ".r" -type "double3" -70.432312633613307 20.247387305623899 -17.250015011376796 ;
	setAttr ".s" -type "double3" 4.2939555814435337 4.2939555814435337 4.2939555814435337 ;
createNode directionalLight -n "lightingstuff_directionalLightShape1" -p "|Lighting|lights_area|directionalLight1";
	setAttr -k off ".v";
	setAttr ".in" 1.2999999523162842;
	setAttr ".urs" yes;
	setAttr ".sc" -type "float3" 0.094483867 0.0991989 0.14172579 ;
	setAttr ".shr" 24;
	setAttr ".lang" 3;
createNode transform -n "Shadowplane" -p "lights_area";
	setAttr ".v" no;
	setAttr ".ove" yes;
	setAttr ".t" -type "double3" -0.47883924222034402 0 -0.22830819299857552 ;
createNode mesh -n "ShadowplaneShape" -p "|Lighting|lights_area|Shadowplane";
	setAttr -k off ".v";
	setAttr ".vir" yes;
	setAttr ".vif" yes;
	setAttr ".uvst[0].uvsn" -type "string" "map1";
	setAttr ".cuvs" -type "string" "map1";
	setAttr ".dcc" -type "string" "Ambient+Diffuse";
	setAttr ".covm[0]"  0 1 1;
	setAttr ".cdvm[0]"  0 1 1;
createNode transform -n "lights_point" -p "Lighting";
createNode transform -n "Shadowplane" -p "lights_point";
	setAttr ".v" no;
	setAttr ".ove" yes;
	setAttr ".t" -type "double3" -0.47883924222034402 0 -0.22830819299857552 ;
createNode mesh -n "ShadowplaneShape" -p "|Lighting|lights_point|Shadowplane";
	setAttr -k off ".v";
	setAttr ".vir" yes;
	setAttr ".vif" yes;
	setAttr ".uvst[0].uvsn" -type "string" "map1";
	setAttr -s 4 ".uvst[0].uvsp[0:3]" -type "float2" 0 0 1 0 0 1 1 1;
	setAttr ".cuvs" -type "string" "map1";
	setAttr ".dcc" -type "string" "Ambient+Diffuse";
	setAttr ".covm[0]"  0 1 1;
	setAttr ".cdvm[0]"  0 1 1;
	setAttr -s 4 ".vt[0:3]"  -40 -8.8817842e-15 40 40 -8.8817842e-15 40
		 -40 8.8817842e-15 -40 40 8.8817842e-15 -40;
	setAttr -s 4 ".ed[0:3]"  0 1 0 0 2 0 1 3 0 2 3 0;
	setAttr -ch 4 ".fc[0]" -type "polyFaces" 
		f 4 0 2 -4 -2
		mu 0 4 0 1 3 2;
	setAttr ".cd" -type "dataPolyComponent" Index_Data Edge 0 ;
	setAttr ".cvd" -type "dataPolyComponent" Index_Data Vertex 0 ;
	setAttr ".hfd" -type "dataPolyComponent" Index_Data Face 0 ;
createNode transform -n "ambientLight1" -p "lights_point";
	setAttr ".t" -type "double3" 0 1.5617192171928296 8.1288098572566696 ;
createNode ambientLight -n "ambientLightShape1" -p "ambientLight1";
	setAttr -k off ".v";
	setAttr ".in" 0.40000000596046448;
	setAttr ".as" 0.30000001192092896;
createNode transform -n "directionalLight1" -p "lights_point";
	setAttr ".t" -type "double3" 3.1092854856227734 0 4.3850350118155372 ;
	setAttr ".r" -type "double3" -39.452013621334451 -4.6508477126821912 -10.51765602943774 ;
	setAttr ".s" -type "double3" 2.8418830154425274 2.8418830154425274 2.8418830154425274 ;
createNode directionalLight -n "directionalLightShape1" -p "|Lighting|lights_point|directionalLight1";
	setAttr -k off ".v";
	setAttr ".in" 0.15000000596046448;
	setAttr ".urs" yes;
	setAttr ".shr" 24;
	setAttr ".lang" 16;
	setAttr ".phi" 8000;
createNode transform -n "pointlights_01" -p "lights_point";
createNode transform -n "pointlight1" -p "pointlights_01";
	setAttr ".t" -type "double3" -2.8642609837728212 0.78468552263945579 -7.554420761413871 ;
createNode pointLight -n "pointlightShape1" -p "pointlight1";
	setAttr -k off ".v";
	setAttr ".in" 0.5;
	setAttr ".us" no;
createNode transform -n "pointlight2" -p "pointlights_01";
	setAttr ".t" -type "double3" 8.5478597377595822 17.549446428970345 20.947755939251309 ;
createNode pointLight -n "pointlightShape2" -p "pointlight2";
	setAttr -k off ".v";
	setAttr ".in" 0.5;
	setAttr ".us" no;
createNode transform -n "pointlight5" -p "pointlights_01";
	setAttr ".t" -type "double3" 1.2288552226076463 10.028931735948452 -9.2199167815609755 ;
createNode pointLight -n "pointlightShape5" -p "pointlight5";
	setAttr -k off ".v";
	setAttr ".in" 0.05000000074505806;
	setAttr ".us" no;
createNode transform -n "less_exposure" -p "Lighting";
createNode transform -n "pointlight4" -p "less_exposure";
	setAttr ".t" -type "double3" 8.5478597377595822 17.549446428970345 20.947755939251309 ;
createNode pointLight -n "pointlightShape4" -p "pointlight4";
	setAttr -k off ".v";
	setAttr ".in" 0.10000000149011612;
	setAttr ".us" no;
createNode transform -n "pointlight3" -p "less_exposure";
	setAttr ".t" -type "double3" -2.8642609837728212 0.78468552263945579 -7.554420761413871 ;
createNode pointLight -n "pointlightShape3" -p "pointlight3";
	setAttr -k off ".v";
	setAttr ".in" 0.34999999403953552;
	setAttr ".us" no;
createNode transform -n "ambientLight2" -p "less_exposure";
	setAttr ".t" -type "double3" 0 1.5617192171928296 8.1288098572566696 ;
createNode ambientLight -n "ambientLightShape2" -p "ambientLight2";
	setAttr -k off ".v";
	setAttr ".in" 0.34999999403953552;
	setAttr ".as" 0.30000001192092896;
createNode transform -n "directionalLight2" -p "less_exposure";
	setAttr ".t" -type "double3" 3.1092854856227734 0 4.3850350118155372 ;
	setAttr ".r" -type "double3" -39.452013621334451 -4.6508477126821912 -10.51765602943774 ;
	setAttr ".s" -type "double3" 2.8418830154425274 2.8418830154425274 2.8418830154425274 ;
createNode directionalLight -n "directionalLightShape2" -p "|Lighting|less_exposure|directionalLight2";
	setAttr -k off ".v";
	setAttr ".in" 0.10000000149011612;
	setAttr ".urs" yes;
	setAttr ".shr" 24;
	setAttr ".lang" 16;
	setAttr ".phi" 8000;
createNode transform -n "mentalrayIbl1" -p "Lighting";
	setAttr ".v" no;
	setAttr ".ove" yes;
	setAttr ".r" -type "double3" 7.5579530969303406 -236.55251800182501 8.7775006500483315 ;
	setAttr ".s" -type "double3" 1000 1000 1000 ;
createNode mentalrayIblShape -n "mentalrayIblShape1" -p "mentalrayIbl1";
	setAttr -k off ".v";
	setAttr ".vir" yes;
	setAttr ".vif" yes;
	setAttr ".covm[0]"  0 1 1;
	setAttr ".cdvm[0]"  0 1 1;
	setAttr ".hwt" 1;
	setAttr ".tx" -type "string" "/Users/tlangehaug/Art/everlife//Assets/Art/LightingResources/HDR/tadcustom_1.hdr";
	setAttr ".vien" yes;
	setAttr ".vifg" yes;
	setAttr ".el" yes;
	setAttr ".flt" -type "long2" 64 64 ;
	setAttr ".shc" -type "float3" 0.1613275 0.087655008 0.235 ;
createNode lightLinker -s -n "lightLinker1";
	setAttr -s 3 ".lnk";
	setAttr -s 3 ".slnk";
createNode displayLayerManager -n "layerManager";
	setAttr ".cdl" 3;
	setAttr -s 2 ".dli[1]"  3;
createNode displayLayer -n "defaultLayer";
createNode renderLayerManager -n "renderLayerManager";
createNode renderLayer -n "defaultRenderLayer";
	setAttr ".g" yes;
createNode script -n "sceneConfigurationScriptNode";
	setAttr ".b" -type "string" "playbackOptions -min 1 -max 24 -ast 1 -aet 48 ";
	setAttr ".st" 6;
createNode mentalrayItemsList -s -n "mentalrayItemsList";
	setAttr -s 19 ".opt";
createNode mentalrayGlobals -s -n "mentalrayGlobals";
	addAttr -ci true -sn "imrVerbosity" -ln "imrVerbosity" -dv 3 -at "short";
	addAttr -ci true -sn "imrThreads" -ln "imrThreads" -dv 1 -at "short";
	addAttr -ci true -sn "imrThreadsAdjust" -ln "imrThreadsAdjust" -dv 1 -min 0 -max 
		1 -at "bool";
	addAttr -ci true -sn "imrTaskOrder" -ln "imrTaskOrder" -dv 1 -at "short";
	addAttr -ci true -sn "imrTaskSize" -ln "imrTaskSize" -at "short";
	addAttr -ci true -sn "imrTaskAdjust" -ln "imrTaskAdjust" -dv 1 -at "short";
	addAttr -ci true -h true -sn "sunAndSkyShader" -ln "sunAndSkyShader" -at "message";
	setAttr ".rvb" 3;
	setAttr ".ivb" no;
	setAttr ".imrThreads" 4;
	setAttr ".imrThreadsAdjust" no;
createNode mentalrayOptions -s -n "miDefaultOptions";
	addAttr -ci true -m -sn "stringOptions" -ln "stringOptions" -at "compound" -nc 
		3;
	addAttr -ci true -sn "name" -ln "name" -dt "string" -p "stringOptions";
	addAttr -ci true -sn "value" -ln "value" -dt "string" -p "stringOptions";
	addAttr -ci true -sn "type" -ln "type" -dt "string" -p "stringOptions";
	setAttr ".maxr" 2;
	setAttr ".gir" 30;
	setAttr -s 28 ".stringOptions";
	setAttr ".stringOptions[0].name" -type "string" "rast motion factor";
	setAttr ".stringOptions[0].value" -type "string" "1.0";
	setAttr ".stringOptions[0].type" -type "string" "scalar";
	setAttr ".stringOptions[1].name" -type "string" "rast transparency depth";
	setAttr ".stringOptions[1].value" -type "string" "8";
	setAttr ".stringOptions[1].type" -type "string" "integer";
	setAttr ".stringOptions[2].name" -type "string" "rast useopacity";
	setAttr ".stringOptions[2].value" -type "string" "true";
	setAttr ".stringOptions[2].type" -type "string" "boolean";
	setAttr ".stringOptions[3].name" -type "string" "importon";
	setAttr ".stringOptions[3].value" -type "string" "false";
	setAttr ".stringOptions[3].type" -type "string" "boolean";
	setAttr ".stringOptions[4].name" -type "string" "importon density";
	setAttr ".stringOptions[4].value" -type "string" "1.0";
	setAttr ".stringOptions[4].type" -type "string" "scalar";
	setAttr ".stringOptions[5].name" -type "string" "importon merge";
	setAttr ".stringOptions[5].value" -type "string" "0.0";
	setAttr ".stringOptions[5].type" -type "string" "scalar";
	setAttr ".stringOptions[6].name" -type "string" "importon trace depth";
	setAttr ".stringOptions[6].value" -type "string" "0";
	setAttr ".stringOptions[6].type" -type "string" "integer";
	setAttr ".stringOptions[7].name" -type "string" "importon traverse";
	setAttr ".stringOptions[7].value" -type "string" "true";
	setAttr ".stringOptions[7].type" -type "string" "boolean";
	setAttr ".stringOptions[8].name" -type "string" "shadowmap pixel samples";
	setAttr ".stringOptions[8].value" -type "string" "3";
	setAttr ".stringOptions[8].type" -type "string" "integer";
	setAttr ".stringOptions[9].name" -type "string" "ambient occlusion";
	setAttr ".stringOptions[9].value" -type "string" "false";
	setAttr ".stringOptions[9].type" -type "string" "boolean";
	setAttr ".stringOptions[10].name" -type "string" "ambient occlusion rays";
	setAttr ".stringOptions[10].value" -type "string" "256";
	setAttr ".stringOptions[10].type" -type "string" "integer";
	setAttr ".stringOptions[11].name" -type "string" "ambient occlusion cache";
	setAttr ".stringOptions[11].value" -type "string" "false";
	setAttr ".stringOptions[11].type" -type "string" "boolean";
	setAttr ".stringOptions[12].name" -type "string" "ambient occlusion cache density";
	setAttr ".stringOptions[12].value" -type "string" "1.0";
	setAttr ".stringOptions[12].type" -type "string" "scalar";
	setAttr ".stringOptions[13].name" -type "string" "ambient occlusion cache points";
	setAttr ".stringOptions[13].value" -type "string" "64";
	setAttr ".stringOptions[13].type" -type "string" "integer";
	setAttr ".stringOptions[14].name" -type "string" "irradiance particles";
	setAttr ".stringOptions[14].value" -type "string" "false";
	setAttr ".stringOptions[14].type" -type "string" "boolean";
	setAttr ".stringOptions[15].name" -type "string" "irradiance particles rays";
	setAttr ".stringOptions[15].value" -type "string" "256";
	setAttr ".stringOptions[15].type" -type "string" "integer";
	setAttr ".stringOptions[16].name" -type "string" "irradiance particles interpolate";
	setAttr ".stringOptions[16].value" -type "string" "1";
	setAttr ".stringOptions[16].type" -type "string" "integer";
	setAttr ".stringOptions[17].name" -type "string" "irradiance particles interppoints";
	setAttr ".stringOptions[17].value" -type "string" "64";
	setAttr ".stringOptions[17].type" -type "string" "integer";
	setAttr ".stringOptions[18].name" -type "string" "irradiance particles indirect passes";
	setAttr ".stringOptions[18].value" -type "string" "0";
	setAttr ".stringOptions[18].type" -type "string" "integer";
	setAttr ".stringOptions[19].name" -type "string" "irradiance particles scale";
	setAttr ".stringOptions[19].value" -type "string" "1.0";
	setAttr ".stringOptions[19].type" -type "string" "scalar";
	setAttr ".stringOptions[20].name" -type "string" "irradiance particles env";
	setAttr ".stringOptions[20].value" -type "string" "true";
	setAttr ".stringOptions[20].type" -type "string" "boolean";
	setAttr ".stringOptions[21].name" -type "string" "irradiance particles env rays";
	setAttr ".stringOptions[21].value" -type "string" "256";
	setAttr ".stringOptions[21].type" -type "string" "integer";
	setAttr ".stringOptions[22].name" -type "string" "irradiance particles env scale";
	setAttr ".stringOptions[22].value" -type "string" "1";
	setAttr ".stringOptions[22].type" -type "string" "integer";
	setAttr ".stringOptions[23].name" -type "string" "irradiance particles rebuild";
	setAttr ".stringOptions[23].value" -type "string" "true";
	setAttr ".stringOptions[23].type" -type "string" "boolean";
	setAttr ".stringOptions[24].name" -type "string" "irradiance particles file";
	setAttr ".stringOptions[24].value" -type "string" "";
	setAttr ".stringOptions[24].type" -type "string" "string";
	setAttr ".stringOptions[25].name" -type "string" "geom displace motion factor";
	setAttr ".stringOptions[25].value" -type "string" "1.0";
	setAttr ".stringOptions[25].type" -type "string" "scalar";
	setAttr ".stringOptions[26].name" -type "string" "contrast all buffers";
	setAttr ".stringOptions[26].value" -type "string" "true";
	setAttr ".stringOptions[26].type" -type "string" "boolean";
	setAttr ".stringOptions[27].name" -type "string" "finalgather normal tolerance";
	setAttr ".stringOptions[27].value" -type "string" "25.842";
	setAttr ".stringOptions[27].type" -type "string" "scalar";
createNode mentalrayFramebuffer -s -n "miDefaultFramebuffer";
createNode mentalrayOptions -s -n "PreviewImrRayTracyOff";
	setAttr ".splck" no;
	setAttr ".minsp" 0;
	setAttr ".fil" 1;
	setAttr ".scan" 1;
	setAttr ".ray" no;
createNode mentalrayOptions -s -n "PreviewImrRayTracyOn";
	setAttr ".splck" no;
	setAttr ".minsp" 0;
	setAttr ".fil" 1;
	setAttr ".scan" 1;
	setAttr ".rfrr" 2;
	setAttr ".maxr" 3;
	setAttr ".shrd" 1;
createNode mentalrayOptions -s -n "miContourPreset";
createNode mentalrayOptions -s -n "Draft";
	setAttr ".maxr" 2;
createNode mentalrayOptions -s -n "DraftMotionBlur";
	setAttr ".maxr" 2;
	setAttr ".mb" 1;
	setAttr ".tconr" 1;
	setAttr ".tcong" 1;
	setAttr ".tconb" 1;
	setAttr ".tcona" 1;
createNode mentalrayOptions -s -n "DraftRapidMotion";
	setAttr ".scan" 3;
	setAttr ".rapc" 1;
	setAttr ".raps" 0.25;
	setAttr ".maxr" 2;
	setAttr ".mb" 1;
	setAttr ".tconr" 1;
	setAttr ".tcong" 1;
	setAttr ".tconb" 1;
	setAttr ".tcona" 1;
createNode mentalrayOptions -s -n "Preview";
	setAttr ".minsp" -1;
	setAttr ".maxsp" 1;
	setAttr ".fil" 1;
	setAttr ".rflr" 2;
	setAttr ".rfrr" 2;
	setAttr ".maxr" 4;
createNode mentalrayOptions -s -n "PreviewMotionblur";
	setAttr ".minsp" -1;
	setAttr ".maxsp" 1;
	setAttr ".fil" 1;
	setAttr ".rflr" 2;
	setAttr ".rfrr" 2;
	setAttr ".maxr" 4;
	setAttr ".mb" 1;
	setAttr ".tconr" 0.5;
	setAttr ".tcong" 0.5;
	setAttr ".tconb" 0.5;
	setAttr ".tcona" 0.5;
createNode mentalrayOptions -s -n "PreviewRapidMotion";
	setAttr ".minsp" -1;
	setAttr ".maxsp" 1;
	setAttr ".fil" 1;
	setAttr ".scan" 3;
	setAttr ".rapc" 3;
	setAttr ".rflr" 2;
	setAttr ".rfrr" 2;
	setAttr ".maxr" 4;
	setAttr ".mb" 1;
	setAttr ".tconr" 0.5;
	setAttr ".tcong" 0.5;
	setAttr ".tconb" 0.5;
	setAttr ".tcona" 0.5;
createNode mentalrayOptions -s -n "PreviewCaustics";
	setAttr ".minsp" -1;
	setAttr ".maxsp" 1;
	setAttr ".fil" 1;
	setAttr ".rflr" 2;
	setAttr ".rfrr" 2;
	setAttr ".maxr" 4;
	setAttr ".ca" yes;
	setAttr ".cc" 1;
	setAttr ".cr" 1;
createNode mentalrayOptions -s -n "PreviewGlobalIllum";
	setAttr ".minsp" -1;
	setAttr ".maxsp" 1;
	setAttr ".fil" 1;
	setAttr ".rflr" 2;
	setAttr ".rfrr" 2;
	setAttr ".maxr" 4;
	setAttr ".gi" yes;
	setAttr ".gc" 1;
	setAttr ".gr" 1;
createNode mentalrayOptions -s -n "PreviewFinalGather";
	setAttr ".minsp" -1;
	setAttr ".maxsp" 1;
	setAttr ".fil" 1;
	setAttr ".rflr" 2;
	setAttr ".rfrr" 2;
	setAttr ".maxr" 4;
	setAttr ".fg" yes;
createNode mentalrayOptions -s -n "Production";
	setAttr ".minsp" 0;
	setAttr ".maxsp" 2;
	setAttr ".fil" 2;
	setAttr ".rflr" 10;
	setAttr ".rfrr" 10;
	setAttr ".maxr" 20;
createNode mentalrayOptions -s -n "ProductionMotionblur";
	setAttr ".minsp" 0;
	setAttr ".maxsp" 2;
	setAttr ".fil" 2;
	setAttr ".rflr" 10;
	setAttr ".rfrr" 10;
	setAttr ".maxr" 20;
	setAttr ".mb" 2;
createNode mentalrayOptions -s -n "ProductionRapidMotion";
	setAttr ".minsp" 0;
	setAttr ".maxsp" 2;
	setAttr ".fil" 2;
	setAttr ".scan" 3;
	setAttr ".rapc" 8;
	setAttr ".raps" 2;
	setAttr ".rflr" 10;
	setAttr ".rfrr" 10;
	setAttr ".maxr" 20;
	setAttr ".mb" 2;
createNode mentalrayOptions -s -n "ProductionFineTrace";
	setAttr ".conr" 0.019999999552965164;
	setAttr ".cong" 0.019999999552965164;
	setAttr ".conb" 0.019999999552965164;
	setAttr ".minsp" 1;
	setAttr ".maxsp" 2;
	setAttr ".fil" 1;
	setAttr ".filw" 0.75;
	setAttr ".filh" 0.75;
	setAttr ".jit" yes;
createNode mentalrayOptions -s -n "ProductionRapidFur";
	setAttr ".conr" 0.039999999105930328;
	setAttr ".cong" 0.029999999329447746;
	setAttr ".conb" 0.070000000298023224;
	setAttr ".minsp" 0;
	setAttr ".maxsp" 2;
	setAttr ".fil" 1;
	setAttr ".filw" 1.1449999809265137;
	setAttr ".filh" 1.1449999809265137;
	setAttr ".jit" yes;
	setAttr ".scan" 3;
	setAttr ".rapc" 3;
	setAttr ".raps" 0.25;
	setAttr ".ray" no;
	setAttr ".shmth" 3;
	setAttr ".shmap" 3;
	setAttr ".mbsm" no;
	setAttr ".bism" 0.019999999552965164;
createNode mentalrayOptions -s -n "ProductionRapidHair";
	setAttr ".conr" 0.039999999105930328;
	setAttr ".cong" 0.029999999329447746;
	setAttr ".conb" 0.070000000298023224;
	setAttr ".minsp" 0;
	setAttr ".maxsp" 2;
	setAttr ".fil" 1;
	setAttr ".filw" 1.1449999809265137;
	setAttr ".filh" 1.1449999809265137;
	setAttr ".jit" yes;
	setAttr ".scan" 3;
	setAttr ".rapc" 6;
	setAttr ".ray" no;
	setAttr ".shmth" 3;
	setAttr ".shmap" 3;
	setAttr ".mbsm" no;
	setAttr ".bism" 0.019999999552965164;
createNode mia_exposure_simple -n "Barbarian_mc:mia_exposure_simple1";
	setAttr ".S00" 1.7999999523162842;
	setAttr ".S01" 1.5;
	setAttr ".S02" 1;
createNode polyPlane -n "Nimbus_LightRig:polyPlane1";
	setAttr ".w" 80;
	setAttr ".h" 80;
	setAttr ".sw" 1;
	setAttr ".sh" 1;
	setAttr ".cuv" 2;
createNode lambert -n "Nimbus_LightRig:lambert6";
createNode shadingEngine -n "Nimbus_LightRig:lambert6SG";
	setAttr ".ihi" 0;
	setAttr -s 2 ".dsm";
	setAttr ".ro" yes;
createNode materialInfo -n "Nimbus_LightRig:materialInfo67";
createNode mip_matteshadow -n "Nimbus_LightRig:mip_matteshadow3";
createNode mib_opacity -n "Nimbus_LightRig:mib_opacity1";
	setAttr ".S01" -type "float3" 0 0 0 ;
createNode mib_opacity -n "Nimbus_LightRig:mib_opacity2";
createNode useBackground -n "Nimbus_LightRig:useBackground1";
	setAttr ".sc" -type "float3" 0 0 0 ;
	setAttr ".rfl" 0;
select -ne :time1;
	setAttr -av -cb on ".cch";
	setAttr -cb on ".ihi";
	setAttr -av -cb on ".nds";
	setAttr -cb on ".bnm";
	setAttr -k on ".o" 1;
	setAttr ".unw" 1;
select -ne :renderPartition;
	setAttr -cb on ".cch";
	setAttr -cb on ".ihi";
	setAttr -cb on ".nds";
	setAttr -cb on ".bnm";
	setAttr -s 3 ".st";
	setAttr -cb on ".an";
	setAttr -cb on ".pt";
select -ne :initialShadingGroup;
	setAttr -k on ".cch";
	setAttr -cb on ".ihi";
	setAttr -av -k on ".nds";
	setAttr -cb on ".bnm";
	setAttr -cb on ".mwc";
	setAttr -cb on ".an";
	setAttr -cb on ".il";
	setAttr -cb on ".vo";
	setAttr -cb on ".eo";
	setAttr -cb on ".fo";
	setAttr -cb on ".epo";
	setAttr -k on ".ro" yes;
	setAttr -cb on ".mimt";
	setAttr -cb on ".miop";
	setAttr -k on ".mico";
	setAttr -cb on ".mise";
	setAttr -cb on ".mism";
	setAttr -cb on ".mice";
	setAttr -av -cb on ".micc";
	setAttr -k on ".micr";
	setAttr -k on ".micg";
	setAttr -k on ".micb";
	setAttr -cb on ".mica";
	setAttr -av -cb on ".micw";
	setAttr -cb on ".mirw";
select -ne :initialParticleSE;
	setAttr -av -k on ".cch";
	setAttr -cb on ".ihi";
	setAttr -av -k on ".nds";
	setAttr -cb on ".bnm";
	setAttr -cb on ".mwc";
	setAttr -cb on ".an";
	setAttr -cb on ".il";
	setAttr -cb on ".vo";
	setAttr -cb on ".eo";
	setAttr -cb on ".fo";
	setAttr -cb on ".epo";
	setAttr -k on ".ro" yes;
	setAttr -cb on ".mimt";
	setAttr -cb on ".miop";
	setAttr -k on ".mico";
	setAttr -cb on ".mise";
	setAttr -cb on ".mism";
	setAttr -cb on ".mice";
	setAttr -av -cb on ".micc";
	setAttr -k on ".micr";
	setAttr -k on ".micg";
	setAttr -k on ".micb";
	setAttr -cb on ".mica";
	setAttr -av -cb on ".micw";
	setAttr -cb on ".mirw";
select -ne :defaultShaderList1;
	setAttr -cb on ".cch";
	setAttr -cb on ".ihi";
	setAttr -cb on ".nds";
	setAttr -cb on ".bnm";
	setAttr -s 5 ".s";
select -ne :lightList1;
	setAttr -k on ".cch";
	setAttr -cb on ".ihi";
	setAttr -k on ".nds";
	setAttr -cb on ".bnm";
	setAttr -s 17 ".l";
select -ne :postProcessList1;
	setAttr -cb on ".cch";
	setAttr -cb on ".ihi";
	setAttr -cb on ".nds";
	setAttr -cb on ".bnm";
	setAttr -s 2 ".p";
select -ne :defaultRenderUtilityList1;
	setAttr -k on ".cch";
	setAttr -cb on ".ihi";
	setAttr -k on ".nds";
	setAttr -cb on ".bnm";
	setAttr -s 3 ".u";
select -ne :defaultRenderingList1;
select -ne :renderGlobalsList1;
	setAttr -cb on ".cch";
	setAttr -cb on ".ihi";
	setAttr -cb on ".nds";
	setAttr -cb on ".bnm";
select -ne :defaultRenderGlobals;
	setAttr -k on ".cch";
	setAttr -cb on ".ihi";
	setAttr -k on ".nds";
	setAttr -cb on ".bnm";
	setAttr -k on ".macc";
	setAttr -k on ".macd";
	setAttr -k on ".macq";
	setAttr -k on ".mcfr";
	setAttr -cb on ".ifg";
	setAttr -k on ".clip";
	setAttr -k on ".edm";
	setAttr -k on ".edl";
	setAttr -cb on ".ren" -type "string" "mentalRay";
	setAttr -av -k on ".esr";
	setAttr -k on ".ors";
	setAttr -cb on ".sdf";
	setAttr -av -k on ".outf";
	setAttr -cb on ".imfkey";
	setAttr -k on ".gama";
	setAttr -cb on ".an";
	setAttr -cb on ".ar";
	setAttr -k on ".fs" 1;
	setAttr -k on ".ef" 10;
	setAttr -av -k on ".bfs";
	setAttr -cb on ".me";
	setAttr -cb on ".se";
	setAttr -k on ".be";
	setAttr -cb on ".ep";
	setAttr -k on ".fec";
	setAttr -av -k on ".ofc";
	setAttr -cb on ".ofe";
	setAttr -cb on ".efe";
	setAttr -cb on ".oft";
	setAttr -cb on ".umfn";
	setAttr -cb on ".ufe";
	setAttr -cb on ".pff";
	setAttr -cb on ".peie";
	setAttr -cb on ".ifp";
	setAttr -k on ".comp";
	setAttr -k on ".cth";
	setAttr -k on ".soll";
	setAttr -cb on ".sosl";
	setAttr -k on ".rd";
	setAttr -k on ".lp";
	setAttr -av -k on ".sp";
	setAttr -k on ".shs";
	setAttr -av -k on ".lpr";
	setAttr -cb on ".gv";
	setAttr -cb on ".sv";
	setAttr -k on ".mm";
	setAttr -k on ".npu";
	setAttr -k on ".itf";
	setAttr -k on ".shp";
	setAttr -cb on ".isp";
	setAttr -k on ".uf";
	setAttr -k on ".oi";
	setAttr -k on ".rut";
	setAttr -cb on ".mb";
	setAttr -av -k on ".mbf";
	setAttr -k on ".afp";
	setAttr -k on ".pfb";
	setAttr -k on ".pram";
	setAttr -k on ".poam";
	setAttr -k on ".prlm";
	setAttr -k on ".polm";
	setAttr -cb on ".prm";
	setAttr -cb on ".pom";
	setAttr -cb on ".pfrm";
	setAttr -cb on ".pfom";
	setAttr -av -k on ".bll";
	setAttr -av -k on ".bls";
	setAttr -av -k on ".smv";
	setAttr -k on ".ubc";
	setAttr -k on ".mbc";
	setAttr -cb on ".mbt";
	setAttr -k on ".udbx";
	setAttr -k on ".smc";
	setAttr -k on ".kmv";
	setAttr -cb on ".isl";
	setAttr -cb on ".ism";
	setAttr -cb on ".imb";
	setAttr -k on ".rlen";
	setAttr -av -k on ".frts";
	setAttr -k on ".tlwd";
	setAttr -k on ".tlht";
	setAttr -k on ".jfc";
	setAttr -cb on ".rsb";
	setAttr -k on ".ope";
	setAttr -k on ".oppf";
	setAttr -cb on ".hbl";
select -ne :defaultResolution;
	setAttr -av -k on ".cch";
	setAttr -k on ".ihi";
	setAttr -av -k on ".nds";
	setAttr -k on ".bnm";
	setAttr -av ".w";
	setAttr -av ".h";
	setAttr -av ".pa" 1;
	setAttr -av -k on ".al";
	setAttr -av ".dar";
	setAttr -av -k on ".ldar";
	setAttr -k on ".dpi";
	setAttr -av -k on ".off";
	setAttr -av -k on ".fld";
	setAttr -av -k on ".zsl";
	setAttr -k on ".isu";
	setAttr -k on ".pdu";
select -ne :defaultLightSet;
	setAttr -k on ".cch";
	setAttr -k on ".ihi";
	setAttr -av -k on ".nds";
	setAttr -k on ".bnm";
	setAttr -s 17 ".dsm";
	setAttr -k on ".mwc";
	setAttr -k on ".an";
	setAttr -k on ".il";
	setAttr -k on ".vo";
	setAttr -k on ".eo";
	setAttr -k on ".fo";
	setAttr -k on ".epo";
	setAttr -k on ".ro" yes;
select -ne :defaultObjectSet;
	setAttr -k on ".cch";
	setAttr -k on ".ihi";
	setAttr -k on ".nds";
	setAttr -k on ".bnm";
	setAttr -k on ".mwc";
	setAttr -k on ".an";
	setAttr -k on ".il";
	setAttr -k on ".vo";
	setAttr -k on ".eo";
	setAttr -k on ".fo";
	setAttr -k on ".epo";
	setAttr ".ro" yes;
select -ne :hardwareRenderGlobals;
	setAttr -cb on ".cch";
	setAttr -cb on ".ihi";
	setAttr -cb on ".nds";
	setAttr -cb on ".bnm";
	setAttr ".ctrs" 256;
	setAttr -av ".btrs" 512;
	setAttr -k off ".fbfm";
	setAttr -k off -cb on ".ehql";
	setAttr -k off -cb on ".eams";
	setAttr -k off -cb on ".eeaa";
	setAttr -k off -cb on ".engm";
	setAttr -k off -cb on ".mes";
	setAttr -k off -cb on ".emb";
	setAttr -av -k off -cb on ".mbbf";
	setAttr -k off -cb on ".mbs";
	setAttr -k off -cb on ".trm";
	setAttr -k off -cb on ".tshc";
	setAttr -k off ".enpt";
	setAttr -k off -cb on ".clmt";
	setAttr -k off -cb on ".tcov";
	setAttr -k off -cb on ".lith";
	setAttr -k off -cb on ".sobc";
	setAttr -k off -cb on ".cuth";
	setAttr -k off -cb on ".hgcd";
	setAttr -k off -cb on ".hgci";
	setAttr -k off -cb on ".mgcs";
	setAttr -k off -cb on ".twa";
	setAttr -k off -cb on ".twz";
	setAttr -cb on ".hwcc";
	setAttr -cb on ".hwdp";
	setAttr -cb on ".hwql";
	setAttr -k on ".hwfr";
select -ne :defaultHardwareRenderGlobals;
	setAttr -cb on ".cch";
	setAttr -cb on ".ihi";
	setAttr -cb on ".nds";
	setAttr -cb on ".bnm";
	setAttr -av -cb on ".rp";
	setAttr -cb on ".cai";
	setAttr -cb on ".coi";
	setAttr -cb on ".bc";
	setAttr -av -k on ".bcb";
	setAttr -av -k on ".bcg";
	setAttr -av -k on ".bcr";
	setAttr -cb on ".ei";
	setAttr -av -cb on ".ex";
	setAttr -av -cb on ".es";
	setAttr -av -cb on ".ef";
	setAttr -av -cb on ".bf";
	setAttr -cb on ".fii";
	setAttr -av -cb on ".sf";
	setAttr -cb on ".gr";
	setAttr -cb on ".li";
	setAttr -cb on ".ls";
	setAttr -av -cb on ".mb";
	setAttr -cb on ".ti";
	setAttr -cb on ".txt";
	setAttr -cb on ".mpr";
	setAttr -cb on ".wzd";
	setAttr -k on ".fn" -type "string" "im";
	setAttr -cb on ".if";
	setAttr -k on ".res" -type "string" "ntsc_4d 646 485 1.333";
	setAttr -cb on ".as";
	setAttr -cb on ".ds";
	setAttr -cb on ".lm";
	setAttr -av -cb on ".fir";
	setAttr -cb on ".aap";
	setAttr -av -cb on ".gh";
	setAttr -cb on ".sd";
connectAttr "Nimbus_LightRig:polyPlane1.out" "|Lighting|lights_area|Shadowplane|ShadowplaneShape.i"
		;
connectAttr "Barbarian_mc:mia_exposure_simple1.S07" "mentalrayIblShape1.cg";
relationship "link" ":lightLinker1" ":initialShadingGroup.message" ":defaultLightSet.message";
relationship "link" ":lightLinker1" ":initialParticleSE.message" ":defaultLightSet.message";
relationship "link" ":lightLinker1" "Nimbus_LightRig:lambert6SG.message" ":defaultLightSet.message";
relationship "shadowLink" ":lightLinker1" ":initialShadingGroup.message" ":defaultLightSet.message";
relationship "shadowLink" ":lightLinker1" ":initialParticleSE.message" ":defaultLightSet.message";
relationship "shadowLink" ":lightLinker1" "Nimbus_LightRig:lambert6SG.message" ":defaultLightSet.message";
connectAttr "layerManager.dli[0]" "defaultLayer.id";
connectAttr "renderLayerManager.rlmi[0]" "defaultRenderLayer.rlid";
connectAttr ":mentalrayGlobals.msg" ":mentalrayItemsList.glb";
connectAttr ":miDefaultOptions.msg" ":mentalrayItemsList.opt" -na;
connectAttr ":PreviewImrRayTracyOff.msg" ":mentalrayItemsList.opt" -na;
connectAttr ":PreviewImrRayTracyOn.msg" ":mentalrayItemsList.opt" -na;
connectAttr ":miContourPreset.msg" ":mentalrayItemsList.opt" -na;
connectAttr ":Draft.msg" ":mentalrayItemsList.opt" -na;
connectAttr ":DraftMotionBlur.msg" ":mentalrayItemsList.opt" -na;
connectAttr ":DraftRapidMotion.msg" ":mentalrayItemsList.opt" -na;
connectAttr ":Preview.msg" ":mentalrayItemsList.opt" -na;
connectAttr ":PreviewMotionblur.msg" ":mentalrayItemsList.opt" -na;
connectAttr ":PreviewRapidMotion.msg" ":mentalrayItemsList.opt" -na;
connectAttr ":PreviewCaustics.msg" ":mentalrayItemsList.opt" -na;
connectAttr ":PreviewGlobalIllum.msg" ":mentalrayItemsList.opt" -na;
connectAttr ":PreviewFinalGather.msg" ":mentalrayItemsList.opt" -na;
connectAttr ":Production.msg" ":mentalrayItemsList.opt" -na;
connectAttr ":ProductionMotionblur.msg" ":mentalrayItemsList.opt" -na;
connectAttr ":ProductionRapidMotion.msg" ":mentalrayItemsList.opt" -na;
connectAttr ":ProductionFineTrace.msg" ":mentalrayItemsList.opt" -na;
connectAttr ":ProductionRapidFur.msg" ":mentalrayItemsList.opt" -na;
connectAttr ":ProductionRapidHair.msg" ":mentalrayItemsList.opt" -na;
connectAttr ":miDefaultFramebuffer.msg" ":mentalrayItemsList.fb" -na;
connectAttr ":miDefaultOptions.msg" ":mentalrayGlobals.opt";
connectAttr ":miDefaultFramebuffer.msg" ":mentalrayGlobals.fb";
connectAttr "mentalrayIblShape1.msg" ":mentalrayGlobals.ibl";
connectAttr ":PreviewImrRayTracyOn.msg" ":mentalrayGlobals.imro";
connectAttr "Nimbus_LightRig:mib_opacity2.S02" "Nimbus_LightRig:lambert6.it";
connectAttr "Nimbus_LightRig:lambert6.oc" "Nimbus_LightRig:lambert6SG.ss";
connectAttr "|Lighting|lights_area|Shadowplane|ShadowplaneShape.iog" "Nimbus_LightRig:lambert6SG.dsm"
		 -na;
connectAttr "|Lighting|lights_point|Shadowplane|ShadowplaneShape.iog" "Nimbus_LightRig:lambert6SG.dsm"
		 -na;
connectAttr "Nimbus_LightRig:mip_matteshadow3.msg" "Nimbus_LightRig:lambert6SG.mims"
		;
connectAttr "Nimbus_LightRig:lambert6SG.msg" "Nimbus_LightRig:materialInfo67.sg"
		;
connectAttr "Nimbus_LightRig:lambert6.msg" "Nimbus_LightRig:materialInfo67.m";
connectAttr "Nimbus_LightRig:useBackground1.oc" "Nimbus_LightRig:mip_matteshadow3.S00"
		;
connectAttr "Nimbus_LightRig:mib_opacity1.S02A" "Nimbus_LightRig:mip_matteshadow3.S00A"
		;
connectAttr "Nimbus_LightRig:lambert6SG.pa" ":renderPartition.st" -na;
connectAttr "Nimbus_LightRig:lambert6.msg" ":defaultShaderList1.s" -na;
connectAttr "Nimbus_LightRig:mip_matteshadow3.msg" ":defaultShaderList1.s" -na;
connectAttr "Nimbus_LightRig:useBackground1.msg" ":defaultShaderList1.s" -na;
connectAttr "mentalrayIblShape1.ltd" ":lightList1.l" -na;
connectAttr "pointlightShape3.ltd" ":lightList1.l" -na;
connectAttr "pointlightShape4.ltd" ":lightList1.l" -na;
connectAttr "ambientLightShape2.ltd" ":lightList1.l" -na;
connectAttr "directionalLightShape2.ltd" ":lightList1.l" -na;
connectAttr "ambientLightShape1.ltd" ":lightList1.l" -na;
connectAttr "directionalLightShape1.ltd" ":lightList1.l" -na;
connectAttr "pointlightShape1.ltd" ":lightList1.l" -na;
connectAttr "pointlightShape2.ltd" ":lightList1.l" -na;
connectAttr "pointlightShape5.ltd" ":lightList1.l" -na;
connectAttr "|Lighting|lights_area|directionalLight1|lightingstuff_directionalLightShape1.ltd" ":lightList1.l"
		 -na;
connectAttr "|Lighting|lights_area|directionalLight2|lightingstuff_directionalLightShape1.ltd" ":lightList1.l"
		 -na;
connectAttr "lightingstuff_ambientLightShape1.ltd" ":lightList1.l" -na;
connectAttr "lightingstuff_pointLightShape1.ltd" ":lightList1.l" -na;
connectAttr "lightingstuff_pointLightShape2.ltd" ":lightList1.l" -na;
connectAttr "lightingstuff_pointLightShape3.ltd" ":lightList1.l" -na;
connectAttr "lightingstuff_pointLightShape4.ltd" ":lightList1.l" -na;
connectAttr "Barbarian_mc:mia_exposure_simple1.msg" ":defaultRenderUtilityList1.u"
		 -na;
connectAttr "Nimbus_LightRig:mib_opacity1.msg" ":defaultRenderUtilityList1.u" -na
		;
connectAttr "Nimbus_LightRig:mib_opacity2.msg" ":defaultRenderUtilityList1.u" -na
		;
connectAttr "defaultRenderLayer.msg" ":defaultRenderingList1.r" -na;
connectAttr ":perspShape.msg" ":defaultRenderGlobals.sc";
connectAttr "mentalrayIbl1.iog" ":defaultLightSet.dsm" -na;
connectAttr "pointlight3.iog" ":defaultLightSet.dsm" -na;
connectAttr "pointlight4.iog" ":defaultLightSet.dsm" -na;
connectAttr "ambientLight2.iog" ":defaultLightSet.dsm" -na;
connectAttr "|Lighting|less_exposure|directionalLight2.iog" ":defaultLightSet.dsm"
		 -na;
connectAttr "ambientLight1.iog" ":defaultLightSet.dsm" -na;
connectAttr "|Lighting|lights_point|directionalLight1.iog" ":defaultLightSet.dsm"
		 -na;
connectAttr "pointlight1.iog" ":defaultLightSet.dsm" -na;
connectAttr "pointlight2.iog" ":defaultLightSet.dsm" -na;
connectAttr "pointlight5.iog" ":defaultLightSet.dsm" -na;
connectAttr "|Lighting|lights_area|directionalLight1.iog" ":defaultLightSet.dsm"
		 -na;
connectAttr "|Lighting|lights_area|directionalLight2.iog" ":defaultLightSet.dsm"
		 -na;
connectAttr "lightingstuff_ambientLight1.iog" ":defaultLightSet.dsm" -na;
connectAttr "lightingstuff_pointLight1.iog" ":defaultLightSet.dsm" -na;
connectAttr "lightingstuff_pointLight2.iog" ":defaultLightSet.dsm" -na;
connectAttr "lightingstuff_pointLight3.iog" ":defaultLightSet.dsm" -na;
connectAttr "lightingstuff_pointLight4.iog" ":defaultLightSet.dsm" -na;
// End of Everlife_LightRig.ma
