//Maya ASCII 2013 scene
//Name: Missile.ma
//Last modified: Wed, Apr 30, 2014 04:24:07 PM
//Codeset: UTF-8
requires maya "2013";
requires "Mayatomr" "2013.0 - 3.10.1.9 ";
requires "stereoCamera" "10.0";
currentUnit -l centimeter -a degree -t ntsc;
fileInfo "application" "maya";
fileInfo "product" "Maya 2013";
fileInfo "version" "2013 x64";
fileInfo "cutIdentifier" "201207040330-835994";
fileInfo "osv" "Mac OS X 10.9.2";
createNode transform -s -n "persp";
	setAttr ".v" no;
	setAttr ".t" -type "double3" 16.880573949342086 16.549043303327668 7.6457048649542916 ;
	setAttr ".r" -type "double3" -42.33835272936134 414.99999999978326 0 ;
createNode camera -s -n "perspShape" -p "persp";
	setAttr -k off ".v" no;
	setAttr ".fl" 34.999999999999986;
	setAttr ".coi" 23.663402950731992;
	setAttr ".imn" -type "string" "persp";
	setAttr ".den" -type "string" "persp_depth";
	setAttr ".man" -type "string" "persp_mask";
	setAttr ".hc" -type "string" "viewSet -p %camera";
createNode transform -s -n "top";
	setAttr ".v" no;
	setAttr ".t" -type "double3" 0 100.1 0 ;
	setAttr ".r" -type "double3" -89.999999999999986 0 0 ;
createNode camera -s -n "topShape" -p "top";
	setAttr -k off ".v" no;
	setAttr ".rnd" no;
	setAttr ".coi" 100.1;
	setAttr ".ow" 22.712550607287451;
	setAttr ".imn" -type "string" "top";
	setAttr ".den" -type "string" "top_depth";
	setAttr ".man" -type "string" "top_mask";
	setAttr ".hc" -type "string" "viewSet -t %camera";
	setAttr ".o" yes;
createNode transform -s -n "front";
	setAttr ".v" no;
	setAttr ".t" -type "double3" 0 0 100.1 ;
createNode camera -s -n "frontShape" -p "front";
	setAttr -k off ".v" no;
	setAttr ".rnd" no;
	setAttr ".coi" 100.1;
	setAttr ".ow" 30;
	setAttr ".imn" -type "string" "front";
	setAttr ".den" -type "string" "front_depth";
	setAttr ".man" -type "string" "front_mask";
	setAttr ".hc" -type "string" "viewSet -f %camera";
	setAttr ".o" yes;
createNode transform -s -n "side";
	setAttr ".v" no;
	setAttr ".t" -type "double3" 100.1 1.2535606289715506 0.32360560143969797 ;
	setAttr ".r" -type "double3" 0 89.999999999999986 0 ;
createNode camera -s -n "sideShape" -p "side";
	setAttr -k off ".v" no;
	setAttr ".rnd" no;
	setAttr ".coi" 100.1;
	setAttr ".ow" 53.798208063398675;
	setAttr ".imn" -type "string" "side";
	setAttr ".den" -type "string" "side_depth";
	setAttr ".man" -type "string" "side_mask";
	setAttr ".hc" -type "string" "viewSet -s %camera";
	setAttr ".o" yes;
createNode transform -n "Missile";
createNode mesh -n "MissileShape" -p "Missile";
	setAttr -k off ".v";
	setAttr -s 3 ".iog[0].og";
	setAttr ".vir" yes;
	setAttr ".vif" yes;
	setAttr ".pv" -type "double2" 0.64173334836959839 0.50000429153442383 ;
	setAttr ".uvst[0].uvsn" -type "string" "map1";
	setAttr -s 112 ".uvst[0].uvsp[0:111]" -type "float2" 0.50858182 0.088767648
		 0.47700229 0.032101274 0.61508191 0.088766456 0.72190785 0.088760138 0.081303507
		 0.08874774 0.18860456 0.08874917 0.29557422 0.088755488 0.4021745 0.088763118 0.6152606
		 0.14343679 0.50862706 0.14343846 0.6152513 0.15702486 0.50862306 0.15702653 0.72211671
		 0.14342761 0.72210777 0.15701592 0.82922179 0.14341652 0.081257135 0.14340997 0.081261605
		 0.15699911 0.18842402 0.14341176 0.18843341 0.15700066 0.29536659 0.14342082 0.29537502
		 0.15700936 0.40206045 0.1434319 0.4020634 0.15702021 0.61539757 0.29560226 0.5086574
		 0.29560477 0.50863677 0.16262662 0.61529899 0.16262484 0.72228026 0.29558879 0.72216105
		 0.16261482 0.8293162 0.29557252 0.081226856 0.29556286 0.081247717 0.16259551 0.18828657
		 0.29556543 0.18838564 0.1625973 0.29520315 0.2955789 0.29532179 0.16260731 0.40196654
		 0.29559505 0.40203586 0.16261935 0.51046395 0.88951468 0.61980629 0.88943493 0.5104562
		 0.96790731 0.72663212 0.88930869 0.079519242 0.88920784 0.079526871 0.96760046 0.18398544
		 0.88928699 0.18398833 0.9676795 0.29074699 0.88941312 0.29074347 0.96780574 0.4000394
		 0.88950777 0.4000313 0.9679004 0.61537886 0.18564403 0.5086596 0.18564653 0.50864178
		 0.17372072 0.61531806 0.17371857 0.72225177 0.18563104 0.72218323 0.17370808 0.82925862
		 0.17369533 0.081224531 0.18560594 0.08124277 0.17368758 0.18830547 0.18560863 0.18836665
		 0.1736896 0.2952314 0.18562126 0.29529962 0.17370009 0.40198824 0.18563712 0.40202352
		 0.17371297 0.72227085 0.20423996 0.72213376 0.18431044 0.61527228 0.18431962 0.61539519
		 0.20425379 0.82923454 0.18429947 0.081220657 0.20421332 0.081258029 0.18429285 0.18828893
		 0.20421612 0.1884124 0.18429434 0.29521218 0.20422983 0.29534909 0.18430352 0.40197724
		 0.20424658 0.40204757 0.18431479 0.50866348 0.20425653 0.50862646 0.1843214 0.62087476
		 0.86404717 0.51092064 0.86404932 0.72765005 0.86403668 0.83154887 0.86402392 0.079123467
		 0.86401618 0.18297425 0.8640182 0.28967395 0.86402869 0.39956859 0.86404157 0.028236151
		 0.96679997 0.82910609 0.08875227 0.93650252 0.08874774 0.82921851 0.15700567 0.93645662
		 0.14340997 0.93644696 0.16259551 0.83114046 0.88921607 0.93471837 0.88920784 0.82924646
		 0.16260266 0.93646085 0.15699911 0.8292945 0.1856153 0.93644184 0.17368758 0.93641996
		 0.20421332 0.93645746 0.18429285 0.82930547 0.20422328 0.93642372 0.18560594 0.93642604
		 0.29556286 0.93432266 0.86401618 0.88343555 0.96679997 0.61980367 0.96782744 0.72663617
		 0.96770144 0.83114833 0.96760869 0.93472588 0.96760046 1.25523055 0.9679004;
	setAttr ".cuvs" -type "string" "map1";
	setAttr ".dcc" -type "string" "Ambient+Diffuse";
	setAttr ".covm[0]"  0 1 1;
	setAttr ".cdvm[0]"  0 1 1;
	setAttr -s 98 ".vt[0:97]"  5.4836273e-06 -0.17162037 -9.72397804 0 0.00052642822 3.8179965
		 0.79737854 0.33069801 2.99710798 0.79737854 -0.32987213 2.99719954 0.33028436 -0.79696655 2.99726534
		 -0.33028507 -0.79696655 2.99726534 -0.79737914 -0.32987213 2.99719954 -0.79737914 0.33069801 2.99710798
		 -0.33028507 0.79779053 2.99704504 0.33028436 0.79779053 2.99704504 1.69283628 0.70119572 0.00054693222
		 1.69283628 -0.70119667 0.00074148178 0.70119452 -1.69283485 0.00087881088 -0.70119572 -1.69283485 0.00087881088
		 -1.69283593 -0.70119667 0.00074148178 -1.69283617 0.70119572 0.00054693222 -0.70119572 1.69283295 0.00041151047
		 0.70119452 1.69283295 0.00041151047 0.52550507 1.26894855 1.92699003 -0.52550578 1.26894855 1.92699003
		 -1.26868236 0.52577019 1.92709112 -1.26868236 -0.52524185 1.92723608 -0.52550578 -1.2684164 1.92733717
		 0.52550507 -1.2684164 1.92733717 1.268682 -0.52524185 1.92723608 1.268682 0.52577019 1.92709112
		 1.14914989 0.47629738 2.20507765 1.14914989 -0.47569275 2.20520926 0.47599316 -1.14884663 2.20530176
		 -0.47599387 -1.14884663 2.20530176 -1.14915061 -0.47569275 2.20520926 -1.14915061 0.47629738 2.20507765
		 -0.47599387 1.14945602 2.20498419 0.47599316 1.14945602 2.20498419 0.46262932 1.1171627 2.0081181526
		 -0.46263003 1.1171627 2.0081181526 -1.11688697 0.46290684 2.0082087517 -1.11688697 -0.46235275 2.008336544
		 -0.46263003 -1.11660957 2.0084233284 0.4626298 -1.11661148 2.0084223747 1.11688566 -0.46235275 2.008336544
		 1.11688566 0.46290684 2.0082087517 1.73732901 0.71980762 1.32401419 1.16795158 0.48400402 1.61276388
		 1.73733044 -0.71944237 1.32421446 1.16795158 -0.48355961 1.6128974 0.71962547 -1.73715019 1.32435465
		 0.48378086 -1.16772938 1.61298895 -0.71962595 -1.73715019 1.32435465 -0.48378158 -1.16772938 1.61298895
		 -1.7373296 -0.71944427 1.32421255 -1.16795158 -0.48355961 1.6128974 -1.73732972 0.71980762 1.32401419
		 -1.16795135 0.48400402 1.61276388 -0.71962631 1.73751068 1.32387304 -0.48378181 1.16817379 1.61266947
		 0.71962547 1.73751068 1.32387304 0.48378134 1.16817379 1.61266947 1.64155054 0.68017197 1.59362364
		 1.33831477 0.55459118 1.76636934 1.64155149 -0.67973328 1.59381056 1.33831477 -0.55410385 1.76652193
		 0.67995286 -1.64133358 1.59394312 0.55434752 -1.33807087 1.7666297 -0.6799531 -1.64133358 1.59394312
		 -0.55434823 -1.33807087 1.7666297 -1.64155138 -0.67973137 1.59380865 -1.33831513 -0.55410385 1.76652193
		 -1.64155138 0.68017197 1.59362364 -1.33831477 0.55459118 1.76636934 -0.67995358 1.64177227 1.59349108
		 -0.55434883 1.3385582 1.76626062 0.67995286 1.64177227 1.59349108 0.55434847 1.3385582 1.76626062
		 0.55581832 1.27845955 -8.23526382 1.34186482 0.49241257 -8.23515511 1.34186482 -0.6192255 -8.23500347
		 0.55581832 -1.40527058 -8.23489666 -0.55581939 -1.40527058 -8.23489666 -1.34186566 -0.6192255 -8.23500347
		 -1.34186566 0.49241257 -8.23515511 -0.55581939 1.27845955 -8.23526382 0.6964128 1.6178894 -9.73995209
		 0.69642735 1.61793041 -8.60419464 -0.69641304 1.6178875 -9.73999214 -0.69642782 1.6179285 -8.6042347
		 -1.68134737 0.6329937 -9.73871994 -1.68138242 0.63301468 -8.60296154 -1.68139756 -0.75986576 -9.73689079
		 -1.6814326 -0.7598753 -8.6011343 -0.69644272 -1.74485111 -9.73564529 -0.69645739 -1.74488068 -8.59988785
		 0.69644213 -1.74485111 -9.73562622 0.69645667 -1.74488163 -8.59986877 1.68139744 -0.75986576 -9.73686981
		 1.68143272 -0.75987434 -8.60111237 1.68134737 0.63299465 -9.73869705 1.68138266 0.63301468 -8.60293961;
	setAttr -s 200 ".ed";
	setAttr ".ed[0:165]"  2 9 1 3 2 1 4 3 1 5 4 1 6 5 1 7 6 1 8 7 1 9 8 1 10 17 1
		 11 10 1 12 11 1 13 12 1 14 13 1 15 14 1 16 15 1 17 16 1 18 17 1 19 16 1 20 15 1 21 14 1
		 22 13 1 23 12 1 24 11 1 25 10 1 26 2 1 27 3 1 28 4 1 29 5 1 30 6 1 31 7 1 32 8 1
		 33 9 1 18 25 0 19 18 0 20 19 0 21 20 0 22 21 0 23 22 0 24 23 0 25 24 0 26 33 0 27 26 0
		 28 27 0 29 28 0 30 29 0 31 30 0 32 31 0 33 32 0 34 35 1 35 36 1 36 37 1 37 38 1 38 39 1
		 39 40 1 40 41 1 41 34 1 41 25 1 18 34 1 33 34 1 26 41 1 19 35 1 32 35 1 20 36 1 31 36 1
		 21 37 1 30 37 1 22 38 1 29 38 1 23 39 1 28 39 1 24 40 1 27 40 1 57 43 0 43 42 1 42 44 0
		 43 45 0 45 44 1 44 46 0 45 47 0 47 46 1 46 48 0 47 49 0 49 48 1 48 50 0 49 51 0 51 50 1
		 50 52 0 51 53 0 53 52 1 52 54 0 53 55 0 55 54 1 54 56 0 55 57 0 57 56 1 56 42 0 43 59 1
		 45 61 1 47 63 1 49 65 1 51 67 1 53 69 1 55 71 1 57 73 1 58 72 1 59 73 0 60 58 1 61 59 0
		 62 60 1 63 61 0 64 62 1 65 63 0 66 64 1 67 65 0 68 66 1 69 67 0 70 68 1 71 69 0 72 70 1
		 73 71 0 42 58 1 56 72 1 72 73 1 59 58 1 60 44 1 61 60 1 62 46 1 63 62 1 64 48 1 65 64 1
		 66 50 1 67 66 1 68 52 1 69 68 1 70 54 1 71 70 1 74 17 1 75 10 1 74 75 0 76 11 1 75 76 0
		 77 12 1 76 77 0 78 13 1 77 78 0 79 14 1 78 79 0 80 15 1 79 80 0 81 16 1 80 81 0 81 74 0
		 0 82 1 74 83 1 82 83 1 0 84 1 81 85 1 84 85 1 0 86 1 80 87 1 86 87 1 0 88 1 79 89 1
		 88 89 1 0 90 1 78 91 1;
	setAttr ".ed[166:199]" 90 91 1 0 92 1 77 93 1 92 93 1 0 94 1 76 95 1 94 95 1
		 0 96 1 75 97 1 96 97 1 83 97 0 96 82 0 97 95 0 94 96 0 95 93 0 92 94 0 93 91 0 90 92 0
		 91 89 0 88 90 0 89 87 0 86 88 0 87 85 0 84 86 0 85 83 0 82 84 0 1 9 0 1 8 0 1 7 0
		 1 6 0 1 5 0 1 4 0 1 3 0 1 2 0;
	setAttr -s 104 -ch 400 ".fc[0:103]" -type "polyFaces" 
		f 3 -193 199 0
		mu 0 3 0 1 2
		f 3 1 -200 198
		mu 0 3 3 2 1
		f 3 2 -199 197
		mu 0 3 89 3 1
		f 3 3 -198 196
		mu 0 3 90 89 1
		f 3 4 -197 195
		mu 0 3 5 4 1
		f 3 5 -196 194
		mu 0 3 6 5 1
		f 3 6 -195 193
		mu 0 3 7 6 1
		f 3 7 -194 192
		mu 0 3 0 7 1
		f 4 -1 -25 40 31
		mu 0 4 0 2 8 9
		f 4 55 -59 -41 59
		mu 0 4 10 11 9 8
		f 4 -2 -26 41 24
		mu 0 4 2 3 12 8
		f 4 54 -60 -42 71
		mu 0 4 13 10 8 12
		f 4 -3 -27 42 25
		mu 0 4 3 89 14 12
		f 4 53 -72 -43 69
		mu 0 4 91 13 12 14
		f 4 -4 -28 43 26
		mu 0 4 89 90 92 14
		f 4 52 -70 -44 67
		mu 0 4 97 91 14 92
		f 4 -5 -29 44 27
		mu 0 4 4 5 17 15
		f 4 51 -68 -45 65
		mu 0 4 18 16 15 17
		f 4 -6 -30 45 28
		mu 0 4 5 6 19 17
		f 4 50 -66 -46 63
		mu 0 4 20 18 17 19
		f 4 -7 -31 46 29
		mu 0 4 6 7 21 19
		f 4 49 -64 -47 61
		mu 0 4 22 20 19 21
		f 4 -8 -32 47 30
		mu 0 4 7 0 9 21
		f 4 48 -62 -48 58
		mu 0 4 11 22 21 9
		f 4 8 -17 32 23
		mu 0 4 23 24 25 26
		f 4 9 -24 39 22
		mu 0 4 27 23 26 28
		f 4 10 -23 38 21
		mu 0 4 29 27 28 96
		f 4 11 -22 37 20
		mu 0 4 104 29 96 93
		f 4 12 -21 36 19
		mu 0 4 32 30 31 33
		f 4 13 -20 35 18
		mu 0 4 34 32 33 35
		f 4 14 -19 34 17
		mu 0 4 36 34 35 37
		f 4 15 -18 33 16
		mu 0 4 24 36 37 25
		f 4 176 -176 177 154
		mu 0 4 38 39 107 40
		f 4 178 -173 179 175
		mu 0 4 39 41 108 107
		f 4 180 -170 181 172
		mu 0 4 41 94 109 108
		f 4 182 -167 183 169
		mu 0 4 94 95 110 109
		f 4 184 -164 185 166
		mu 0 4 42 44 45 43
		f 4 186 -161 187 163
		mu 0 4 44 46 47 45
		f 4 188 -158 189 160
		mu 0 4 46 48 49 47
		f 4 190 -155 191 157
		mu 0 4 48 38 40 49
		f 4 -33 57 -56 56
		mu 0 4 26 25 11 10
		f 4 -40 -57 -55 -71
		mu 0 4 28 26 10 13
		f 4 -39 70 -54 -69
		mu 0 4 96 28 13 91
		f 4 -38 68 -53 -67
		mu 0 4 93 96 91 97
		f 4 -37 66 -52 -65
		mu 0 4 33 31 16 18
		f 4 -36 64 -51 -63
		mu 0 4 35 33 18 20
		f 4 -35 62 -50 -61
		mu 0 4 37 35 20 22
		f 4 -34 60 -49 -58
		mu 0 4 25 37 22 11
		f 4 104 122 -106 123
		mu 0 4 50 51 52 53
		f 4 106 -124 -108 125
		mu 0 4 54 50 53 55
		f 4 108 -126 -110 127
		mu 0 4 98 54 55 56
		f 4 110 -128 -112 129
		mu 0 4 103 98 56 99
		f 4 112 -130 -114 131
		mu 0 4 59 57 58 60
		f 4 114 -132 -116 133
		mu 0 4 61 59 60 62
		f 4 116 -134 -118 135
		mu 0 4 63 61 62 64
		f 4 118 -136 -120 -123
		mu 0 4 51 63 64 52
		f 4 -77 -76 73 74
		mu 0 4 65 66 67 68
		f 4 -80 -79 76 77
		mu 0 4 102 69 66 65
		f 4 -83 -82 79 80
		mu 0 4 100 101 69 102
		f 4 -86 -85 82 83
		mu 0 4 72 73 71 70
		f 4 -89 -88 85 86
		mu 0 4 74 75 73 72
		f 4 -92 -91 88 89
		mu 0 4 76 77 75 74
		f 4 -95 -94 91 92
		mu 0 4 78 79 77 76
		f 4 94 95 -74 -73
		mu 0 4 79 78 68 67
		f 4 -96 121 -105 -121
		mu 0 4 68 78 51 50
		f 4 -97 75 97 107
		mu 0 4 53 67 66 55
		f 4 -75 120 -107 124
		mu 0 4 65 68 50 54
		f 4 -98 78 98 109
		mu 0 4 55 66 69 56
		f 4 -78 -125 -109 126
		mu 0 4 102 65 54 98
		f 4 -99 81 99 111
		mu 0 4 56 69 101 99
		f 4 -81 -127 -111 128
		mu 0 4 100 102 98 103
		f 4 -100 84 100 113
		mu 0 4 58 71 73 60
		f 4 -84 -129 -113 130
		mu 0 4 72 70 57 59
		f 4 -101 87 101 115
		mu 0 4 60 73 75 62
		f 4 -87 -131 -115 132
		mu 0 4 74 72 59 61
		f 4 -102 90 102 117
		mu 0 4 62 75 77 64
		f 4 -90 -133 -117 134
		mu 0 4 76 74 61 63
		f 4 -103 93 103 119
		mu 0 4 64 77 79 52
		f 4 -93 -135 -119 -122
		mu 0 4 78 76 63 51
		f 4 -104 72 96 105
		mu 0 4 52 79 67 53
		f 4 -9 -138 -139 136
		mu 0 4 24 23 80 81
		f 4 -10 -140 -141 137
		mu 0 4 23 27 82 80
		f 4 -11 -142 -143 139
		mu 0 4 27 29 83 82
		f 4 -12 -144 -145 141
		mu 0 4 29 104 105 83
		f 4 -13 -146 -147 143
		mu 0 4 30 32 85 84
		f 4 -14 -148 -149 145
		mu 0 4 32 34 86 85
		f 4 -15 -150 -151 147
		mu 0 4 34 36 87 86
		f 4 -16 -137 -152 149
		mu 0 4 36 24 81 87
		f 4 -154 138 174 -177
		mu 0 4 38 81 80 39
		f 4 -157 151 153 -191
		mu 0 4 48 87 81 38
		f 4 -160 150 156 -189
		mu 0 4 46 86 87 48
		f 4 -163 148 159 -187
		mu 0 4 44 85 86 46
		f 4 -166 146 162 -185
		mu 0 4 42 84 85 44
		f 4 -169 144 165 -183
		mu 0 4 94 83 105 95
		f 4 -172 142 168 -181
		mu 0 4 41 82 83 94
		f 4 -175 140 171 -179
		mu 0 4 39 80 82 41
		f 3 -178 -174 152
		mu 0 3 40 107 106
		f 3 -180 -171 173
		mu 0 3 107 108 106
		f 3 -182 -168 170
		mu 0 3 108 109 106
		f 3 -184 -165 167
		mu 0 3 109 110 106
		f 3 -186 -162 164
		mu 0 3 43 45 88
		f 3 -188 -159 161
		mu 0 3 45 47 88
		f 3 -190 -156 158
		mu 0 3 47 49 88
		f 3 -192 -153 155
		mu 0 3 111 40 106;
	setAttr ".cd" -type "dataPolyComponent" Index_Data Edge 0 ;
	setAttr ".cvd" -type "dataPolyComponent" Index_Data Vertex 0 ;
	setAttr ".hfd" -type "dataPolyComponent" Index_Data Face 0 ;
	setAttr ".dr" 1;
createNode mesh -n "MissileShape1" -p "Missile";
	setAttr -k off ".v";
	setAttr ".io" yes;
	setAttr -s 3 ".iog[0].og";
	setAttr ".iog[0].og[0].gcl" -type "componentList" 9 "f[8:104]" "f[106:107]" "f[109:110]" "f[112:113]" "f[115:116]" "f[118:119]" "f[121:122]" "f[124:125]" "f[127:239]";
	setAttr ".iog[0].og[1].gcl" -type "componentList" 1 "f[240:335]";
	setAttr ".iog[0].og[2].gcl" -type "componentList" 9 "f[0:7]" "f[105]" "f[108]" "f[111]" "f[114]" "f[117]" "f[120]" "f[123]" "f[126]";
	setAttr ".vir" yes;
	setAttr ".vif" yes;
	setAttr ".uvst[0].uvsn" -type "string" "map1";
	setAttr -s 371 ".uvst[0].uvsp";
	setAttr ".uvst[0].uvsp[0:249]" -type "float2" 0 0.5 0.0625 0.5 0.0625 0.5625
		 0 0.5625 0.125 0.5 0.1875 0.5 0.1875 0.5625 0.125 0.5625 0.25 0.5 0.3125 0.5 0.3125
		 0.5625 0.25 0.5625 0.375 0.5 0.4375 0.5 0.4375 0.5625 0.375 0.5625 0.5 0.5 0.5625
		 0.5 0.5625 0.5625 0.5 0.5625 0.625 0.5 0.6875 0.5 0.6875 0.5625 0.625 0.5625 0.75
		 0.5 0.8125 0.5 0.8125 0.5625 0.75 0.5625 0.875 0.5 0.9375 0.5 0.9375 0.5625 0.875
		 0.5625 0 0.625 0.0625 0.625 0.0625 0.6875 -3.5654001e-08 0.6875 0.125 0.625 0.1875
		 0.625 0.1875 0.6875 0.125 0.6875 0.25 0.625 0.3125 0.625 0.3125 0.6875 0.25 0.6875
		 0.375 0.625 0.4375 0.625 0.4375 0.6875 0.375 0.6875 0.5 0.625 0.5625 0.625 0.5625
		 0.6875 0.5 0.6875 0.625 0.625 0.6875 0.625 0.6875 0.6875 0.625 0.6875 0.75 0.625
		 0.8125 0.625 0.8125 0.6875 0.75 0.6875 0.875 0.625 0.9375 0.625 0.9375 0.6875 0.875
		 0.6875 -1.176705e-09 0.75543565 0.062499963 0.75543201 0.062499922 0.77445626 -6.68525e-08
		 0.77445269 0.125 0.75543565 0.18750006 0.75543201 0.18749997 0.77445632 0.125 0.77445269
		 0.25000003 0.75543565 0.31250006 0.75543189 0.3125 0.77445632 0.25000009 0.77445269
		 0.375 0.75543565 0.43749997 0.75543189 0.43749997 0.77445638 0.375 0.77445269 0.50000006
		 0.75543559 0.5625 0.75543189 0.56249994 0.77445644 0.5 0.77445257 0.625 0.75543565
		 0.6875 0.75543189 0.6875 0.7744565 0.625 0.77445269 0.74999988 0.75543559 0.81249994
		 0.75543195 0.8125 0.77445632 0.74999988 0.77445257 0.875 0.75543565 0.93749988 0.75543195
		 0.9375 0.77445638 0.875 0.77445269 0 0.875 0.0625 0.875 0.03125 0.9375 0.125 0.875
		 0.1875 0.875 0.15625 0.9375 0.25 0.875 0.3125 0.875 0.28125 0.9375 0.375 0.875 0.4375
		 0.875 0.40625 0.9375 0.5 0.875 0.5625 0.875 0.53125 0.9375 0.625 0.875 0.6875 0.875
		 0.65625 0.9375 0.75 0.875 0.8125 0.875 0.78125 0.9375 0.875 0.875 0.9375 0.875 0.90625
		 0.9375 0.96875 0.9375 0.9375 1 1 0.875 0.84375 0.9375 0.8125 1 0.71875 0.9375 0.6875
		 1 0.59375 0.9375 0.5625 1 0.46875 0.9375 0.4375 1 0.34375 0.9375 0.3125 1 0.21875
		 0.9375 0.1875 1 0.09375 0.9375 0.0625 1 0.9375 0.8125 1 0.8125 0.99999994 0.77445263
		 1 0.75543565 0.875 0.8125 0.8125 0.8125 0.75 0.8125 0.6875 0.8125 0.625 0.8125 0.5625
		 0.8125 0.5 0.8125 0.4375 0.8125 0.375 0.8125 0.3125 0.8125 0.25 0.8125 0.18750006
		 0.81250006 0.125 0.8125 0.06249994 0.81250006 0 0.8125 0.99999994 0.6875 0.99999994
		 0.74663478 0.93749988 0.74663687 1 0.625 0.875 0.74663472 0.81250006 0.74663681 0.74999994
		 0.74663472 0.6875 0.74663687 0.625 0.74663478 0.56249994 0.74663681 0.50000006 0.74663466
		 0.4375 0.74663681 0.375 0.74663484 0.31250006 0.74663687 0.25000012 0.74663484 0.1875
		 0.74663681 0.125 0.74663472 0.062499981 0.74663681 -1.224976e-07 0.7466349 1 0.5625
		 1 0.5 0.9375 0.78411925 1 0.78412527 0.875 0.78412521 0.8125 0.78411925 0.74999994
		 0.78412521 0.68749994 0.78411919 0.625 0.78412527 0.5625 0.78411925 0.5 0.78412521
		 0.4375 0.78411919 0.375 0.78412521 0.31249997 0.78411925 0.25000003 0.78412521 0.18750003
		 0.78411925 0.125 0.78412527 0.062500015 0.78411913 -2.0295246e-08 0.78412521 -4.1687144e-08
		 0.75000006 0.062500782 0.74999994 0.062499966 0.74999994 -3.9244213e-08 0.75000012
		 0.0625 0.77988821 -3.6364249e-08 0.77988827 -2.3325729e-08 0.77988827 0.062503815
		 0.77988821 0.125 0.75 0.18750089 0.75 0.18749999 0.75 0.125 0.75 0.18749997 0.77988827
		 0.125 0.77988827 0.125 0.77988827 0.18750393 0.77988827 0.25000006 0.75 0.31250083
		 0.75 0.31250003 0.75 0.25000003 0.75 0.3125 0.77988827 0.25000003 0.77988827 0.25000003
		 0.77988827 0.31250384 0.77988827 0.375 0.75 0.43750075 0.74999994 0.43749997 0.75
		 0.375 0.75 0.4375 0.77988827 0.375 0.77988827 0.375 0.77988827 0.43750387 0.77988827
		 0.50000012 0.74999994 0.56250083 0.75 0.5625 0.75 0.50000006 0.74999994 0.5625 0.77988827
		 0.5 0.77988821 0.5 0.77988821 0.56250387 0.77988827 0.62499994 0.74999994 0.68750077
		 0.75000006 0.68749994 0.75000012 0.625 0.75 0.68749994 0.77988833 0.625 0.77988827
		 0.625 0.77988827 0.68750393 0.77988827 0.74999994 0.74999994 0.81250083 0.75 0.8125
		 0.75 0.74999994 0.74999994 0.81249994 0.77988833 0.74999994 0.77988821 0.74999994
		 0.77988821 0.81250393 0.77988827;
	setAttr ".uvst[0].uvsp[250:370]" 0.87500006 0.75000006 0.93750077 0.75000006
		 0.93749994 0.75000006 0.875 0.75 0.9375 0.77988827 0.875 0.77988833 0.875 0.77988827
		 0.93750381 0.77988827 1 0.77988827 0.99999994 0.77988827 1 0.75 1 0.74999994 0.93749994
		 0.69341314 0.99999988 0.69340801 1 0.74072677 0.9375 0.74072385 0.875 0.69340801
		 0.875 0.74072665 0.81250006 0.69341314 0.81249994 0.74072373 0.75000006 0.69340801
		 0.74999994 0.74072671 0.6875 0.69341314 0.6875 0.74072379 0.625 0.69340807 0.625
		 0.74072671 0.5625 0.69341314 0.56249994 0.74072367 0.5 0.69340795 0.5 0.74072671
		 0.4375 0.69341302 0.43750003 0.74072385 0.375 0.69340801 0.375 0.74072689 0.31250006
		 0.69341314 0.31250003 0.74072379 0.25000003 0.69340801 0.25000006 0.74072677 0.1875
		 0.69341308 0.1875 0.74072379 0.125 0.69340789 0.125 0.74072683 0.062500007 0.69341308
		 0.062500007 0.74072385 -6.4061638e-08 0.69340807 -6.1224604e-08 0.74072689 0.9375
		 0.6875 0.93749988 0.74663687 0.99999994 0.74663478 0.99999994 0.6875 0.875 0.6875
		 0.875 0.74663472 0.8125 0.6875 0.81250006 0.74663681 0.74999994 0.6875 0.74999994
		 0.74663472 0.6875 0.6875 0.6875 0.74663687 0.625 0.6875 0.625 0.74663478 0.5625 0.6875
		 0.56249994 0.74663681 0.5 0.6875 0.50000006 0.74663466 0.4375 0.6875 0.4375 0.74663681
		 0.37499997 0.6875 0.375 0.74663484 0.3125 0.6875 0.31250006 0.74663687 0.25 0.6875
		 0.25000012 0.74663484 0.1875 0.6875 0.1875 0.74663681 0.125 0.6875 0.125 0.74663472
		 0.0625 0.6875 0.062499981 0.74663681 -3.5654001e-08 0.6875 -1.224976e-07 0.7466349
		 0.99999219 0.6875 0.93749994 0.68750006 0.93749994 0.74663681 0.99999988 0.74663472
		 0.87499231 0.6875 0.875 0.74663472 0.8125 0.6875 0.81250006 0.74663681 0.74999231
		 0.6875 0.74999994 0.74663472 0.68749994 0.6875 0.6875 0.74663681 0.62499231 0.6875
		 0.625 0.74663478 0.56250006 0.68750006 0.5625 0.74663681 0.49999222 0.6875 0.50000006
		 0.74663466 0.43749994 0.6875 0.43750003 0.74663681 0.37499225 0.6875 0.375 0.74663484
		 0.3125 0.6875 0.31250006 0.74663687 0.24999225 0.6875 0.25000012 0.74663484 0.18749997
		 0.6875 0.1875 0.74663681 0.12499224 0.6875 0.125 0.74663472 0.0625 0.6875 0.0625
		 0.74663681 -3.5653979e-08 0.6875 -1.224976e-07 0.7466349 0.875 0.6875 0.75 0.6875
		 0.625 0.6875 0.49999997 0.6875 0.375 0.6875 0.25 0.6875 0.125 0.6875;
	setAttr ".cuvs" -type "string" "map1";
	setAttr ".dcc" -type "string" "Ambient+Diffuse";
	setAttr ".covm[0]"  0 1 1;
	setAttr ".cdvm[0]"  0 1 1;
	setAttr -s 17 ".pt";
	setAttr ".pt[0]" -type "float3" -0.2922177 -3.6943207 -7.9931736 ;
	setAttr ".pt[1]" -type "float3" -1.1912559e-07 -3.8061476 -7.9468532 ;
	setAttr ".pt[2]" -type "float3" 0.29221773 -3.6943207 -7.9931736 ;
	setAttr ".pt[3]" -type "float3" 0.41325834 -3.4243469 -8.1049986 ;
	setAttr ".pt[4]" -type "float3" 0.29221773 -3.1543736 -8.2168283 ;
	setAttr ".pt[5]" -type "float3" -1.1912559e-07 -3.042546 -8.2631464 ;
	setAttr ".pt[6]" -type "float3" -0.2922177 -3.1543736 -8.2168283 ;
	setAttr ".pt[7]" -type "float3" -0.41325849 -3.4243469 -8.1049986 ;
	setAttr ".pt[73]" -type "float3" -0.38038868 -3.5699589 -8.0448103 ;
	setAttr ".pt[74]" -type "float3" -0.38038868 -3.2788222 -8.1654034 ;
	setAttr ".pt[75]" -type "float3" -0.15756214 -3.0729578 -8.2506771 ;
	setAttr ".pt[76]" -type "float3" 0.15756208 -3.0729578 -8.2506771 ;
	setAttr ".pt[77]" -type "float3" 0.38038865 -3.2788222 -8.1654034 ;
	setAttr ".pt[78]" -type "float3" 0.38038865 -3.5699589 -8.0448103 ;
	setAttr ".pt[79]" -type "float3" 0.15756208 -3.775825 -7.9595389 ;
	setAttr ".pt[80]" -type "float3" -0.15756214 -3.775825 -7.9595389 ;
	setAttr -s 329 ".vt";
	setAttr ".vt[0:165]"  3.78789592 18.42046738 4.44582558 2.46487284 18.92676544 4.23611021
		 1.14184904 18.42046738 4.44582558 0.593835 17.19815254 4.95212507 1.14184904 15.97583961 5.45842409
		 2.46487284 15.46953964 5.66814041 3.78789592 15.97583961 5.45842409 4.33591032 17.19815254 4.95212507
		 3.70026541 18.99276543 6.056462288 2.46487284 19.4655304 5.86063671 1.22947943 18.99276543 6.056462288
		 0.71776325 17.85140991 6.52922678 1.22947943 16.7100563 7.0019922256 2.46487284 16.23729134 7.1978178
		 3.70026541 16.7100563 7.0019922256 4.21198225 17.85140991 6.52922678 3.11054659 19.36347961 8.49245739
		 2.46487284 19.610569 8.39011002 1.81919825 19.36347961 8.49245739 1.55175114 18.76695442 8.73954678
		 1.81919825 18.17042923 8.98663521 2.46487284 17.92333984 9.088983536 3.11054707 18.17042923 8.98663521
		 3.37799406 18.76695442 8.73954678 2.46487284 19.11363983 9.57651806 2.99704266 18.96964836 9.22889328
		 2.84117341 18.62199211 9.37289715 2.46487284 18.47798729 9.43254566 2.088571548 18.62199211 9.37289715
		 1.93270206 18.96964836 9.22889328 2.088571548 19.31730652 9.084888458 2.46487284 19.46131134 9.025239944
		 2.84117341 19.31730652 9.084890366 3.61425853 18.57415199 8.27407742 3.27761197 17.82327843 8.58509922
		 2.46487284 17.51225471 8.71392822 1.65213394 17.82327843 8.58509922 1.31548643 18.57415199 8.27407742
		 1.65213394 19.32502365 7.96305609 2.46487284 19.63604546 7.83422661 3.27761078 19.32502365 7.96305609
		 4.043582439 18.18352127 7.33101368 3.58118844 17.15217972 7.75820923 2.46487284 16.72498322 7.93516016
		 1.34855604 17.15217972 7.75820923 0.88616252 18.18352127 7.33101368 1.34855545 19.21486282 6.90381765
		 2.46487284 19.64205933 6.72686768 3.58118939 19.21486282 6.90381765 4.30397415 17.65231705 6.04857254
		 3.76531363 16.4508667 6.54622936 2.46487284 15.95320892 6.75236607 1.16443157 16.4508667 6.54622936
		 0.62577146 17.65231705 6.04857254 1.16443145 18.8537693 5.55091476 2.46487284 19.35142517 5.34477901
		 3.76531363 18.8537693 5.55091476 3.26225138 19.10466003 8.69176483 3.26225138 18.49437332 8.94455433
		 2.79515719 18.062835693 9.12330341 2.13458776 18.062835693 9.12330341 1.6674937 18.49437332 8.94455433
		 1.6674937 19.10466003 8.69176483 2.13458776 19.53619957 8.51301575 2.79515719 19.53619957 8.51301575
		 4.073889256 18.4668808 6.27352095 4.073889256 17.23539543 6.78362083 3.13134909 16.36460114 7.14431524
		 1.79839587 16.36460114 7.14431524 0.85585594 17.23539543 6.78362083 0.8558557 18.4668808 6.27352095
		 1.79839587 19.33767509 5.91282654 3.13134909 19.33767509 5.91282654 4.18709135 17.85741425 4.67960787
		 4.18709135 16.53928566 5.22559452 3.17823887 15.60722828 5.61166573 1.75150609 15.60722828 5.61166573
		 0.74265361 16.53928566 5.22559452 0.74265361 17.85741425 4.67960787 1.75150609 18.78947449 4.29353666
		 3.17823887 18.78947449 4.29353666 3.52336264 18.97983742 8.1077919 3.52336264 18.16970444 8.44335938
		 2.90331364 17.59685516 8.68064213 2.026431561 17.59685516 8.68064213 1.40638256 18.16970444 8.44335938
		 1.40638256 18.97983742 8.1077919 2.026431561 19.55268669 7.87050962 2.90331316 19.55268669 7.87050962
		 3.91889501 18.73994446 7.10051632 3.91889596 17.62708473 7.56147861 3.067148447 16.84017181 7.88742828
		 1.86259639 16.84017181 7.88742828 1.010850072 17.62708473 7.56147861 1.010849714 18.73994446 7.10051632
		 1.86259639 19.52685738 6.7745676 3.067148447 19.52685738 6.7745676 4.15770912 18.30062294 5.78140974
		 4.15770912 17.0049819946 6.31808186 3.16606736 16.088827133 6.69756603 1.76367712 16.088827133 6.69756603
		 0.77203691 17.0049819946 6.31808186 0.77203667 18.30062294 5.78140974 1.76367712 19.2167778 5.40192604
		 3.16606736 19.2167778 5.40192604 3.4072752 19.27474594 7.50284863 3.43900323 19.28983879 7.45637703
		 2.97321701 19.53808784 7.39426422 2.9903779 19.56216049 7.34411383 2.46487284 19.63539124 7.35346603
		 2.46487284 19.66262436 7.30196381 1.95652795 19.53808784 7.39426422 1.93936706 19.56216049 7.34411383
		 1.52246952 19.27474594 7.50284863 1.49074221 19.28983879 7.45637703 1.23762023 18.87390327 7.66937828
		 1.19619048 18.87555313 7.62851572 1.13211346 18.40408134 7.86349106 1.087244034 18.38986015 7.82915974
		 1.23762023 17.93460655 8.058448792 1.19619048 17.90454483 8.030719757 1.52246952 17.53341293 8.22413349
		 1.49074221 17.48987961 8.20194435 1.95652795 17.27042007 8.33355999 1.93936706 17.21793938 8.31511974
		 2.46487284 17.17277145 8.37351608 2.46487284 17.11709595 8.35635567 2.97321701 17.27042007 8.33355999
		 2.9903779 17.21793938 8.31511974 3.4072752 17.53341293 8.22413349 3.43900323 17.48987961 8.20194435
		 3.69212484 17.93460655 8.058448792 3.73355484 17.90454483 8.030719757 3.79763174 18.40408134 7.86349106
		 3.8425014 18.38986015 7.82915974 3.69212484 18.87390327 7.66937828 3.73355484 18.87555313 7.62851572
		 3.33463955 19.2842598 7.71561909 3.34720874 19.31118965 7.74779034 3.59754848 18.91453743 7.86984634
		 3.61402273 18.93618774 7.90428257 3.69490957 18.48069954 8.048464775 3.71268511 18.49601746 8.085446358
		 3.59754848 18.047626495 8.22893333 3.61402273 18.056665421 8.26859188 3.33463955 17.67713928 8.38131046
		 3.34720874 17.68084335 8.42310238 2.93404245 17.43462563 8.48284531 2.94086599 17.43475151 8.52619743
		 2.46487284 17.34429169 8.51917934 2.46487284 17.34318924 8.56296349 1.99570298 17.43462563 8.48284531
		 1.98887897 17.43475151 8.52619743 1.59510517 17.67713928 8.38131046 1.5825361 17.68084335 8.42310238
		 1.33219659 18.047626495 8.22893333 1.31572223 18.056665421 8.26859188 1.23483586 18.48069954 8.048464775
		 1.21706045 18.49601746 8.085446358 1.33219659 18.91453743 7.86984634 1.31572223 18.93618774 7.90428257
		 1.59510517 19.2842598 7.71561909 1.5825361 19.31118965 7.74779034 1.99570298 19.52754021 7.61593342
		 1.98887897 19.55810547 7.64667606 2.46487284 19.61710548 7.57774973;
	setAttr ".vt[166:328]" 2.46487284 19.64884567 7.60792923 2.93404245 19.52754021 7.61593342
		 2.94086599 19.55810547 7.64667606 3.35999417 19.2351284 7.53075027 3.32302451 19.21375847 7.57576656
		 2.92750216 19.45295715 7.47713757 2.94748402 19.4847393 7.42780685 2.90756464 19.46066475 7.62152815
		 2.90232992 19.43454742 7.59150028 3.27638054 19.20829391 7.6844635 3.28600883 19.23159599 7.71555996
		 2.46487284 19.57767487 7.38886261 2.46487284 19.54216003 7.43973827 2.0022428036 19.45295715 7.47713757
		 1.98226094 19.4847393 7.42780685 2.022180796 19.46066475 7.62152815 2.027415991 19.43454742 7.59150028
		 2.46487284 19.5188427 7.55582905 2.46487284 19.54583168 7.58539963 1.56975126 19.2351284 7.53075027
		 1.60672021 19.21375847 7.57576656 1.34798586 18.84850311 7.72751141 1.29974508 18.85417557 7.68899441
		 1.39611995 18.88226128 7.86111069 1.40875804 18.8629837 7.82825089 1.65336502 19.20829391 7.6844635
		 1.64373636 19.23159599 7.71555996 1.19897974 18.408144 7.87329817 1.25126147 18.42092896 7.90416718
		 1.34798586 17.99367523 8.08159256 1.29974508 17.96242523 8.058369637 1.39611995 18.064271927 8.19993305
		 1.40875804 18.054668427 8.16306591 1.31722736 18.45855904 7.99501371 1.30361056 18.47296715 8.029794693
		 1.56975126 17.58115768 8.21584702 1.60671985 17.62809753 8.23256779 2.0022428036 17.38921928 8.33196259
		 1.98226094 17.3318615 8.31955433 2.022180319 17.48586655 8.43951607 2.027415514 17.48310471 8.39981556
		 1.65336502 17.70882416 8.30556488 1.64373636 17.71433449 8.34403038 2.46487284 17.23861122 8.35773468
		 2.46487284 17.29969788 8.36859608 2.92750263 17.38921738 8.33196259 2.94748449 17.3318615 8.31955433
		 2.90756464 17.48586655 8.43951607 2.90232944 17.48310471 8.39981556 2.46487284 17.39827347 8.43419838
		 2.46487284 17.4000988 8.47419071 3.35999417 17.58115768 8.21584702 3.32302451 17.62809753 8.23256779
		 3.5817585 17.99367523 8.08159256 3.63000035 17.96242523 8.058369637 3.5336256 18.064271927 8.19993305
		 3.5209868 18.054668427 8.16306591 3.27638054 17.70882416 8.30556488 3.28600883 17.71433449 8.34403038
		 3.7307663 18.408144 7.87329817 3.67848372 18.42092896 7.90416718 3.5817585 18.84850311 7.72751141
		 3.63000035 18.85417557 7.68899441 3.5336256 18.88226128 7.86111069 3.5209868 18.8629837 7.82825089
		 3.6125176 18.45855904 7.99501371 3.62613487 18.47296715 8.029794693 4.20220184 18.82411957 6.99708271
		 3.79735351 19.39033127 6.76256943 3.36063123 19.09718895 7.19607592 3.63282442 18.71671486 7.35407686
		 4.34928465 18.15927887 7.27248764 3.73166561 18.26961708 7.538867 4.20220327 17.49442673 7.54786015
		 3.63282442 17.8228035 7.72434616 3.79735303 16.92822838 7.78240585 3.36063123 17.4420433 7.88165951
		 3.18449831 16.55418777 7.93731928 2.9486537 17.19071198 7.98616552 2.46487284 16.41830826 7.99362087
		 2.46487284 17.099252701 8.023648262 1.74524689 16.55418777 7.93731928 1.98109126 17.19071198 7.98616552
		 1.13239157 16.92822838 7.78240585 1.56911469 17.4420433 7.88165951 0.72754323 17.49442482 7.54786015
		 1.29692125 17.8228035 7.72434664 0.58046037 18.15927887 7.27248764 1.19807971 18.26961708 7.538867
		 0.72754312 18.82411957 6.99708271 1.29692149 18.71671486 7.35407686 1.13239121 19.39033127 6.76256943
		 1.56911469 19.09718895 7.19607592 1.74524653 19.76435471 6.60762453 1.98109102 19.34880638 7.092255592
		 2.46487284 19.90024948 6.55135441 2.46487284 19.43997955 7.054086685 3.18449831 19.76435471 6.60762453
		 2.94865417 19.34880638 7.092255592 4.14704418 18.88313866 7.19926786 4.10642338 18.89064026 7.26134586
		 3.72394323 19.4256916 7.039770126 3.75507879 19.43144608 6.97229767 3.49127197 19.27661896 7.28787899
		 3.53630877 19.31955147 7.27383995 3.86194611 18.8644886 7.46283531 3.80318761 18.84069633 7.46899319
		 4.28949976 18.23945045 7.46603823 4.24546576 18.26246262 7.521595 3.98011208 18.32967567 7.6838603
		 3.91642046 18.32835197 7.68066454 4.14704561 17.59566116 7.7325592 4.10642433 17.63425064 7.78175879
		 3.86194611 17.79521561 7.90574265 3.80318761 17.81639481 7.8932724 3.75507879 17.047454834 7.95977783
		 3.72394323 17.099233627 8.0034179688 3.53630877 17.33979607 8.093881607 3.49127197 17.38008118 8.073451042
		 3.16165113 16.68527412 8.10965347 3.1448257 16.7458477 8.14974785 3.043559074 17.039125443 8.21892357
		 3.019220352 17.092103958 8.19328403 2.46487284 16.55371475 8.16429329 2.46487284 16.61740875 8.20299911
		 2.46487284 16.92977524 8.26371765 2.46487284 16.98729515 8.23614788 1.76809371 16.68527412 8.10965347
		 1.78491974 16.7458477 8.14974785 1.88618577 17.039125443 8.21892357 1.91052461 17.092103958 8.19328403
		 1.17466581 17.047454834 7.95977736 1.20580232 17.099233627 8.0034179688 1.39343679 17.33979607 8.093881607
		 1.43847358 17.38008118 8.073451042 0.78270054 17.59565735 7.73255634 0.82332146 17.63425064 7.7817564
		 1.067799568 17.79521561 7.90574265 1.12655771 17.81639481 7.8932724 0.64024526 18.23945045 7.46603823
		 0.68427873 18.26246262 7.521595 0.94963396 18.32967567 7.6838603 1.013325572 18.32835197 7.68066454
		 0.78270054 18.88313866 7.19926786 0.82332146 18.89064026 7.26134586 1.067799687 18.8644886 7.46283531
		 1.12655807 18.84069633 7.46899319 1.17466581 19.43144417 6.97229767 1.20580196 19.4256916 7.039770126
		 1.39343703 19.31955147 7.27383995 1.43847358 19.27661896 7.28787899 1.76809347 19.79352188 6.82217407
		 1.78491926 19.77904129 6.89335823 1.88618541 19.62058067 7.14965153 1.91052401 19.56498718 7.16898155
		 2.46487284 19.92518616 6.76778269 2.46487284 19.90751648 6.84018946 2.46487284 19.7295723 7.10400391
		 2.46487284 19.66940689 7.1251812 3.16165113 19.79352188 6.82217407 3.1448257 19.77904129 6.89335823
		 3.043559551 19.62058067 7.14965153 3.019221306 19.56498718 7.16898155;
	setAttr -s 664 ".ed";
	setAttr ".ed[0:165]"  0 80 0 1 79 0 2 78 0 3 77 0 4 76 0 5 75 0 6 74 0 7 73 0
		 8 72 1 9 71 1 10 70 1 11 69 1 12 68 1 13 67 1 14 66 1 15 65 1 16 64 1 17 63 1 18 62 1
		 19 61 1 20 60 1 21 59 1 22 58 1 23 57 1 0 56 1 1 55 1 2 54 1 3 53 1 4 52 1 5 51 1
		 6 50 1 7 49 1 8 48 1 9 47 1 10 46 1 11 45 1 12 44 1 13 43 1 14 42 1 15 41 1 16 32 1
		 17 31 1 18 30 1 19 29 1 20 28 1 21 27 1 22 26 1 23 25 1 25 24 1 26 24 1 27 24 1 28 24 1
		 29 24 1 30 24 1 31 24 1 32 24 1 33 23 1 34 22 1 35 21 1 36 20 1 37 19 1 38 18 1 39 17 1
		 40 16 1 49 15 1 50 14 1 51 13 1 52 12 1 53 11 1 54 10 1 55 9 1 56 8 1 57 16 1 58 23 1
		 59 22 1 60 21 1 61 20 1 62 19 1 63 18 1 64 17 1 65 8 1 66 15 1 67 14 1 68 13 1 69 12 1
		 70 11 1 71 10 1 72 9 1 73 0 0 74 7 0 75 6 0 76 5 0 77 4 0 78 3 0 79 2 0 80 1 0 57 25 1
		 57 32 1 25 32 1 58 26 1 58 25 1 26 25 1 59 27 1 59 26 1 27 26 1 60 28 1 60 27 1 28 27 1
		 61 29 1 61 28 1 29 28 1 62 30 1 62 29 1 30 29 1 63 31 1 63 30 1 31 30 1 64 32 1 64 31 1
		 32 31 1 81 57 1 81 40 1 81 33 1 82 58 1 82 33 1 82 34 1 83 59 1 83 34 1 83 35 1 84 60 1
		 84 35 1 84 36 1 85 61 1 85 36 1 85 37 1 86 62 1 86 37 1 86 38 1 87 63 1 87 38 1 87 39 1
		 88 64 1 88 39 1 88 40 1 65 89 1 89 48 1 89 41 1 66 90 1 90 41 1 90 42 1 67 91 1 91 42 1
		 91 43 1 68 92 1 92 43 1 92 44 1 69 93 1 93 44 1 93 45 1 70 94 1 94 45 1 94 46 1 71 95 1
		 95 46 1 95 47 1 72 96 1;
	setAttr ".ed[166:331]" 96 47 1 96 48 1 73 97 1 97 65 1 97 56 1 97 49 1 74 98 1
		 98 66 1 98 49 1 98 50 1 75 99 1 99 67 1 99 50 1 99 51 1 76 100 1 100 68 1 100 51 1
		 100 52 1 77 101 1 101 69 1 101 52 1 101 53 1 78 102 1 102 70 1 102 53 1 102 54 1
		 79 103 1 103 71 1 103 54 1 103 55 1 80 104 1 104 72 1 104 55 1 104 56 1 48 106 1
		 105 169 1 107 172 1 108 96 1 109 177 1 110 47 1 111 180 1 112 95 1 113 185 1 114 46 1
		 115 188 1 116 94 1 117 193 1 118 45 1 119 196 1 120 93 1 121 201 1 122 44 1 123 204 1
		 124 92 1 125 209 1 126 43 1 127 212 1 128 91 1 129 217 1 130 42 1 131 220 1 132 90 1
		 133 225 1 134 41 1 135 228 1 136 89 1 137 176 1 138 40 1 139 229 1 140 81 1 141 232 1
		 142 33 1 143 221 1 144 82 1 145 224 1 146 34 1 147 213 1 148 83 1 149 216 1 150 35 1
		 151 205 1 152 84 1 153 208 1 154 36 1 155 197 1 156 85 1 157 200 1 158 37 1 159 189 1
		 160 86 1 161 192 1 162 38 1 163 181 1 164 87 1 165 184 1 166 39 1 167 173 1 168 88 1
		 170 175 1 171 174 1 178 183 1 179 182 1 186 191 1 187 190 1 194 199 1 195 198 1 202 207 1
		 203 206 1 210 215 1 211 214 1 218 223 1 219 222 1 226 231 1 227 230 1 106 136 0 105 107 0
		 108 106 0 107 109 0 110 108 0 109 111 0 112 110 0 111 113 0 114 112 0 113 115 0 116 114 0
		 115 117 0 118 116 0 117 119 0 120 118 0 119 121 0 122 120 0 121 123 0 124 122 0 123 125 0
		 126 124 0 125 127 0 128 126 0 127 129 0 130 128 0 129 131 0 132 130 0 131 133 0 134 132 0
		 133 135 0 136 134 0 135 105 0 138 168 0 137 139 0 140 138 0 139 141 0 142 140 0 141 143 0
		 144 142 0 143 145 0 146 144 0 145 147 0 148 146 0 147 149 0 150 148 0 149 151 0 152 150 0
		 151 153 0 154 152 0 153 155 0 156 154 0 155 157 0;
	setAttr ".ed[332:497]" 158 156 0 157 159 0 160 158 0 159 161 0 162 160 0 161 163 0
		 164 162 0 163 165 0 166 164 0 165 167 0 168 166 0 167 137 0 169 228 1 170 171 1 171 178 1
		 172 169 1 173 184 0 174 175 0 175 230 0 176 173 0 177 172 1 178 179 1 179 186 1 180 177 1
		 181 192 0 182 183 0 183 174 0 184 181 0 185 180 1 186 187 1 187 194 1 188 185 1 189 200 0
		 190 191 0 191 182 0 192 189 0 193 188 1 194 195 1 195 202 1 196 193 1 197 208 0 198 199 0
		 199 190 0 200 197 0 201 196 1 202 203 1 203 210 1 204 201 1 205 216 0 206 207 0 207 198 0
		 208 205 0 209 204 1 210 211 1 211 218 1 212 209 1 213 224 0 214 215 0 215 206 0 216 213 0
		 217 212 1 218 219 1 219 226 1 220 217 1 221 232 0 222 223 0 223 214 0 224 221 0 225 220 1
		 226 227 1 227 170 1 228 225 1 229 176 0 230 231 0 231 222 0 232 229 0 106 105 1 135 136 1
		 108 107 1 110 109 1 112 111 1 114 113 1 116 115 1 118 117 1 120 119 1 122 121 1 124 123 1
		 126 125 1 128 127 1 130 129 1 132 131 1 134 133 1 138 137 1 167 168 1 140 139 1 142 141 1
		 144 143 1 146 145 1 148 147 1 150 149 1 152 151 1 154 153 1 156 155 1 158 157 1 160 159 1
		 162 161 1 164 163 1 166 165 1 169 170 1 227 228 1 172 171 1 177 178 1 173 174 1 183 184 1
		 176 175 1 229 230 1 180 179 1 185 186 1 181 182 1 191 192 1 188 187 1 193 194 1 189 190 1
		 199 200 1 196 195 1 201 202 1 197 198 1 207 208 1 204 203 1 209 210 1 205 206 1 215 216 1
		 212 211 1 217 218 1 213 214 1 223 224 1 220 219 1 225 226 1 221 222 1 231 232 1 233 234 0
		 234 235 1 235 236 0 236 233 1 233 237 0 236 238 0 238 237 1 239 237 0 238 240 0 240 239 1
		 239 241 0 240 242 0 242 241 1 243 241 0 242 244 0 244 243 1 243 245 0 244 246 0 246 245 1
		 247 245 0 246 248 0 248 247 1 247 249 0 248 250 0 250 249 1 251 249 0;
	setAttr ".ed[498:663]" 250 252 0 252 251 1 251 253 0 252 254 0 254 253 1 255 253 0
		 254 256 0 256 255 1 255 257 0 256 258 0 258 257 1 259 257 0 258 260 0 260 259 1 259 261 0
		 260 262 0 262 261 1 263 261 0 262 264 0 264 263 1 263 234 0 264 235 0 233 265 1 234 268 1
		 235 269 1 236 272 1 237 273 1 238 276 1 239 277 1 240 280 1 241 281 1 242 284 1 243 285 1
		 244 288 1 245 289 1 246 292 1 247 293 1 248 296 1 249 297 1 250 300 1 251 301 1 252 304 1
		 253 305 1 254 308 1 255 309 1 256 312 1 257 313 1 258 316 1 259 317 1 260 320 1 261 321 1
		 262 324 1 263 325 1 264 328 1 267 270 1 271 266 1 275 274 1 279 278 1 283 282 1 287 286 1
		 291 290 1 295 294 1 299 298 1 303 302 1 307 306 1 311 310 1 315 314 1 319 318 1 323 322 1
		 327 326 1 265 273 1 266 267 1 267 326 1 268 265 1 269 328 0 270 271 0 271 275 0 272 269 0
		 273 277 1 274 266 1 275 279 0 276 272 0 277 281 1 278 274 1 279 283 0 280 276 0 281 285 1
		 282 278 1 283 287 0 284 280 0 285 289 1 286 282 1 287 291 0 288 284 0 289 293 1 290 286 1
		 291 295 0 292 288 0 293 297 1 294 290 1 295 299 0 296 292 0 297 301 1 298 294 1 299 303 0
		 300 296 0 301 305 1 302 298 1 303 307 0 304 300 0 305 309 1 306 302 1 307 311 0 308 304 0
		 309 313 1 310 306 1 311 315 0 312 308 0 313 317 1 314 310 1 315 319 0 316 312 0 317 321 1
		 318 314 1 319 323 0 320 316 0 321 325 1 322 318 1 323 327 0 324 320 0 325 268 1 326 322 1
		 327 270 0 328 324 0 265 266 1 274 273 1 268 267 1 325 326 1 269 270 1 327 328 1 272 271 1
		 276 275 1 278 277 1 280 279 1 282 281 1 284 283 1 286 285 1 288 287 1 290 289 1 292 291 1
		 294 293 1 296 295 1 298 297 1 300 299 1 302 301 1 304 303 1 306 305 1 308 307 1 310 309 1
		 312 311 1 314 313 1 316 315 1 318 317 1 320 319 1 322 321 1 324 323 1;
	setAttr -s 336 -ch 1312 ".fc[0:335]" -type "polyFaces" 
		f 4 0 196 199 -25
		mu 0 4 0 1 2 3
		f 4 1 192 195 -26
		mu 0 4 4 5 6 7
		f 4 2 188 191 -27
		mu 0 4 8 9 10 11
		f 4 3 184 187 -28
		mu 0 4 12 13 14 15
		f 4 4 180 183 -29
		mu 0 4 16 17 18 19
		f 4 5 176 179 -30
		mu 0 4 20 21 22 23
		f 4 6 172 175 -31
		mu 0 4 24 25 26 27
		f 4 7 168 171 -32
		mu 0 4 28 29 30 31
		f 4 8 165 167 -33
		mu 0 4 32 33 34 35
		f 4 9 162 164 -34
		mu 0 4 36 37 38 39
		f 4 10 159 161 -35
		mu 0 4 40 41 42 43
		f 4 11 156 158 -36
		mu 0 4 44 45 46 47
		f 4 12 153 155 -37
		mu 0 4 48 49 50 51
		f 4 13 150 152 -38
		mu 0 4 52 53 54 55
		f 4 14 147 149 -39
		mu 0 4 56 57 58 59
		f 4 15 144 146 -40
		mu 0 4 60 61 62 63
		f 4 345 265 349 -265
		mu 0 4 64 65 66 67
		f 4 353 267 357 -267
		mu 0 4 68 69 70 71
		f 4 361 269 365 -269
		mu 0 4 72 73 74 75
		f 4 369 271 373 -271
		mu 0 4 76 77 78 79
		f 4 377 273 381 -273
		mu 0 4 80 81 82 83
		f 4 385 275 389 -275
		mu 0 4 84 85 86 87
		f 4 393 277 397 -277
		mu 0 4 88 89 90 91
		f 4 401 279 405 -279
		mu 0 4 92 93 94 95
		f 3 16 117 -41
		mu 0 3 96 97 98
		f 3 17 114 -42
		mu 0 3 99 100 101
		f 3 18 111 -43
		mu 0 3 102 103 104
		f 3 19 108 -44
		mu 0 3 105 106 107
		f 3 20 105 -45
		mu 0 3 108 109 110
		f 3 21 102 -46
		mu 0 3 111 112 113
		f 3 22 99 -47
		mu 0 3 114 115 116
		f 3 23 96 -48
		mu 0 3 117 118 119
		f 3 98 55 -49
		mu 0 3 119 120 121
		f 3 -98 72 40
		mu 0 3 120 118 122
		f 3 -97 97 -99
		mu 0 3 119 118 120
		f 3 101 48 -50
		mu 0 3 116 123 124
		f 3 -101 73 47
		mu 0 3 123 115 117
		f 3 -100 100 -102
		mu 0 3 116 115 123
		f 3 104 49 -51
		mu 0 3 113 125 126
		f 3 -104 74 46
		mu 0 3 125 112 114
		f 3 -103 103 -105
		mu 0 3 113 112 125
		f 3 107 50 -52
		mu 0 3 110 127 128
		f 3 -107 75 45
		mu 0 3 127 109 111
		f 3 -106 106 -108
		mu 0 3 110 109 127
		f 3 110 51 -53
		mu 0 3 107 129 130
		f 3 -110 76 44
		mu 0 3 129 106 108
		f 3 -109 109 -111
		mu 0 3 107 106 129
		f 3 113 52 -54
		mu 0 3 104 131 132
		f 3 -113 77 43
		mu 0 3 131 103 105
		f 3 -112 112 -114
		mu 0 3 104 103 131
		f 3 116 53 -55
		mu 0 3 101 133 134
		f 3 -116 78 42
		mu 0 3 133 100 102
		f 3 -115 115 -117
		mu 0 3 101 100 133
		f 3 119 54 -56
		mu 0 3 98 135 136
		f 3 -119 79 41
		mu 0 3 135 97 99
		f 3 -118 118 -120
		mu 0 3 98 97 135
		f 4 -121 121 63 -73
		mu 0 4 118 137 138 122
		f 4 350 -280 402 264
		mu 0 4 139 94 93 140
		f 4 -123 120 -24 -57
		mu 0 4 141 137 118 117
		f 4 -124 124 56 -74
		mu 0 4 115 142 141 117
		f 4 406 -278 394 278
		mu 0 4 95 90 89 92
		f 4 -126 123 -23 -58
		mu 0 4 143 142 115 114
		f 4 -127 127 57 -75
		mu 0 4 112 144 143 114
		f 4 398 -276 386 276
		mu 0 4 91 86 85 88
		f 4 -129 126 -22 -59
		mu 0 4 145 144 112 111
		f 4 -130 130 58 -76
		mu 0 4 109 146 145 111
		f 4 390 -274 378 274
		mu 0 4 87 82 81 84
		f 4 -132 129 -21 -60
		mu 0 4 147 146 109 108
		f 4 -133 133 59 -77
		mu 0 4 106 148 147 108
		f 4 382 -272 370 272
		mu 0 4 83 78 77 80
		f 4 -135 132 -20 -61
		mu 0 4 149 148 106 105
		f 4 -136 136 60 -78
		mu 0 4 103 150 149 105
		f 4 374 -270 362 270
		mu 0 4 79 74 73 76
		f 4 -138 135 -19 -62
		mu 0 4 151 150 103 102
		f 4 -139 139 61 -79
		mu 0 4 100 152 151 102
		f 4 366 -268 354 268
		mu 0 4 75 70 69 72
		f 4 -141 138 -18 -63
		mu 0 4 153 152 100 99
		f 4 -142 142 62 -80
		mu 0 4 97 154 153 99
		f 4 358 -266 346 266
		mu 0 4 71 66 65 68
		f 4 -144 141 -17 -64
		mu 0 4 155 154 97 96
		f 4 145 200 280 231
		mu 0 4 62 156 157 158
		f 4 -146 -145 80 32
		mu 0 4 156 62 61 159
		f 4 -147 -232 310 229
		mu 0 4 63 62 158 160
		f 4 148 -230 308 227
		mu 0 4 58 63 160 161
		f 4 -149 -148 81 39
		mu 0 4 63 58 57 60
		f 4 -150 -228 306 225
		mu 0 4 59 58 161 162
		f 4 151 -226 304 223
		mu 0 4 54 59 162 163
		f 4 -152 -151 82 38
		mu 0 4 59 54 53 56
		f 4 -153 -224 302 221
		mu 0 4 55 54 163 164
		f 4 154 -222 300 219
		mu 0 4 50 55 164 165
		f 4 -155 -154 83 37
		mu 0 4 55 50 49 52
		f 4 -156 -220 298 217
		mu 0 4 51 50 165 166
		f 4 157 -218 296 215
		mu 0 4 46 51 166 167
		f 4 -158 -157 84 36
		mu 0 4 51 46 45 48
		f 4 -159 -216 294 213
		mu 0 4 47 46 167 168
		f 4 160 -214 292 211
		mu 0 4 42 47 168 169
		f 4 -161 -160 85 35
		mu 0 4 47 42 41 44
		f 4 -162 -212 290 209
		mu 0 4 43 42 169 170
		f 4 163 -210 288 207
		mu 0 4 38 43 170 171
		f 4 -164 -163 86 34
		mu 0 4 43 38 37 40
		f 4 -165 -208 286 205
		mu 0 4 39 38 171 172
		f 4 166 -206 284 203
		mu 0 4 34 39 172 173
		f 4 -167 -166 87 33
		mu 0 4 39 34 33 36
		f 4 -168 -204 282 -201
		mu 0 4 35 34 173 174
		f 4 -170 170 71 -81
		mu 0 4 61 30 175 159
		f 4 -171 -169 88 24
		mu 0 4 175 30 29 176
		f 4 -172 169 -16 -65
		mu 0 4 31 30 61 60
		f 4 -174 174 64 -82
		mu 0 4 57 26 31 60
		f 4 -175 -173 89 31
		mu 0 4 31 26 25 28
		f 4 -176 173 -15 -66
		mu 0 4 27 26 57 56
		f 4 -178 178 65 -83
		mu 0 4 53 22 27 56
		f 4 -179 -177 90 30
		mu 0 4 27 22 21 24
		f 4 -180 177 -14 -67
		mu 0 4 23 22 53 52
		f 4 -182 182 66 -84
		mu 0 4 49 18 23 52
		f 4 -183 -181 91 29
		mu 0 4 23 18 17 20
		f 4 -184 181 -13 -68
		mu 0 4 19 18 49 48
		f 4 -186 186 67 -85
		mu 0 4 45 14 19 48
		f 4 -187 -185 92 28
		mu 0 4 19 14 13 16
		f 4 -188 185 -12 -69
		mu 0 4 15 14 45 44
		f 4 -190 190 68 -86
		mu 0 4 41 10 15 44
		f 4 -191 -189 93 27
		mu 0 4 15 10 9 12
		f 4 -192 189 -11 -70
		mu 0 4 11 10 41 40
		f 4 -194 194 69 -87
		mu 0 4 37 6 11 40
		f 4 -195 -193 94 26
		mu 0 4 11 6 5 8
		f 4 -196 193 -10 -71
		mu 0 4 7 6 37 36
		f 4 -198 198 70 -88
		mu 0 4 33 2 7 36
		f 4 -199 -197 95 25
		mu 0 4 7 2 1 4
		f 4 -200 197 -9 -72
		mu 0 4 3 2 33 32
		f 4 -122 -236 314 233
		mu 0 4 138 137 177 178
		f 4 316 235 122 -238
		mu 0 4 179 177 137 141
		f 4 -125 -240 318 237
		mu 0 4 141 142 180 179
		f 4 320 239 125 -242
		mu 0 4 181 180 142 143
		f 4 -128 -244 322 241
		mu 0 4 143 144 182 181
		f 4 324 243 128 -246
		mu 0 4 183 182 144 145
		f 4 -131 -248 326 245
		mu 0 4 145 146 184 183
		f 4 328 247 131 -250
		mu 0 4 185 184 146 147
		f 4 -134 -252 330 249
		mu 0 4 147 148 186 185
		f 4 332 251 134 -254
		mu 0 4 187 186 148 149
		f 4 -137 -256 334 253
		mu 0 4 149 150 188 187
		f 4 336 255 137 -258
		mu 0 4 189 188 150 151
		f 4 -140 -260 338 257
		mu 0 4 151 152 190 189
		f 4 340 259 140 -262
		mu 0 4 191 190 152 153
		f 4 -143 -264 342 261
		mu 0 4 153 154 192 191
		f 4 312 263 143 -234
		mu 0 4 193 192 154 155
		f 4 281 202 347 -202
		mu 0 4 194 195 196 197
		f 4 343 232 351 -263
		mu 0 4 198 199 200 201
		f 4 285 206 355 -205
		mu 0 4 202 203 204 205
		f 4 339 260 359 -259
		mu 0 4 206 207 208 209
		f 4 289 210 363 -209
		mu 0 4 210 211 212 213
		f 4 335 256 367 -255
		mu 0 4 214 215 216 217
		f 4 293 214 371 -213
		mu 0 4 218 219 220 221
		f 4 331 252 375 -251
		mu 0 4 222 223 224 225
		f 4 297 218 379 -217
		mu 0 4 226 227 228 229
		f 4 327 248 383 -247
		mu 0 4 230 231 232 233
		f 4 301 222 387 -221
		mu 0 4 234 235 236 237
		f 4 323 244 391 -243
		mu 0 4 238 239 240 241
		f 4 305 226 395 -225
		mu 0 4 242 243 244 245
		f 4 319 240 399 -239
		mu 0 4 246 247 248 249
		f 4 309 230 403 -229
		mu 0 4 250 251 252 253
		f 4 315 236 407 -235
		mu 0 4 254 255 256 257
		f 4 313 234 404 -233
		mu 0 4 258 254 257 259
		f 4 311 201 344 -231
		mu 0 4 251 260 261 252
		f 4 317 238 396 -237
		mu 0 4 255 246 249 256
		f 4 307 228 400 -227
		mu 0 4 243 250 253 244
		f 4 321 242 388 -241
		mu 0 4 247 238 241 248
		f 4 303 224 392 -223
		mu 0 4 235 242 245 236
		f 4 325 246 380 -245
		mu 0 4 239 230 233 240
		f 4 299 220 384 -219
		mu 0 4 227 234 237 228
		f 4 329 250 372 -249
		mu 0 4 231 222 225 232
		f 4 295 216 376 -215
		mu 0 4 219 226 229 220
		f 4 333 254 364 -253
		mu 0 4 223 214 217 224
		f 4 291 212 368 -211
		mu 0 4 211 218 221 212
		f 4 337 258 356 -257
		mu 0 4 215 206 209 216
		f 4 287 208 360 -207
		mu 0 4 203 210 213 204
		f 4 341 262 348 -261
		mu 0 4 207 198 201 208
		f 4 283 204 352 -203
		mu 0 4 195 202 205 196
		f 4 408 -312 409 -281
		mu 0 4 157 260 251 158
		f 4 -409 -283 410 -282
		mu 0 4 194 174 173 195
		f 4 -411 -285 411 -284
		mu 0 4 195 173 172 202
		f 4 -412 -287 412 -286
		mu 0 4 202 172 171 203
		f 4 -413 -289 413 -288
		mu 0 4 203 171 170 210
		f 4 -414 -291 414 -290
		mu 0 4 210 170 169 211
		f 4 -415 -293 415 -292
		mu 0 4 211 169 168 218
		f 4 -416 -295 416 -294
		mu 0 4 218 168 167 219
		f 4 -417 -297 417 -296
		mu 0 4 219 167 166 226
		f 4 -418 -299 418 -298
		mu 0 4 226 166 165 227
		f 4 -419 -301 419 -300
		mu 0 4 227 165 164 234
		f 4 -420 -303 420 -302
		mu 0 4 234 164 163 235
		f 4 -421 -305 421 -304
		mu 0 4 235 163 162 242
		f 4 -422 -307 422 -306
		mu 0 4 242 162 161 243
		f 4 -423 -309 423 -308
		mu 0 4 243 161 160 250
		f 4 -424 -311 -410 -310
		mu 0 4 250 160 158 251
		f 4 424 -344 425 -313
		mu 0 4 193 199 198 192
		f 4 -425 -315 426 -314
		mu 0 4 258 178 177 254
		f 4 -427 -317 427 -316
		mu 0 4 254 177 179 255
		f 4 -428 -319 428 -318
		mu 0 4 255 179 180 246
		f 4 -429 -321 429 -320
		mu 0 4 246 180 181 247
		f 4 -430 -323 430 -322
		mu 0 4 247 181 182 238
		f 4 -431 -325 431 -324
		mu 0 4 238 182 183 239
		f 4 -432 -327 432 -326
		mu 0 4 239 183 184 230
		f 4 -433 -329 433 -328
		mu 0 4 230 184 185 231
		f 4 -434 -331 434 -330
		mu 0 4 231 185 186 222
		f 4 -435 -333 435 -332
		mu 0 4 222 186 187 223
		f 4 -436 -335 436 -334
		mu 0 4 223 187 188 214
		f 4 -437 -337 437 -336
		mu 0 4 214 188 189 215
		f 4 -438 -339 438 -338
		mu 0 4 215 189 190 206
		f 4 -439 -341 439 -340
		mu 0 4 206 190 191 207
		f 4 -440 -343 -426 -342
		mu 0 4 207 191 192 198
		f 4 440 -403 441 -345
		mu 0 4 261 140 93 252
		f 4 -441 -348 442 -346
		mu 0 4 64 197 196 65
		f 4 -443 -353 443 -347
		mu 0 4 65 196 205 68
		f 4 444 -359 445 -349
		mu 0 4 201 66 71 208
		f 4 -445 -352 446 -350
		mu 0 4 66 201 200 67
		f 4 -447 -405 447 -351
		mu 0 4 139 259 257 94
		f 4 -444 -356 448 -354
		mu 0 4 68 205 204 69
		f 4 -449 -361 449 -355
		mu 0 4 69 204 213 72
		f 4 450 -367 451 -357
		mu 0 4 209 70 75 216
		f 4 -451 -360 -446 -358
		mu 0 4 70 209 208 71
		f 4 -450 -364 452 -362
		mu 0 4 72 213 212 73
		f 4 -453 -369 453 -363
		mu 0 4 73 212 221 76
		f 4 454 -375 455 -365
		mu 0 4 217 74 79 224
		f 4 -455 -368 -452 -366
		mu 0 4 74 217 216 75
		f 4 -454 -372 456 -370
		mu 0 4 76 221 220 77
		f 4 -457 -377 457 -371
		mu 0 4 77 220 229 80
		f 4 458 -383 459 -373
		mu 0 4 225 78 83 232
		f 4 -459 -376 -456 -374
		mu 0 4 78 225 224 79
		f 4 -458 -380 460 -378
		mu 0 4 80 229 228 81
		f 4 -461 -385 461 -379
		mu 0 4 81 228 237 84
		f 4 462 -391 463 -381
		mu 0 4 233 82 87 240
		f 4 -463 -384 -460 -382
		mu 0 4 82 233 232 83
		f 4 -462 -388 464 -386
		mu 0 4 84 237 236 85
		f 4 -465 -393 465 -387
		mu 0 4 85 236 245 88
		f 4 466 -399 467 -389
		mu 0 4 241 86 91 248
		f 4 -467 -392 -464 -390
		mu 0 4 86 241 240 87
		f 4 -466 -396 468 -394
		mu 0 4 88 245 244 89
		f 4 -469 -401 469 -395
		mu 0 4 89 244 253 92
		f 4 470 -407 471 -397
		mu 0 4 249 90 95 256
		f 4 -471 -400 -468 -398
		mu 0 4 90 249 248 91
		f 4 -470 -404 -442 -402
		mu 0 4 92 253 252 93
		f 4 -448 -408 -472 -406
		mu 0 4 94 257 256 95
		f 4 569 552 573 553
		mu 0 4 262 263 264 265
		f 4 577 -554 574 554
		mu 0 4 266 262 265 267
		f 4 581 -555 578 555
		mu 0 4 268 266 267 269
		f 4 585 -556 582 556
		mu 0 4 270 268 269 271
		f 4 589 -557 586 557
		mu 0 4 272 270 271 273
		f 4 593 -558 590 558
		mu 0 4 274 272 273 275
		f 4 597 -559 594 559
		mu 0 4 276 274 275 277
		f 4 601 -560 598 560
		mu 0 4 278 276 277 279
		f 4 605 -561 602 561
		mu 0 4 280 278 279 281
		f 4 609 -562 606 562
		mu 0 4 282 280 281 283
		f 4 613 -563 610 563
		mu 0 4 284 282 283 285
		f 4 617 -564 614 564
		mu 0 4 286 284 285 287
		f 4 621 -565 618 565
		mu 0 4 288 286 287 289
		f 4 625 -566 622 566
		mu 0 4 290 288 289 291
		f 4 629 -567 626 567
		mu 0 4 292 290 291 293
		f 4 570 -568 630 -553
		mu 0 4 294 292 293 295
		f 4 -476 -475 -474 -473
		mu 0 4 296 297 298 299
		f 4 -479 -478 475 476
		mu 0 4 300 301 297 296
		f 4 -482 -481 478 -480
		mu 0 4 302 303 301 300
		f 4 -485 -484 481 482
		mu 0 4 304 305 303 302
		f 4 -488 -487 484 -486
		mu 0 4 306 307 305 304
		f 4 -491 -490 487 488
		mu 0 4 308 309 307 306
		f 4 -494 -493 490 -492
		mu 0 4 310 311 309 308
		f 4 -497 -496 493 494
		mu 0 4 312 313 311 310
		f 4 -500 -499 496 -498
		mu 0 4 314 315 313 312
		f 4 -503 -502 499 500
		mu 0 4 316 317 315 314
		f 4 -506 -505 502 -504
		mu 0 4 318 319 317 316
		f 4 -509 -508 505 506
		mu 0 4 320 321 319 318
		f 4 -512 -511 508 -510
		mu 0 4 322 323 321 320
		f 4 -515 -514 511 512
		mu 0 4 324 325 323 322
		f 4 -518 -517 514 -516
		mu 0 4 326 327 325 324
		f 4 473 -520 517 518
		mu 0 4 328 329 327 326
		f 4 472 521 571 -521
		mu 0 4 296 299 330 331
		f 4 474 523 575 -523
		mu 0 4 298 297 332 333
		f 4 -477 520 568 -525
		mu 0 4 300 296 331 334
		f 4 477 525 579 -524
		mu 0 4 297 301 335 332
		f 4 479 524 576 -527
		mu 0 4 302 300 334 336
		f 4 480 527 583 -526
		mu 0 4 301 303 337 335
		f 4 -483 526 580 -529
		mu 0 4 304 302 336 338
		f 4 483 529 587 -528
		mu 0 4 303 305 339 337
		f 4 485 528 584 -531
		mu 0 4 306 304 338 340
		f 4 486 531 591 -530
		mu 0 4 305 307 341 339
		f 4 -489 530 588 -533
		mu 0 4 308 306 340 342
		f 4 489 533 595 -532
		mu 0 4 307 309 343 341
		f 4 491 532 592 -535
		mu 0 4 310 308 342 344
		f 4 492 535 599 -534
		mu 0 4 309 311 345 343
		f 4 -495 534 596 -537
		mu 0 4 312 310 344 346
		f 4 495 537 603 -536
		mu 0 4 311 313 347 345
		f 4 497 536 600 -539
		mu 0 4 314 312 346 348
		f 4 498 539 607 -538
		mu 0 4 313 315 349 347
		f 4 -501 538 604 -541
		mu 0 4 316 314 348 350
		f 4 501 541 611 -540
		mu 0 4 315 317 351 349
		f 4 503 540 608 -543
		mu 0 4 318 316 350 352
		f 4 504 543 615 -542
		mu 0 4 317 319 353 351
		f 4 -507 542 612 -545
		mu 0 4 320 318 352 354
		f 4 507 545 619 -544
		mu 0 4 319 321 355 353
		f 4 509 544 616 -547
		mu 0 4 322 320 354 356
		f 4 510 547 623 -546
		mu 0 4 321 323 357 355
		f 4 -513 546 620 -549
		mu 0 4 324 322 356 358
		f 4 513 549 627 -548
		mu 0 4 323 325 359 357
		f 4 515 548 624 -551
		mu 0 4 326 324 358 360
		f 4 516 551 631 -550
		mu 0 4 325 327 361 359
		f 4 -519 550 628 -522
		mu 0 4 328 326 360 362
		f 4 519 522 572 -552
		mu 0 4 327 329 363 361
		f 4 632 -578 633 -569
		mu 0 4 331 262 266 364
		f 4 -633 -572 634 -570
		mu 0 4 262 331 330 263
		f 4 -635 -629 635 -571
		mu 0 4 294 362 360 292
		f 4 636 -631 637 -573
		mu 0 4 363 295 293 361
		f 4 -637 -576 638 -574
		mu 0 4 264 333 332 265
		f 4 -639 -580 639 -575
		mu 0 4 265 332 335 267
		f 4 -634 -582 640 -577
		mu 0 4 334 266 268 336
		f 4 -640 -584 641 -579
		mu 0 4 267 335 337 269
		f 4 -641 -586 642 -581
		mu 0 4 336 268 270 365
		f 4 -642 -588 643 -583
		mu 0 4 269 337 339 271
		f 4 -643 -590 644 -585
		mu 0 4 338 270 272 340
		f 4 -644 -592 645 -587
		mu 0 4 271 339 341 273
		f 4 -645 -594 646 -589
		mu 0 4 340 272 274 366
		f 4 -646 -596 647 -591
		mu 0 4 273 341 343 275
		f 4 -647 -598 648 -593
		mu 0 4 342 274 276 344
		f 4 -648 -600 649 -595
		mu 0 4 275 343 345 277
		f 4 -649 -602 650 -597
		mu 0 4 344 276 278 367
		f 4 -650 -604 651 -599
		mu 0 4 277 345 347 279
		f 4 -651 -606 652 -601
		mu 0 4 346 278 280 348
		f 4 -652 -608 653 -603
		mu 0 4 279 347 349 281
		f 4 -653 -610 654 -605
		mu 0 4 348 280 282 368
		f 4 -654 -612 655 -607
		mu 0 4 281 349 351 283
		f 4 -655 -614 656 -609
		mu 0 4 350 282 284 352
		f 4 -656 -616 657 -611
		mu 0 4 283 351 353 285
		f 4 -657 -618 658 -613
		mu 0 4 352 284 286 369
		f 4 -658 -620 659 -615
		mu 0 4 285 353 355 287
		f 4 -659 -622 660 -617
		mu 0 4 354 286 288 356
		f 4 -660 -624 661 -619
		mu 0 4 287 355 357 289
		f 4 -661 -626 662 -621
		mu 0 4 356 288 290 370
		f 4 -662 -628 663 -623
		mu 0 4 289 357 359 291
		f 4 -663 -630 -636 -625
		mu 0 4 358 290 292 360
		f 4 -664 -632 -638 -627
		mu 0 4 291 359 361 293;
	setAttr ".cd" -type "dataPolyComponent" Index_Data Edge 0 ;
	setAttr ".cvd" -type "dataPolyComponent" Index_Data Vertex 0 ;
	setAttr ".hfd" -type "dataPolyComponent" Index_Data Face 0 ;
	setAttr ".dsm" 2;
createNode materialInfo -n "materialInfo1";
createNode shadingEngine -n "blinn1SG";
	setAttr ".ihi" 0;
	setAttr ".ro" yes;
createNode blinn -n "yellow";
	setAttr ".c" -type "float3" 0.50428015 0.46636149 0.33617151 ;
	setAttr ".rfl" 0;
createNode phong -n "Toon_yellow";
	setAttr ".dc" 0;
	setAttr ".sc" -type "float3" 0 0 0 ;
	setAttr ".rfl" 0;
createNode ramp -n "toonredoutline";
	setAttr ".in" 0;
	setAttr -s 2 ".cel";
	setAttr ".cel[2].ep" 0.31999999284744263;
	setAttr ".cel[3].ep" 0;
	setAttr ".cel[3].ec" -type "float3" 0.33333334 0.20413098 0.032679737 ;
createNode place2dTexture -n "place2dTexture20";
createNode samplerInfo -n "samplerInfo1";
	setAttr ".n" -type "float3" 0 0 0.99999994 ;
	setAttr ".r" -type "float3" 0 0 0.99999994 ;
createNode ramp -n "toonred_color";
	setAttr ".in" 3;
	setAttr -s 6 ".cel";
	setAttr ".cel[0].ep" 0.31999999284744263;
	setAttr ".cel[0].ec" -type "float3" 0.32300001 0.19564354 0.017442027 ;
	setAttr ".cel[1].ep" 0.63999998569488525;
	setAttr ".cel[1].ec" -type "float3" 0.64705884 0.5213967 0.19031142 ;
	setAttr ".cel[2].ep" 0.87000000476837158;
	setAttr ".cel[2].ec" -type "float3" 0.82352942 0.70242214 0.33910033 ;
	setAttr ".cel[3].ep" 0.97500002384185791;
	setAttr ".cel[3].ec" -type "float3" 0.90196079 0.84222454 0.49519414 ;
	setAttr ".cel[4].ep" 0.094999998807907104;
	setAttr ".cel[4].ec" -type "float3" 0.090913251 0.059723813 0 ;
	setAttr ".cel[5].ep" 1;
	setAttr ".cel[5].ec" -type "float3" 0.98039216 0.94651526 0.74971169 ;
createNode place2dTexture -n "place2dTexture21";
createNode samplerInfo -n "samplerInfo2";
	setAttr ".n" -type "float3" 0 0 0.99999994 ;
	setAttr ".r" -type "float3" 0 0 0.99999994 ;
createNode mib_amb_occlusion -n "mib_amb_occlusion9";
	setAttr ".S00" 256;
	setAttr ".S02" -type "float3" 0.17647059 0.12755676 0.031141868 ;
	setAttr ".S03" 1;
createNode materialInfo -n "materialInfo8";
createNode shadingEngine -n "toonredSG";
	setAttr ".ihi" 0;
	setAttr ".ro" yes;
createNode phong -n "toonred";
	setAttr ".dc" 0.30000001192092896;
	setAttr ".c" -type "float3" 0.60784316 0.34563631 0.34563631 ;
	setAttr ".sc" -type "float3" 0.17094682 0.17094682 0.17094682 ;
	setAttr ".rfl" 0;
	setAttr ".cp" 32.686870574951172;
createNode phong -n "Tads_toon";
	setAttr ".dc" 0;
	setAttr ".sc" -type "float3" 0 0 0 ;
	setAttr ".rfl" 0;
createNode ramp -n "toonredoutline2";
	setAttr ".in" 0;
	setAttr -s 2 ".cel";
	setAttr ".cel[2].ep" 0.31999999284744263;
	setAttr ".cel[3].ep" 0;
	setAttr ".cel[3].ec" -type "float3" 0.17647059 0 0 ;
createNode place2dTexture -n "place2dTexture24";
createNode samplerInfo -n "samplerInfo5";
	setAttr ".n" -type "float3" 0 0 0.99999994 ;
	setAttr ".r" -type "float3" 0 0 0.99999994 ;
createNode ramp -n "toonred_color2";
	setAttr ".in" 3;
	setAttr -s 7 ".cel";
	setAttr ".cel[0].ep" 0.28499999642372131;
	setAttr ".cel[0].ec" -type "float3" 0.19008164 0.01029984 0.031631954 ;
	setAttr ".cel[1].ep" 0.52999997138977051;
	setAttr ".cel[1].ec" -type "float3" 0.35536736 0.044769969 0.073868923 ;
	setAttr ".cel[2].ep" 0.73000001907348633;
	setAttr ".cel[2].ec" -type "float3" 0.51239794 0.10450904 0.14918746 ;
	setAttr ".cel[3].ep" 0.87000000476837158;
	setAttr ".cel[3].ec" -type "float3" 0.68599999 0.21334599 0.26497537 ;
	setAttr ".cel[4].ep" 0.094999998807907104;
	setAttr ".cel[4].ec" -type "float3" 0.099168383 0 0.034851607 ;
	setAttr ".cel[5].ep" 0.94499999284744263;
	setAttr ".cel[5].ec" -type "float3" 0.96078432 0.64052284 0.67550576 ;
	setAttr ".cel[6].ep" 0.98000001907348633;
	setAttr ".cel[6].ec" -type "float3" 1 1 1 ;
createNode place2dTexture -n "place2dTexture25";
createNode samplerInfo -n "samplerInfo6";
	setAttr ".n" -type "float3" 0 0 0.99999994 ;
	setAttr ".r" -type "float3" 0 0 0.99999994 ;
createNode mib_amb_occlusion -n "mib_amb_occlusion11";
	setAttr ".S00" 256;
	setAttr ".S02" -type "float3" 0.19607843 0.0153787 0.0153787 ;
	setAttr ".S03" 3;
createNode materialInfo -n "materialInfo5";
createNode shadingEngine -n "blinn5SG";
	setAttr ".ihi" 0;
	setAttr ".ro" yes;
createNode blinn -n "exhaust";
	setAttr ".c" -type "float3" 0 0 0 ;
createNode animCurveTU -n "exhaust_incandescenceR";
	setAttr ".tan" 18;
	setAttr ".wgt" no;
	setAttr -s 3 ".ktv[0:2]"  1 0 4 0.30769819021224976 6 0.23932249844074249;
createNode animCurveTU -n "exhaust_incandescenceG";
	setAttr ".tan" 18;
	setAttr ".wgt" no;
	setAttr -s 3 ".ktv[0:2]"  1 0 4 0.11355764418840408 6 0;
createNode animCurveTU -n "exhaust_incandescenceB";
	setAttr ".tan" 18;
	setAttr ".wgt" no;
	setAttr -s 3 ".ktv[0:2]"  1 0 4 0 6 0.0082093542441725731;
createNode animCurveTU -n "exhaust_glowIntensity";
	setAttr ".tan" 18;
	setAttr ".wgt" no;
	setAttr -s 2 ".ktv[0:1]"  1 0 6 1;
createNode lightLinker -s -n "lightLinker1";
	setAttr -s 9 ".lnk";
	setAttr -s 9 ".slnk";
createNode displayLayerManager -n "layerManager";
createNode displayLayer -n "defaultLayer";
createNode renderLayerManager -n "renderLayerManager";
createNode renderLayer -n "defaultRenderLayer";
	setAttr ".g" yes;
createNode mentalrayItemsList -s -n "mentalrayItemsList";
	setAttr -s 19 ".opt";
createNode mentalrayGlobals -s -n "mentalrayGlobals";
createNode mentalrayOptions -s -n "miDefaultOptions";
	addAttr -ci true -m -sn "stringOptions" -ln "stringOptions" -at "compound" -nc 
		3;
	addAttr -ci true -sn "name" -ln "name" -dt "string" -p "stringOptions";
	addAttr -ci true -sn "value" -ln "value" -dt "string" -p "stringOptions";
	addAttr -ci true -sn "type" -ln "type" -dt "string" -p "stringOptions";
	setAttr ".maxr" 2;
	setAttr -s 28 ".stringOptions";
	setAttr ".stringOptions[0].name" -type "string" "rast motion factor";
	setAttr ".stringOptions[0].value" -type "string" "1.0";
	setAttr ".stringOptions[0].type" -type "string" "scalar";
	setAttr ".stringOptions[1].name" -type "string" "rast transparency depth";
	setAttr ".stringOptions[1].value" -type "string" "8";
	setAttr ".stringOptions[1].type" -type "string" "integer";
	setAttr ".stringOptions[2].name" -type "string" "rast useopacity";
	setAttr ".stringOptions[2].value" -type "string" "true";
	setAttr ".stringOptions[2].type" -type "string" "boolean";
	setAttr ".stringOptions[3].name" -type "string" "importon";
	setAttr ".stringOptions[3].value" -type "string" "false";
	setAttr ".stringOptions[3].type" -type "string" "boolean";
	setAttr ".stringOptions[4].name" -type "string" "importon density";
	setAttr ".stringOptions[4].value" -type "string" "1.0";
	setAttr ".stringOptions[4].type" -type "string" "scalar";
	setAttr ".stringOptions[5].name" -type "string" "importon merge";
	setAttr ".stringOptions[5].value" -type "string" "0.0";
	setAttr ".stringOptions[5].type" -type "string" "scalar";
	setAttr ".stringOptions[6].name" -type "string" "importon trace depth";
	setAttr ".stringOptions[6].value" -type "string" "0";
	setAttr ".stringOptions[6].type" -type "string" "integer";
	setAttr ".stringOptions[7].name" -type "string" "importon traverse";
	setAttr ".stringOptions[7].value" -type "string" "true";
	setAttr ".stringOptions[7].type" -type "string" "boolean";
	setAttr ".stringOptions[8].name" -type "string" "shadowmap pixel samples";
	setAttr ".stringOptions[8].value" -type "string" "3";
	setAttr ".stringOptions[8].type" -type "string" "integer";
	setAttr ".stringOptions[9].name" -type "string" "ambient occlusion";
	setAttr ".stringOptions[9].value" -type "string" "false";
	setAttr ".stringOptions[9].type" -type "string" "boolean";
	setAttr ".stringOptions[10].name" -type "string" "ambient occlusion rays";
	setAttr ".stringOptions[10].value" -type "string" "256";
	setAttr ".stringOptions[10].type" -type "string" "integer";
	setAttr ".stringOptions[11].name" -type "string" "ambient occlusion cache";
	setAttr ".stringOptions[11].value" -type "string" "false";
	setAttr ".stringOptions[11].type" -type "string" "boolean";
	setAttr ".stringOptions[12].name" -type "string" "ambient occlusion cache density";
	setAttr ".stringOptions[12].value" -type "string" "1.0";
	setAttr ".stringOptions[12].type" -type "string" "scalar";
	setAttr ".stringOptions[13].name" -type "string" "ambient occlusion cache points";
	setAttr ".stringOptions[13].value" -type "string" "64";
	setAttr ".stringOptions[13].type" -type "string" "integer";
	setAttr ".stringOptions[14].name" -type "string" "irradiance particles";
	setAttr ".stringOptions[14].value" -type "string" "false";
	setAttr ".stringOptions[14].type" -type "string" "boolean";
	setAttr ".stringOptions[15].name" -type "string" "irradiance particles rays";
	setAttr ".stringOptions[15].value" -type "string" "256";
	setAttr ".stringOptions[15].type" -type "string" "integer";
	setAttr ".stringOptions[16].name" -type "string" "irradiance particles interpolate";
	setAttr ".stringOptions[16].value" -type "string" "1";
	setAttr ".stringOptions[16].type" -type "string" "integer";
	setAttr ".stringOptions[17].name" -type "string" "irradiance particles interppoints";
	setAttr ".stringOptions[17].value" -type "string" "64";
	setAttr ".stringOptions[17].type" -type "string" "integer";
	setAttr ".stringOptions[18].name" -type "string" "irradiance particles indirect passes";
	setAttr ".stringOptions[18].value" -type "string" "0";
	setAttr ".stringOptions[18].type" -type "string" "integer";
	setAttr ".stringOptions[19].name" -type "string" "irradiance particles scale";
	setAttr ".stringOptions[19].value" -type "string" "1.0";
	setAttr ".stringOptions[19].type" -type "string" "scalar";
	setAttr ".stringOptions[20].name" -type "string" "irradiance particles env";
	setAttr ".stringOptions[20].value" -type "string" "true";
	setAttr ".stringOptions[20].type" -type "string" "boolean";
	setAttr ".stringOptions[21].name" -type "string" "irradiance particles env rays";
	setAttr ".stringOptions[21].value" -type "string" "256";
	setAttr ".stringOptions[21].type" -type "string" "integer";
	setAttr ".stringOptions[22].name" -type "string" "irradiance particles env scale";
	setAttr ".stringOptions[22].value" -type "string" "1";
	setAttr ".stringOptions[22].type" -type "string" "integer";
	setAttr ".stringOptions[23].name" -type "string" "irradiance particles rebuild";
	setAttr ".stringOptions[23].value" -type "string" "true";
	setAttr ".stringOptions[23].type" -type "string" "boolean";
	setAttr ".stringOptions[24].name" -type "string" "irradiance particles file";
	setAttr ".stringOptions[24].value" -type "string" "";
	setAttr ".stringOptions[24].type" -type "string" "string";
	setAttr ".stringOptions[25].name" -type "string" "geom displace motion factor";
	setAttr ".stringOptions[25].value" -type "string" "1.0";
	setAttr ".stringOptions[25].type" -type "string" "scalar";
	setAttr ".stringOptions[26].name" -type "string" "contrast all buffers";
	setAttr ".stringOptions[26].value" -type "string" "true";
	setAttr ".stringOptions[26].type" -type "string" "boolean";
	setAttr ".stringOptions[27].name" -type "string" "finalgather normal tolerance";
	setAttr ".stringOptions[27].value" -type "string" "25.842";
	setAttr ".stringOptions[27].type" -type "string" "scalar";
createNode mentalrayFramebuffer -s -n "miDefaultFramebuffer";
createNode script -n "sceneConfigurationScriptNode";
	setAttr ".b" -type "string" "playbackOptions -min 1 -max 24 -ast 1 -aet 48 ";
	setAttr ".st" 6;
createNode polySplit -n "loopSplit";
	addAttr -ci true -sn "Slide" -ln "Slide" -dv 0.5 -min 0.0001 -max 0.9999 -at "float";
	setAttr -s 17 ".e";
	setAttr -s 17 ".e";
	setAttr -s 17 ".d[0:16]"  -2147483452 -2147483624 -2147483480 -2147483617 -2147483476 -2147483618 
		-2147483472 -2147483619 -2147483468 -2147483620 -2147483464 -2147483621 -2147483460 -2147483622 -2147483456 -2147483623 -2147483452;
	setAttr -k on ".Slide" 9.9999997473787516e-05;
createNode expression -n "polySplit1Slide";
	setAttr -k on ".nds";
	setAttr -s 17 ".out";
	setAttr ".ixp" -type "string" "float $Slide = .I[0];\n.O[0] = abs($Slide -0);\n.O[1] = abs($Slide -0);\n.O[2] = abs($Slide -0);\n.O[3] = abs($Slide -0);\n.O[4] = abs($Slide -0);\n.O[5] = abs($Slide -0);\n.O[6] = abs($Slide -0);\n.O[7] = abs($Slide -0);\n.O[8] = abs($Slide -0);\n.O[9] = abs($Slide -0);\n.O[10] = abs($Slide -0);\n.O[11] = abs($Slide -0);\n.O[12] = abs($Slide -0);\n.O[13] = abs($Slide -0);\n.O[14] = abs($Slide -0);\n.O[15] = abs($Slide -0);\n.O[16] = abs($Slide -0);";
createNode lambert -n "lambert2";
createNode shadingEngine -n "lambert2SG";
	setAttr ".ihi" 0;
	setAttr ".ro" yes;
createNode materialInfo -n "materialInfo9";
createNode file -n "file1";
	setAttr ".ftn" -type "string" "/Users/jmiller/Art/everlife//sampledDiffuseColor.tga";
createNode mentalrayOptions -s -n "PreviewImrRayTracyOff";
	setAttr ".splck" no;
	setAttr ".minsp" 0;
	setAttr ".fil" 1;
	setAttr ".scan" 1;
	setAttr ".ray" no;
createNode mentalrayOptions -s -n "PreviewImrRayTracyOn";
	setAttr ".splck" no;
	setAttr ".minsp" 0;
	setAttr ".fil" 1;
	setAttr ".scan" 1;
	setAttr ".rfrr" 2;
	setAttr ".maxr" 3;
	setAttr ".shrd" 1;
createNode mentalrayOptions -s -n "miContourPreset";
createNode mentalrayOptions -s -n "Draft";
	setAttr ".maxr" 2;
createNode mentalrayOptions -s -n "DraftMotionBlur";
	setAttr ".maxr" 2;
	setAttr ".mb" 1;
	setAttr ".tconr" 1;
	setAttr ".tcong" 1;
	setAttr ".tconb" 1;
	setAttr ".tcona" 1;
createNode mentalrayOptions -s -n "DraftRapidMotion";
	setAttr ".scan" 3;
	setAttr ".rapc" 1;
	setAttr ".raps" 0.25;
	setAttr ".maxr" 2;
	setAttr ".mb" 1;
	setAttr ".tconr" 1;
	setAttr ".tcong" 1;
	setAttr ".tconb" 1;
	setAttr ".tcona" 1;
createNode mentalrayOptions -s -n "Preview";
	setAttr ".minsp" -1;
	setAttr ".maxsp" 1;
	setAttr ".fil" 1;
	setAttr ".rflr" 2;
	setAttr ".rfrr" 2;
	setAttr ".maxr" 4;
createNode mentalrayOptions -s -n "PreviewMotionblur";
	setAttr ".minsp" -1;
	setAttr ".maxsp" 1;
	setAttr ".fil" 1;
	setAttr ".rflr" 2;
	setAttr ".rfrr" 2;
	setAttr ".maxr" 4;
	setAttr ".mb" 1;
	setAttr ".tconr" 0.5;
	setAttr ".tcong" 0.5;
	setAttr ".tconb" 0.5;
	setAttr ".tcona" 0.5;
createNode mentalrayOptions -s -n "PreviewRapidMotion";
	setAttr ".minsp" -1;
	setAttr ".maxsp" 1;
	setAttr ".fil" 1;
	setAttr ".scan" 3;
	setAttr ".rapc" 3;
	setAttr ".rflr" 2;
	setAttr ".rfrr" 2;
	setAttr ".maxr" 4;
	setAttr ".mb" 1;
	setAttr ".tconr" 0.5;
	setAttr ".tcong" 0.5;
	setAttr ".tconb" 0.5;
	setAttr ".tcona" 0.5;
createNode mentalrayOptions -s -n "PreviewCaustics";
	setAttr ".minsp" -1;
	setAttr ".maxsp" 1;
	setAttr ".fil" 1;
	setAttr ".rflr" 2;
	setAttr ".rfrr" 2;
	setAttr ".maxr" 4;
	setAttr ".ca" yes;
	setAttr ".cc" 1;
	setAttr ".cr" 1;
createNode mentalrayOptions -s -n "PreviewGlobalIllum";
	setAttr ".minsp" -1;
	setAttr ".maxsp" 1;
	setAttr ".fil" 1;
	setAttr ".rflr" 2;
	setAttr ".rfrr" 2;
	setAttr ".maxr" 4;
	setAttr ".gi" yes;
	setAttr ".gc" 1;
	setAttr ".gr" 1;
createNode mentalrayOptions -s -n "PreviewFinalGather";
	setAttr ".minsp" -1;
	setAttr ".maxsp" 1;
	setAttr ".fil" 1;
	setAttr ".rflr" 2;
	setAttr ".rfrr" 2;
	setAttr ".maxr" 4;
	setAttr ".fg" yes;
createNode mentalrayOptions -s -n "Production";
	setAttr ".minsp" 0;
	setAttr ".maxsp" 2;
	setAttr ".fil" 2;
	setAttr ".rflr" 10;
	setAttr ".rfrr" 10;
	setAttr ".maxr" 20;
createNode mentalrayOptions -s -n "ProductionMotionblur";
	setAttr ".minsp" 0;
	setAttr ".maxsp" 2;
	setAttr ".fil" 2;
	setAttr ".rflr" 10;
	setAttr ".rfrr" 10;
	setAttr ".maxr" 20;
	setAttr ".mb" 2;
createNode mentalrayOptions -s -n "ProductionRapidMotion";
	setAttr ".minsp" 0;
	setAttr ".maxsp" 2;
	setAttr ".fil" 2;
	setAttr ".scan" 3;
	setAttr ".rapc" 8;
	setAttr ".raps" 2;
	setAttr ".rflr" 10;
	setAttr ".rfrr" 10;
	setAttr ".maxr" 20;
	setAttr ".mb" 2;
createNode mentalrayOptions -s -n "ProductionFineTrace";
	setAttr ".conr" 0.019999999552965164;
	setAttr ".cong" 0.019999999552965164;
	setAttr ".conb" 0.019999999552965164;
	setAttr ".minsp" 1;
	setAttr ".maxsp" 2;
	setAttr ".fil" 1;
	setAttr ".filw" 0.75;
	setAttr ".filh" 0.75;
	setAttr ".jit" yes;
createNode mentalrayOptions -s -n "ProductionRapidFur";
	setAttr ".conr" 0.039999999105930328;
	setAttr ".cong" 0.029999999329447746;
	setAttr ".conb" 0.070000000298023224;
	setAttr ".minsp" 0;
	setAttr ".maxsp" 2;
	setAttr ".fil" 1;
	setAttr ".filw" 1.1449999809265137;
	setAttr ".filh" 1.1449999809265137;
	setAttr ".jit" yes;
	setAttr ".scan" 3;
	setAttr ".rapc" 3;
	setAttr ".raps" 0.25;
	setAttr ".ray" no;
	setAttr ".shmth" 3;
	setAttr ".shmap" 3;
	setAttr ".mbsm" no;
	setAttr ".bism" 0.019999999552965164;
createNode mentalrayOptions -s -n "ProductionRapidHair";
	setAttr ".conr" 0.039999999105930328;
	setAttr ".cong" 0.029999999329447746;
	setAttr ".conb" 0.070000000298023224;
	setAttr ".minsp" 0;
	setAttr ".maxsp" 2;
	setAttr ".fil" 1;
	setAttr ".filw" 1.1449999809265137;
	setAttr ".filh" 1.1449999809265137;
	setAttr ".jit" yes;
	setAttr ".scan" 3;
	setAttr ".rapc" 6;
	setAttr ".ray" no;
	setAttr ".shmth" 3;
	setAttr ".shmap" 3;
	setAttr ".mbsm" no;
	setAttr ".bism" 0.019999999552965164;
createNode lambert -n "lambert3";
createNode shadingEngine -n "lambert3SG";
	setAttr ".ihi" 0;
	setAttr ".ro" yes;
createNode materialInfo -n "materialInfo10";
createNode file -n "file2";
	setAttr ".ftn" -type "string" "/Users/jmiller/Art/everlife//sampledDiffuseColor.tga";
createNode lambert -n "MissileTex";
createNode shadingEngine -n "lambert4SG";
	setAttr ".ihi" 0;
	setAttr ".ro" yes;
createNode materialInfo -n "materialInfo11";
createNode file -n "file3";
	setAttr ".ftn" -type "string" "/Users/jmiller/Art/everlife//sampledDiffuseColor.tga";
createNode file -n "file4";
	setAttr ".ftn" -type "string" "/Users/jmiller/Art/everlife//sampledColor.dds";
select -ne :time1;
	setAttr -av -cb on ".cch";
	setAttr -cb on ".ihi";
	setAttr -av -cb on ".nds";
	setAttr -cb on ".bnm";
	setAttr -k on ".o" 6;
	setAttr ".unw" 6;
select -ne :renderPartition;
	setAttr -cb on ".cch";
	setAttr -cb on ".ihi";
	setAttr -cb on ".nds";
	setAttr -cb on ".bnm";
	setAttr -s 8 ".st";
	setAttr -cb on ".an";
	setAttr -cb on ".pt";
select -ne :initialShadingGroup;
	setAttr -k on ".cch";
	setAttr -cb on ".ihi";
	setAttr -av -k on ".nds";
	setAttr -cb on ".bnm";
	setAttr -cb on ".mwc";
	setAttr -cb on ".an";
	setAttr -cb on ".il";
	setAttr -cb on ".vo";
	setAttr -cb on ".eo";
	setAttr -cb on ".fo";
	setAttr -cb on ".epo";
	setAttr -k on ".ro" yes;
	setAttr -cb on ".mimt";
	setAttr -cb on ".miop";
	setAttr -k on ".mico";
	setAttr -cb on ".mise";
	setAttr -cb on ".mism";
	setAttr -cb on ".mice";
	setAttr -av -cb on ".micc";
	setAttr -k on ".micr";
	setAttr -k on ".micg";
	setAttr -k on ".micb";
	setAttr -cb on ".mica";
	setAttr -av -cb on ".micw";
	setAttr -cb on ".mirw";
select -ne :initialParticleSE;
	setAttr -av -k on ".cch";
	setAttr -cb on ".ihi";
	setAttr -av -k on ".nds";
	setAttr -cb on ".bnm";
	setAttr -cb on ".mwc";
	setAttr -cb on ".an";
	setAttr -cb on ".il";
	setAttr -cb on ".vo";
	setAttr -cb on ".eo";
	setAttr -cb on ".fo";
	setAttr -cb on ".epo";
	setAttr -k on ".ro" yes;
	setAttr -cb on ".mimt";
	setAttr -cb on ".miop";
	setAttr -k on ".mico";
	setAttr -cb on ".mise";
	setAttr -cb on ".mism";
	setAttr -cb on ".mice";
	setAttr -av -cb on ".micc";
	setAttr -k on ".micr";
	setAttr -k on ".micg";
	setAttr -k on ".micb";
	setAttr -cb on ".mica";
	setAttr -av -cb on ".micw";
	setAttr -cb on ".mirw";
select -ne :defaultShaderList1;
	setAttr -cb on ".cch";
	setAttr -cb on ".ihi";
	setAttr -cb on ".nds";
	setAttr -cb on ".bnm";
	setAttr -s 10 ".s";
select -ne :defaultTextureList1;
	setAttr -k on ".cch";
	setAttr -cb on ".ihi";
	setAttr -k on ".nds";
	setAttr -cb on ".bnm";
	setAttr -s 10 ".tx";
select -ne :postProcessList1;
	setAttr -cb on ".cch";
	setAttr -cb on ".ihi";
	setAttr -cb on ".nds";
	setAttr -cb on ".bnm";
	setAttr -s 2 ".p";
select -ne :defaultRenderUtilityList1;
	setAttr -k on ".cch";
	setAttr -cb on ".ihi";
	setAttr -k on ".nds";
	setAttr -cb on ".bnm";
	setAttr -s 8 ".u";
select -ne :defaultRenderingList1;
select -ne :renderGlobalsList1;
	setAttr -cb on ".cch";
	setAttr -cb on ".ihi";
	setAttr -cb on ".nds";
	setAttr -cb on ".bnm";
select -ne :defaultRenderGlobals;
	setAttr -k on ".cch";
	setAttr -cb on ".ihi";
	setAttr -k on ".nds";
	setAttr -cb on ".bnm";
	setAttr -k on ".macc";
	setAttr -k on ".macd";
	setAttr -k on ".macq";
	setAttr -k on ".mcfr" 3;
	setAttr -cb on ".ifg";
	setAttr -k on ".clip";
	setAttr -k on ".edm";
	setAttr -k on ".edl";
	setAttr -cb on ".ren" -type "string" "mentalRay";
	setAttr -av -k on ".esr";
	setAttr -k on ".ors";
	setAttr -cb on ".sdf";
	setAttr -av -k on ".outf";
	setAttr -cb on ".imfkey";
	setAttr -k on ".gama";
	setAttr -cb on ".an";
	setAttr -cb on ".ar";
	setAttr -k on ".fs" 1;
	setAttr -k on ".ef" 10;
	setAttr -av -k on ".bfs";
	setAttr -cb on ".me";
	setAttr -cb on ".se";
	setAttr -k on ".be";
	setAttr -cb on ".ep";
	setAttr -k on ".fec";
	setAttr -av -k on ".ofc";
	setAttr -cb on ".ofe";
	setAttr -cb on ".efe";
	setAttr -cb on ".oft";
	setAttr -cb on ".umfn";
	setAttr -cb on ".ufe";
	setAttr -cb on ".pff";
	setAttr -cb on ".peie";
	setAttr -cb on ".ifp";
	setAttr -k on ".comp";
	setAttr -k on ".cth";
	setAttr -k on ".soll";
	setAttr -cb on ".sosl";
	setAttr -k on ".rd";
	setAttr -k on ".lp";
	setAttr -av -k on ".sp";
	setAttr -k on ".shs";
	setAttr -av -k on ".lpr";
	setAttr -cb on ".gv";
	setAttr -cb on ".sv";
	setAttr -k on ".mm";
	setAttr -k on ".npu";
	setAttr -k on ".itf";
	setAttr -k on ".shp";
	setAttr -cb on ".isp";
	setAttr -k on ".uf";
	setAttr -k on ".oi";
	setAttr -k on ".rut";
	setAttr -cb on ".mb";
	setAttr -av -k on ".mbf";
	setAttr -k on ".afp";
	setAttr -k on ".pfb";
	setAttr -k on ".pram";
	setAttr -k on ".poam";
	setAttr -k on ".prlm";
	setAttr -k on ".polm";
	setAttr -cb on ".prm";
	setAttr -cb on ".pom";
	setAttr -cb on ".pfrm";
	setAttr -cb on ".pfom";
	setAttr -av -k on ".bll";
	setAttr -av -k on ".bls";
	setAttr -av -k on ".smv";
	setAttr -k on ".ubc";
	setAttr -k on ".mbc";
	setAttr -cb on ".mbt";
	setAttr -k on ".udbx";
	setAttr -k on ".smc";
	setAttr -k on ".kmv";
	setAttr -cb on ".isl";
	setAttr -cb on ".ism";
	setAttr -cb on ".imb";
	setAttr -k on ".rlen";
	setAttr -av -k on ".frts";
	setAttr -k on ".tlwd";
	setAttr -k on ".tlht";
	setAttr -k on ".jfc";
	setAttr -cb on ".rsb";
	setAttr -k on ".ope";
	setAttr -k on ".oppf";
	setAttr -cb on ".hbl";
select -ne :defaultResolution;
	setAttr -av -k on ".cch";
	setAttr -k on ".ihi";
	setAttr -av -k on ".nds";
	setAttr -k on ".bnm";
	setAttr -av ".w" 256;
	setAttr -av ".h" 256;
	setAttr -av ".pa" 1;
	setAttr -av -k on ".al";
	setAttr -av ".dar" 1;
	setAttr -av -k on ".ldar";
	setAttr -k on ".dpi";
	setAttr -av -k on ".off";
	setAttr -av -k on ".fld";
	setAttr -av -k on ".zsl";
	setAttr -k on ".isu";
	setAttr -k on ".pdu";
select -ne :defaultLightSet;
	setAttr -k on ".cch";
	setAttr -k on ".ihi";
	setAttr -av -k on ".nds";
	setAttr -k on ".bnm";
	setAttr -k on ".mwc";
	setAttr -k on ".an";
	setAttr -k on ".il";
	setAttr -k on ".vo";
	setAttr -k on ".eo";
	setAttr -k on ".fo";
	setAttr -k on ".epo";
	setAttr -k on ".ro" yes;
select -ne :defaultObjectSet;
	setAttr -k on ".cch";
	setAttr -k on ".ihi";
	setAttr -k on ".nds";
	setAttr -k on ".bnm";
	setAttr -k on ".mwc";
	setAttr -k on ".an";
	setAttr -k on ".il";
	setAttr -k on ".vo";
	setAttr -k on ".eo";
	setAttr -k on ".fo";
	setAttr -k on ".epo";
	setAttr ".ro" yes;
select -ne :hardwareRenderGlobals;
	setAttr -cb on ".cch";
	setAttr -cb on ".ihi";
	setAttr -cb on ".nds";
	setAttr -cb on ".bnm";
	setAttr ".ctrs" 256;
	setAttr -av ".btrs" 512;
	setAttr -k off ".fbfm";
	setAttr -k off -cb on ".ehql";
	setAttr -k off -cb on ".eams";
	setAttr -k off -cb on ".eeaa";
	setAttr -k off -cb on ".engm";
	setAttr -k off -cb on ".mes";
	setAttr -k off -cb on ".emb";
	setAttr -av -k off -cb on ".mbbf";
	setAttr -k off -cb on ".mbs";
	setAttr -k off -cb on ".trm";
	setAttr -k off -cb on ".tshc";
	setAttr -k off ".enpt";
	setAttr -k off -cb on ".clmt";
	setAttr -k off -cb on ".tcov";
	setAttr -k off -cb on ".lith";
	setAttr -k off -cb on ".sobc";
	setAttr -k off -cb on ".cuth";
	setAttr -k off -cb on ".hgcd";
	setAttr -k off -cb on ".hgci";
	setAttr -k off -cb on ".mgcs";
	setAttr -k off -cb on ".twa";
	setAttr -k off -cb on ".twz";
	setAttr -cb on ".hwcc";
	setAttr -cb on ".hwdp";
	setAttr -cb on ".hwql";
	setAttr -k on ".hwfr" 3;
select -ne :defaultHardwareRenderGlobals;
	setAttr -cb on ".cch";
	setAttr -cb on ".ihi";
	setAttr -cb on ".nds";
	setAttr -cb on ".bnm";
	setAttr -av -cb on ".rp";
	setAttr -cb on ".cai";
	setAttr -cb on ".coi";
	setAttr -cb on ".bc";
	setAttr -av -k on ".bcb";
	setAttr -av -k on ".bcg";
	setAttr -av -k on ".bcr";
	setAttr -cb on ".ei";
	setAttr -av -cb on ".ex";
	setAttr -av -cb on ".es";
	setAttr -av -cb on ".ef";
	setAttr -av -cb on ".bf";
	setAttr -cb on ".fii";
	setAttr -av -cb on ".sf";
	setAttr -cb on ".gr";
	setAttr -cb on ".li";
	setAttr -cb on ".ls";
	setAttr -av -cb on ".mb";
	setAttr -cb on ".ti";
	setAttr -cb on ".txt";
	setAttr -cb on ".mpr";
	setAttr -cb on ".wzd";
	setAttr -k on ".fn" -type "string" "im";
	setAttr -cb on ".if";
	setAttr -k on ".res" -type "string" "ntsc_4d 646 485 1.333";
	setAttr -cb on ".as";
	setAttr -cb on ".ds";
	setAttr -cb on ".lm";
	setAttr -av -cb on ".fir";
	setAttr -cb on ".aap";
	setAttr -av -cb on ".gh";
	setAttr -cb on ".sd";
select -ne :ikSystem;
	setAttr -s 4 ".sol";
connectAttr "blinn1SG.msg" "materialInfo1.sg";
connectAttr "yellow.msg" "materialInfo1.m";
connectAttr "yellow.oc" "blinn1SG.ss";
connectAttr "Toon_yellow.oc" "yellow.ambc";
connectAttr "toonredoutline.oc" "Toon_yellow.c";
connectAttr "mib_amb_occlusion9.S11" "Toon_yellow.ambc";
connectAttr "place2dTexture20.o" "toonredoutline.uv";
connectAttr "samplerInfo1.fr" "toonredoutline.v";
connectAttr "samplerInfo1.fr" "toonredoutline.u";
connectAttr "place2dTexture20.ofs" "toonredoutline.fs";
connectAttr "toonred_color.oc" "toonredoutline.cel[2].ec";
connectAttr "place2dTexture21.o" "toonred_color.uv";
connectAttr "samplerInfo2.fr" "toonred_color.u";
connectAttr "samplerInfo2.fr" "toonred_color.v";
connectAttr "place2dTexture21.ofs" "toonred_color.fs";
connectAttr "toonredSG.msg" "materialInfo8.sg";
connectAttr "toonred.msg" "materialInfo8.m";
connectAttr "toonred.oc" "toonredSG.ss";
connectAttr "Tads_toon.oc" "toonred.ambc";
connectAttr "toonredoutline2.oc" "Tads_toon.c";
connectAttr "mib_amb_occlusion11.S11" "Tads_toon.ambc";
connectAttr "place2dTexture24.o" "toonredoutline2.uv";
connectAttr "samplerInfo5.fr" "toonredoutline2.v";
connectAttr "samplerInfo5.fr" "toonredoutline2.u";
connectAttr "place2dTexture24.ofs" "toonredoutline2.fs";
connectAttr "toonred_color2.oc" "toonredoutline2.cel[2].ec";
connectAttr "place2dTexture25.o" "toonred_color2.uv";
connectAttr "samplerInfo6.fr" "toonred_color2.u";
connectAttr "samplerInfo6.fr" "toonred_color2.v";
connectAttr "place2dTexture25.ofs" "toonred_color2.fs";
connectAttr "blinn5SG.msg" "materialInfo5.sg";
connectAttr "exhaust.msg" "materialInfo5.m";
connectAttr "exhaust.oc" "blinn5SG.ss";
connectAttr "exhaust_incandescenceR.o" "exhaust.ir";
connectAttr "exhaust_incandescenceG.o" "exhaust.ig";
connectAttr "exhaust_incandescenceB.o" "exhaust.ib";
connectAttr "exhaust_glowIntensity.o" "exhaust.gi";
relationship "link" ":lightLinker1" ":initialShadingGroup.message" ":defaultLightSet.message";
relationship "link" ":lightLinker1" ":initialParticleSE.message" ":defaultLightSet.message";
relationship "link" ":lightLinker1" "blinn1SG.message" ":defaultLightSet.message";
relationship "link" ":lightLinker1" "blinn5SG.message" ":defaultLightSet.message";
relationship "link" ":lightLinker1" "toonredSG.message" ":defaultLightSet.message";
relationship "link" ":lightLinker1" "lambert2SG.message" ":defaultLightSet.message";
relationship "link" ":lightLinker1" "lambert3SG.message" ":defaultLightSet.message";
relationship "link" ":lightLinker1" "lambert4SG.message" ":defaultLightSet.message";
relationship "shadowLink" ":lightLinker1" ":initialShadingGroup.message" ":defaultLightSet.message";
relationship "shadowLink" ":lightLinker1" ":initialParticleSE.message" ":defaultLightSet.message";
relationship "shadowLink" ":lightLinker1" "blinn1SG.message" ":defaultLightSet.message";
relationship "shadowLink" ":lightLinker1" "blinn5SG.message" ":defaultLightSet.message";
relationship "shadowLink" ":lightLinker1" "toonredSG.message" ":defaultLightSet.message";
relationship "shadowLink" ":lightLinker1" "lambert2SG.message" ":defaultLightSet.message";
relationship "shadowLink" ":lightLinker1" "lambert3SG.message" ":defaultLightSet.message";
relationship "shadowLink" ":lightLinker1" "lambert4SG.message" ":defaultLightSet.message";
connectAttr "layerManager.dli[0]" "defaultLayer.id";
connectAttr "renderLayerManager.rlmi[0]" "defaultRenderLayer.rlid";
connectAttr ":mentalrayGlobals.msg" ":mentalrayItemsList.glb";
connectAttr ":miDefaultOptions.msg" ":mentalrayItemsList.opt" -na;
connectAttr ":miDefaultFramebuffer.msg" ":mentalrayItemsList.fb" -na;
connectAttr ":miDefaultOptions.msg" ":mentalrayGlobals.opt";
connectAttr ":miDefaultFramebuffer.msg" ":mentalrayGlobals.fb";
connectAttr "MissileShape1.o" "loopSplit.ip";
connectAttr "polySplit1Slide.out[0]" "loopSplit.e[0]";
connectAttr "polySplit1Slide.out[1]" "loopSplit.e[1]";
connectAttr "polySplit1Slide.out[2]" "loopSplit.e[2]";
connectAttr "polySplit1Slide.out[3]" "loopSplit.e[3]";
connectAttr "polySplit1Slide.out[4]" "loopSplit.e[4]";
connectAttr "polySplit1Slide.out[5]" "loopSplit.e[5]";
connectAttr "polySplit1Slide.out[6]" "loopSplit.e[6]";
connectAttr "polySplit1Slide.out[7]" "loopSplit.e[7]";
connectAttr "polySplit1Slide.out[8]" "loopSplit.e[8]";
connectAttr "polySplit1Slide.out[9]" "loopSplit.e[9]";
connectAttr "polySplit1Slide.out[10]" "loopSplit.e[10]";
connectAttr "polySplit1Slide.out[11]" "loopSplit.e[11]";
connectAttr "polySplit1Slide.out[12]" "loopSplit.e[12]";
connectAttr "polySplit1Slide.out[13]" "loopSplit.e[13]";
connectAttr "polySplit1Slide.out[14]" "loopSplit.e[14]";
connectAttr "polySplit1Slide.out[15]" "loopSplit.e[15]";
connectAttr "polySplit1Slide.out[16]" "loopSplit.e[16]";
connectAttr "loopSplit.Slide" "polySplit1Slide.in[0]";
connectAttr ":time1.o" "polySplit1Slide.tim";
connectAttr "loopSplit.msg" "polySplit1Slide.obm";
connectAttr "file1.oc" "lambert2.c";
connectAttr "lambert2.oc" "lambert2SG.ss";
connectAttr "lambert2SG.msg" "materialInfo9.sg";
connectAttr "lambert2.msg" "materialInfo9.m";
connectAttr "file1.msg" "materialInfo9.t" -na;
connectAttr "file2.oc" "lambert3.c";
connectAttr "lambert3.oc" "lambert3SG.ss";
connectAttr "lambert3SG.msg" "materialInfo10.sg";
connectAttr "lambert3.msg" "materialInfo10.m";
connectAttr "file2.msg" "materialInfo10.t" -na;
connectAttr "file3.oc" "MissileTex.c";
connectAttr "MissileTex.oc" "lambert4SG.ss";
connectAttr "MissileShape.iog" "lambert4SG.dsm" -na;
connectAttr "lambert4SG.msg" "materialInfo11.sg";
connectAttr "MissileTex.msg" "materialInfo11.m";
connectAttr "file3.msg" "materialInfo11.t" -na;
connectAttr "blinn1SG.pa" ":renderPartition.st" -na;
connectAttr "blinn5SG.pa" ":renderPartition.st" -na;
connectAttr "toonredSG.pa" ":renderPartition.st" -na;
connectAttr "lambert2SG.pa" ":renderPartition.st" -na;
connectAttr "lambert3SG.pa" ":renderPartition.st" -na;
connectAttr "lambert4SG.pa" ":renderPartition.st" -na;
connectAttr "yellow.msg" ":defaultShaderList1.s" -na;
connectAttr "exhaust.msg" ":defaultShaderList1.s" -na;
connectAttr "Toon_yellow.msg" ":defaultShaderList1.s" -na;
connectAttr "toonred.msg" ":defaultShaderList1.s" -na;
connectAttr "Tads_toon.msg" ":defaultShaderList1.s" -na;
connectAttr "lambert2.msg" ":defaultShaderList1.s" -na;
connectAttr "lambert3.msg" ":defaultShaderList1.s" -na;
connectAttr "MissileTex.msg" ":defaultShaderList1.s" -na;
connectAttr "toonredoutline.msg" ":defaultTextureList1.tx" -na;
connectAttr "toonred_color.msg" ":defaultTextureList1.tx" -na;
connectAttr "mib_amb_occlusion9.msg" ":defaultTextureList1.tx" -na;
connectAttr "toonredoutline2.msg" ":defaultTextureList1.tx" -na;
connectAttr "toonred_color2.msg" ":defaultTextureList1.tx" -na;
connectAttr "mib_amb_occlusion11.msg" ":defaultTextureList1.tx" -na;
connectAttr "file1.msg" ":defaultTextureList1.tx" -na;
connectAttr "file2.msg" ":defaultTextureList1.tx" -na;
connectAttr "file3.msg" ":defaultTextureList1.tx" -na;
connectAttr "file4.msg" ":defaultTextureList1.tx" -na;
connectAttr "place2dTexture20.msg" ":defaultRenderUtilityList1.u" -na;
connectAttr "samplerInfo1.msg" ":defaultRenderUtilityList1.u" -na;
connectAttr "place2dTexture21.msg" ":defaultRenderUtilityList1.u" -na;
connectAttr "samplerInfo2.msg" ":defaultRenderUtilityList1.u" -na;
connectAttr "place2dTexture24.msg" ":defaultRenderUtilityList1.u" -na;
connectAttr "samplerInfo5.msg" ":defaultRenderUtilityList1.u" -na;
connectAttr "place2dTexture25.msg" ":defaultRenderUtilityList1.u" -na;
connectAttr "samplerInfo6.msg" ":defaultRenderUtilityList1.u" -na;
connectAttr "defaultRenderLayer.msg" ":defaultRenderingList1.r" -na;
// End of Missile.ma
